<?xml version="1.0" encoding="utf-8" standalone="no"?>
<!DOCTYPE svg PUBLIC "-//W3C//DTD SVG 1.1//EN"
  "http://www.w3.org/Graphics/SVG/1.1/DTD/svg11.dtd">
<!-- Created with matplotlib (https://matplotlib.org/) -->
<svg height="345.6pt" version="1.1" viewBox="0 0 460.8 345.6" width="460.8pt" xmlns="http://www.w3.org/2000/svg" xmlns:xlink="http://www.w3.org/1999/xlink">
 <defs>
  <style type="text/css">
*{stroke-linecap:butt;stroke-linejoin:round;}
  </style>
 </defs>
 <g id="figure_1">
  <g id="patch_1">
   <path d="M 0 345.6 
L 460.8 345.6 
L 460.8 0 
L 0 0 
z
" style="fill:#ffffff;"/>
  </g>
  <g id="axes_1">
   <g id="patch_2">
    <path d="M 57.6 307.584 
L 414.72 307.584 
L 414.72 41.472 
L 57.6 41.472 
z
" style="fill:#ffffff;"/>
   </g>
   <g id="matplotlib.axis_1">
    <g id="xtick_1">
     <g id="line2d_1">
      <defs>
       <path d="M 0 0 
L 0 3.5 
" id="mc73167949c" style="stroke:#000000;stroke-width:0.8;"/>
      </defs>
      <g>
       <use style="stroke:#000000;stroke-width:0.8;" x="73.832727" xlink:href="#mc73167949c" y="307.584"/>
      </g>
     </g>
     <g id="text_1">
      <!-- 0 -->
      <defs>
       <path d="M 31.78125 66.40625 
Q 24.171875 66.40625 20.328125 58.90625 
Q 16.5 51.421875 16.5 36.375 
Q 16.5 21.390625 20.328125 13.890625 
Q 24.171875 6.390625 31.78125 6.390625 
Q 39.453125 6.390625 43.28125 13.890625 
Q 47.125 21.390625 47.125 36.375 
Q 47.125 51.421875 43.28125 58.90625 
Q 39.453125 66.40625 31.78125 66.40625 
z
M 31.78125 74.21875 
Q 44.046875 74.21875 50.515625 64.515625 
Q 56.984375 54.828125 56.984375 36.375 
Q 56.984375 17.96875 50.515625 8.265625 
Q 44.046875 -1.421875 31.78125 -1.421875 
Q 19.53125 -1.421875 13.0625 8.265625 
Q 6.59375 17.96875 6.59375 36.375 
Q 6.59375 54.828125 13.0625 64.515625 
Q 19.53125 74.21875 31.78125 74.21875 
z
" id="DejaVuSans-48"/>
      </defs>
      <g transform="translate(70.651477 322.182437)scale(0.1 -0.1)">
       <use xlink:href="#DejaVuSans-48"/>
      </g>
     </g>
    </g>
    <g id="xtick_2">
     <g id="line2d_2">
      <g>
       <use style="stroke:#000000;stroke-width:0.8;" x="150.43833" xlink:href="#mc73167949c" y="307.584"/>
      </g>
     </g>
     <g id="text_2">
      <!-- 500 -->
      <defs>
       <path d="M 10.796875 72.90625 
L 49.515625 72.90625 
L 49.515625 64.59375 
L 19.828125 64.59375 
L 19.828125 46.734375 
Q 21.96875 47.46875 24.109375 47.828125 
Q 26.265625 48.1875 28.421875 48.1875 
Q 40.625 48.1875 47.75 41.5 
Q 54.890625 34.8125 54.890625 23.390625 
Q 54.890625 11.625 47.5625 5.09375 
Q 40.234375 -1.421875 26.90625 -1.421875 
Q 22.3125 -1.421875 17.546875 -0.640625 
Q 12.796875 0.140625 7.71875 1.703125 
L 7.71875 11.625 
Q 12.109375 9.234375 16.796875 8.0625 
Q 21.484375 6.890625 26.703125 6.890625 
Q 35.15625 6.890625 40.078125 11.328125 
Q 45.015625 15.765625 45.015625 23.390625 
Q 45.015625 31 40.078125 35.4375 
Q 35.15625 39.890625 26.703125 39.890625 
Q 22.75 39.890625 18.8125 39.015625 
Q 14.890625 38.140625 10.796875 36.28125 
z
" id="DejaVuSans-53"/>
      </defs>
      <g transform="translate(140.89458 322.182437)scale(0.1 -0.1)">
       <use xlink:href="#DejaVuSans-53"/>
       <use x="63.623047" xlink:href="#DejaVuSans-48"/>
       <use x="127.246094" xlink:href="#DejaVuSans-48"/>
      </g>
     </g>
    </g>
    <g id="xtick_3">
     <g id="line2d_3">
      <g>
       <use style="stroke:#000000;stroke-width:0.8;" x="227.043933" xlink:href="#mc73167949c" y="307.584"/>
      </g>
     </g>
     <g id="text_3">
      <!-- 1000 -->
      <defs>
       <path d="M 12.40625 8.296875 
L 28.515625 8.296875 
L 28.515625 63.921875 
L 10.984375 60.40625 
L 10.984375 69.390625 
L 28.421875 72.90625 
L 38.28125 72.90625 
L 38.28125 8.296875 
L 54.390625 8.296875 
L 54.390625 0 
L 12.40625 0 
z
" id="DejaVuSans-49"/>
      </defs>
      <g transform="translate(214.318933 322.182437)scale(0.1 -0.1)">
       <use xlink:href="#DejaVuSans-49"/>
       <use x="63.623047" xlink:href="#DejaVuSans-48"/>
       <use x="127.246094" xlink:href="#DejaVuSans-48"/>
       <use x="190.869141" xlink:href="#DejaVuSans-48"/>
      </g>
     </g>
    </g>
    <g id="xtick_4">
     <g id="line2d_4">
      <g>
       <use style="stroke:#000000;stroke-width:0.8;" x="303.649536" xlink:href="#mc73167949c" y="307.584"/>
      </g>
     </g>
     <g id="text_4">
      <!-- 1500 -->
      <g transform="translate(290.924536 322.182437)scale(0.1 -0.1)">
       <use xlink:href="#DejaVuSans-49"/>
       <use x="63.623047" xlink:href="#DejaVuSans-53"/>
       <use x="127.246094" xlink:href="#DejaVuSans-48"/>
       <use x="190.869141" xlink:href="#DejaVuSans-48"/>
      </g>
     </g>
    </g>
    <g id="xtick_5">
     <g id="line2d_5">
      <g>
       <use style="stroke:#000000;stroke-width:0.8;" x="380.255139" xlink:href="#mc73167949c" y="307.584"/>
      </g>
     </g>
     <g id="text_5">
      <!-- 2000 -->
      <defs>
       <path d="M 19.1875 8.296875 
L 53.609375 8.296875 
L 53.609375 0 
L 7.328125 0 
L 7.328125 8.296875 
Q 12.9375 14.109375 22.625 23.890625 
Q 32.328125 33.6875 34.8125 36.53125 
Q 39.546875 41.84375 41.421875 45.53125 
Q 43.3125 49.21875 43.3125 52.78125 
Q 43.3125 58.59375 39.234375 62.25 
Q 35.15625 65.921875 28.609375 65.921875 
Q 23.96875 65.921875 18.8125 64.3125 
Q 13.671875 62.703125 7.8125 59.421875 
L 7.8125 69.390625 
Q 13.765625 71.78125 18.9375 73 
Q 24.125 74.21875 28.421875 74.21875 
Q 39.75 74.21875 46.484375 68.546875 
Q 53.21875 62.890625 53.21875 53.421875 
Q 53.21875 48.921875 51.53125 44.890625 
Q 49.859375 40.875 45.40625 35.40625 
Q 44.1875 33.984375 37.640625 27.21875 
Q 31.109375 20.453125 19.1875 8.296875 
z
" id="DejaVuSans-50"/>
      </defs>
      <g transform="translate(367.530139 322.182437)scale(0.1 -0.1)">
       <use xlink:href="#DejaVuSans-50"/>
       <use x="63.623047" xlink:href="#DejaVuSans-48"/>
       <use x="127.246094" xlink:href="#DejaVuSans-48"/>
       <use x="190.869141" xlink:href="#DejaVuSans-48"/>
      </g>
     </g>
    </g>
   </g>
   <g id="matplotlib.axis_2">
    <g id="ytick_1">
     <g id="line2d_6">
      <defs>
       <path d="M 0 0 
L -3.5 0 
" id="mb75d45e74e" style="stroke:#000000;stroke-width:0.8;"/>
      </defs>
      <g>
       <use style="stroke:#000000;stroke-width:0.8;" x="57.6" xlink:href="#mb75d45e74e" y="289.65134"/>
      </g>
     </g>
     <g id="text_6">
      <!-- 0.2 -->
      <defs>
       <path d="M 10.6875 12.40625 
L 21 12.40625 
L 21 0 
L 10.6875 0 
z
" id="DejaVuSans-46"/>
      </defs>
      <g transform="translate(34.696875 293.450558)scale(0.1 -0.1)">
       <use xlink:href="#DejaVuSans-48"/>
       <use x="63.623047" xlink:href="#DejaVuSans-46"/>
       <use x="95.410156" xlink:href="#DejaVuSans-50"/>
      </g>
     </g>
    </g>
    <g id="ytick_2">
     <g id="line2d_7">
      <g>
       <use style="stroke:#000000;stroke-width:0.8;" x="57.6" xlink:href="#mb75d45e74e" y="251.437428"/>
      </g>
     </g>
     <g id="text_7">
      <!-- 0.3 -->
      <defs>
       <path d="M 40.578125 39.3125 
Q 47.65625 37.796875 51.625 33 
Q 55.609375 28.21875 55.609375 21.1875 
Q 55.609375 10.40625 48.1875 4.484375 
Q 40.765625 -1.421875 27.09375 -1.421875 
Q 22.515625 -1.421875 17.65625 -0.515625 
Q 12.796875 0.390625 7.625 2.203125 
L 7.625 11.71875 
Q 11.71875 9.328125 16.59375 8.109375 
Q 21.484375 6.890625 26.8125 6.890625 
Q 36.078125 6.890625 40.9375 10.546875 
Q 45.796875 14.203125 45.796875 21.1875 
Q 45.796875 27.640625 41.28125 31.265625 
Q 36.765625 34.90625 28.71875 34.90625 
L 20.21875 34.90625 
L 20.21875 43.015625 
L 29.109375 43.015625 
Q 36.375 43.015625 40.234375 45.921875 
Q 44.09375 48.828125 44.09375 54.296875 
Q 44.09375 59.90625 40.109375 62.90625 
Q 36.140625 65.921875 28.71875 65.921875 
Q 24.65625 65.921875 20.015625 65.03125 
Q 15.375 64.15625 9.8125 62.3125 
L 9.8125 71.09375 
Q 15.4375 72.65625 20.34375 73.4375 
Q 25.25 74.21875 29.59375 74.21875 
Q 40.828125 74.21875 47.359375 69.109375 
Q 53.90625 64.015625 53.90625 55.328125 
Q 53.90625 49.265625 50.4375 45.09375 
Q 46.96875 40.921875 40.578125 39.3125 
z
" id="DejaVuSans-51"/>
      </defs>
      <g transform="translate(34.696875 255.236647)scale(0.1 -0.1)">
       <use xlink:href="#DejaVuSans-48"/>
       <use x="63.623047" xlink:href="#DejaVuSans-46"/>
       <use x="95.410156" xlink:href="#DejaVuSans-51"/>
      </g>
     </g>
    </g>
    <g id="ytick_3">
     <g id="line2d_8">
      <g>
       <use style="stroke:#000000;stroke-width:0.8;" x="57.6" xlink:href="#mb75d45e74e" y="213.223516"/>
      </g>
     </g>
     <g id="text_8">
      <!-- 0.4 -->
      <defs>
       <path d="M 37.796875 64.3125 
L 12.890625 25.390625 
L 37.796875 25.390625 
z
M 35.203125 72.90625 
L 47.609375 72.90625 
L 47.609375 25.390625 
L 58.015625 25.390625 
L 58.015625 17.1875 
L 47.609375 17.1875 
L 47.609375 0 
L 37.796875 0 
L 37.796875 17.1875 
L 4.890625 17.1875 
L 4.890625 26.703125 
z
" id="DejaVuSans-52"/>
      </defs>
      <g transform="translate(34.696875 217.022735)scale(0.1 -0.1)">
       <use xlink:href="#DejaVuSans-48"/>
       <use x="63.623047" xlink:href="#DejaVuSans-46"/>
       <use x="95.410156" xlink:href="#DejaVuSans-52"/>
      </g>
     </g>
    </g>
    <g id="ytick_4">
     <g id="line2d_9">
      <g>
       <use style="stroke:#000000;stroke-width:0.8;" x="57.6" xlink:href="#mb75d45e74e" y="175.009604"/>
      </g>
     </g>
     <g id="text_9">
      <!-- 0.5 -->
      <g transform="translate(34.696875 178.808823)scale(0.1 -0.1)">
       <use xlink:href="#DejaVuSans-48"/>
       <use x="63.623047" xlink:href="#DejaVuSans-46"/>
       <use x="95.410156" xlink:href="#DejaVuSans-53"/>
      </g>
     </g>
    </g>
    <g id="ytick_5">
     <g id="line2d_10">
      <g>
       <use style="stroke:#000000;stroke-width:0.8;" x="57.6" xlink:href="#mb75d45e74e" y="136.795693"/>
      </g>
     </g>
     <g id="text_10">
      <!-- 0.6 -->
      <defs>
       <path d="M 33.015625 40.375 
Q 26.375 40.375 22.484375 35.828125 
Q 18.609375 31.296875 18.609375 23.390625 
Q 18.609375 15.53125 22.484375 10.953125 
Q 26.375 6.390625 33.015625 6.390625 
Q 39.65625 6.390625 43.53125 10.953125 
Q 47.40625 15.53125 47.40625 23.390625 
Q 47.40625 31.296875 43.53125 35.828125 
Q 39.65625 40.375 33.015625 40.375 
z
M 52.59375 71.296875 
L 52.59375 62.3125 
Q 48.875 64.0625 45.09375 64.984375 
Q 41.3125 65.921875 37.59375 65.921875 
Q 27.828125 65.921875 22.671875 59.328125 
Q 17.53125 52.734375 16.796875 39.40625 
Q 19.671875 43.65625 24.015625 45.921875 
Q 28.375 48.1875 33.59375 48.1875 
Q 44.578125 48.1875 50.953125 41.515625 
Q 57.328125 34.859375 57.328125 23.390625 
Q 57.328125 12.15625 50.6875 5.359375 
Q 44.046875 -1.421875 33.015625 -1.421875 
Q 20.359375 -1.421875 13.671875 8.265625 
Q 6.984375 17.96875 6.984375 36.375 
Q 6.984375 53.65625 15.1875 63.9375 
Q 23.390625 74.21875 37.203125 74.21875 
Q 40.921875 74.21875 44.703125 73.484375 
Q 48.484375 72.75 52.59375 71.296875 
z
" id="DejaVuSans-54"/>
      </defs>
      <g transform="translate(34.696875 140.594911)scale(0.1 -0.1)">
       <use xlink:href="#DejaVuSans-48"/>
       <use x="63.623047" xlink:href="#DejaVuSans-46"/>
       <use x="95.410156" xlink:href="#DejaVuSans-54"/>
      </g>
     </g>
    </g>
    <g id="ytick_6">
     <g id="line2d_11">
      <g>
       <use style="stroke:#000000;stroke-width:0.8;" x="57.6" xlink:href="#mb75d45e74e" y="98.581781"/>
      </g>
     </g>
     <g id="text_11">
      <!-- 0.7 -->
      <defs>
       <path d="M 8.203125 72.90625 
L 55.078125 72.90625 
L 55.078125 68.703125 
L 28.609375 0 
L 18.3125 0 
L 43.21875 64.59375 
L 8.203125 64.59375 
z
" id="DejaVuSans-55"/>
      </defs>
      <g transform="translate(34.696875 102.381)scale(0.1 -0.1)">
       <use xlink:href="#DejaVuSans-48"/>
       <use x="63.623047" xlink:href="#DejaVuSans-46"/>
       <use x="95.410156" xlink:href="#DejaVuSans-55"/>
      </g>
     </g>
    </g>
    <g id="ytick_7">
     <g id="line2d_12">
      <g>
       <use style="stroke:#000000;stroke-width:0.8;" x="57.6" xlink:href="#mb75d45e74e" y="60.367869"/>
      </g>
     </g>
     <g id="text_12">
      <!-- 0.8 -->
      <defs>
       <path d="M 31.78125 34.625 
Q 24.75 34.625 20.71875 30.859375 
Q 16.703125 27.09375 16.703125 20.515625 
Q 16.703125 13.921875 20.71875 10.15625 
Q 24.75 6.390625 31.78125 6.390625 
Q 38.8125 6.390625 42.859375 10.171875 
Q 46.921875 13.96875 46.921875 20.515625 
Q 46.921875 27.09375 42.890625 30.859375 
Q 38.875 34.625 31.78125 34.625 
z
M 21.921875 38.8125 
Q 15.578125 40.375 12.03125 44.71875 
Q 8.5 49.078125 8.5 55.328125 
Q 8.5 64.0625 14.71875 69.140625 
Q 20.953125 74.21875 31.78125 74.21875 
Q 42.671875 74.21875 48.875 69.140625 
Q 55.078125 64.0625 55.078125 55.328125 
Q 55.078125 49.078125 51.53125 44.71875 
Q 48 40.375 41.703125 38.8125 
Q 48.828125 37.15625 52.796875 32.3125 
Q 56.78125 27.484375 56.78125 20.515625 
Q 56.78125 9.90625 50.3125 4.234375 
Q 43.84375 -1.421875 31.78125 -1.421875 
Q 19.734375 -1.421875 13.25 4.234375 
Q 6.78125 9.90625 6.78125 20.515625 
Q 6.78125 27.484375 10.78125 32.3125 
Q 14.796875 37.15625 21.921875 38.8125 
z
M 18.3125 54.390625 
Q 18.3125 48.734375 21.84375 45.5625 
Q 25.390625 42.390625 31.78125 42.390625 
Q 38.140625 42.390625 41.71875 45.5625 
Q 45.3125 48.734375 45.3125 54.390625 
Q 45.3125 60.0625 41.71875 63.234375 
Q 38.140625 66.40625 31.78125 66.40625 
Q 25.390625 66.40625 21.84375 63.234375 
Q 18.3125 60.0625 18.3125 54.390625 
z
" id="DejaVuSans-56"/>
      </defs>
      <g transform="translate(34.696875 64.167088)scale(0.1 -0.1)">
       <use xlink:href="#DejaVuSans-48"/>
       <use x="63.623047" xlink:href="#DejaVuSans-46"/>
       <use x="95.410156" xlink:href="#DejaVuSans-56"/>
      </g>
     </g>
    </g>
   </g>
   <g id="line2d_13">
    <path clip-path="url(#pe1b968b7d7)" d="M 73.832727 267.028041 
L 73.985938 266.887209 
L 74.13915 267.200385 
L 74.445572 265.178618 
L 74.751995 262.61949 
L 74.905206 261.915877 
L 75.058417 261.957206 
L 75.364839 265.234718 
L 75.518051 267.612505 
L 75.671262 268.028134 
L 76.130895 262.542639 
L 76.437318 258.906704 
L 76.74374 257.594836 
L 77.050163 254.665486 
L 77.663007 255.959872 
L 77.816219 257.085593 
L 78.275852 255.605504 
L 78.582275 259.411118 
L 78.888697 263.583902 
L 79.348331 265.554454 
L 79.501542 265.773321 
L 79.654753 265.028766 
L 79.807964 265.067123 
L 79.961176 264.028628 
L 80.727232 269.46916 
L 81.033654 270.387779 
L 81.186865 271.194208 
L 81.646499 275.932061 
L 81.79971 276.556671 
L 82.106132 276.534497 
L 82.259344 276.953713 
L 82.565766 277.129758 
L 83.0254 278.394614 
L 83.485033 277.12477 
L 83.638244 277.012695 
L 83.944667 278.369525 
L 84.097878 277.503693 
L 84.4043 272.784369 
L 84.557512 271.886625 
L 84.710723 271.896249 
L 84.863934 273.523958 
L 85.017145 273.022516 
L 85.323568 271.583608 
L 85.62999 270.057531 
L 85.936413 269.475948 
L 86.242835 269.53977 
L 86.549257 271.006853 
L 86.702469 271.67638 
L 86.85568 271.553166 
L 87.162102 269.435313 
L 87.315313 269.755994 
L 87.468525 269.220364 
L 87.774947 267.284593 
L 87.928158 267.31967 
L 88.081369 267.682352 
L 88.387792 266.66242 
L 88.541003 266.918551 
L 88.694214 266.266415 
L 88.847425 266.122326 
L 89.613481 259.390106 
L 89.919904 261.565904 
L 90.226326 259.844011 
L 90.379538 260.254093 
L 90.68596 262.161439 
L 90.992382 261.176891 
L 91.145594 260.481183 
L 91.298805 258.774869 
L 91.605227 262.742828 
L 92.524494 266.744452 
L 92.677706 266.964242 
L 92.830917 267.559434 
L 93.29055 272.292425 
L 93.443762 272.781909 
L 93.596973 272.897856 
L 94.056606 270.407743 
L 94.209818 270.12469 
L 94.363029 269.588206 
L 94.822662 265.935472 
L 94.975874 265.937887 
L 95.74193 262.355501 
L 95.895141 262.218758 
L 96.048352 262.339625 
L 96.354775 263.338454 
L 96.507986 263.311805 
L 96.814408 260.721802 
L 97.274042 259.125047 
L 97.580464 261.32221 
L 98.193309 265.482068 
L 98.499731 266.055543 
L 98.652943 266.808069 
L 98.806154 266.633026 
L 98.959365 266.155865 
L 99.112576 266.14459 
L 99.265787 266.698989 
L 99.418999 266.632309 
L 99.725421 264.719622 
L 100.031843 265.073307 
L 100.338266 267.783198 
L 100.644688 269.682948 
L 100.951111 270.386082 
L 101.104322 270.62805 
L 101.410744 269.756575 
L 101.563956 269.718503 
L 101.717167 269.505592 
L 101.870378 269.533654 
L 102.023589 269.909547 
L 102.483223 272.519811 
L 102.789645 274.978833 
L 103.096068 275.899923 
L 103.555701 274.835325 
L 103.708912 275.164536 
L 103.862124 275.00087 
L 104.015335 275.5374 
L 104.321757 277.877405 
L 104.474968 277.679716 
L 104.781391 277.981298 
L 104.934602 278.651997 
L 105.087813 278.667178 
L 105.241024 277.962484 
L 105.394236 277.870464 
L 105.853869 279.875672 
L 106.619925 281.670999 
L 106.773137 281.764021 
L 106.926348 281.615422 
L 107.385981 278.926076 
L 107.692404 278.20234 
L 107.845615 278.542655 
L 108.152037 280.327288 
L 108.45846 282.168135 
L 108.611671 282.678221 
L 108.918093 282.280735 
L 109.071305 282.251455 
L 109.224516 282.450072 
L 109.837361 285.538544 
L 109.990572 286.165369 
L 110.296994 286.058077 
L 110.603417 286.33059 
L 110.909839 281.598328 
L 111.216262 280.840312 
L 111.369473 280.913404 
L 111.522684 280.605057 
L 111.675895 281.387012 
L 111.982318 284.431091 
L 112.595162 287.48263 
L 112.748374 287.889591 
L 112.901585 287.170353 
L 113.208007 285.01235 
L 113.51443 284.288426 
L 113.820852 284.291671 
L 113.974063 284.546742 
L 114.433697 282.071218 
L 114.586908 281.992432 
L 114.89333 282.710849 
L 115.046542 282.720359 
L 115.352964 281.302964 
L 115.506175 281.307884 
L 115.659387 281.137487 
L 115.965809 281.384859 
L 116.11902 282.394211 
L 116.425443 285.076394 
L 116.578654 285.521461 
L 117.191499 282.437727 
L 117.34471 282.550691 
L 117.497921 283.006077 
L 117.804343 284.426752 
L 117.957555 284.867469 
L 118.723611 288.506741 
L 119.030033 288.468202 
L 119.183244 288.140511 
L 119.336455 288.127329 
L 119.489667 288.30986 
L 119.9493 290.551479 
L 120.255723 290.969601 
L 120.868568 284.733311 
L 121.021779 284.054013 
L 121.17499 283.95139 
L 121.328201 284.174357 
L 121.787835 278.158106 
L 122.094257 278.117381 
L 122.247468 277.892934 
L 122.40068 278.432897 
L 122.860313 274.450594 
L 123.013524 274.130949 
L 123.319947 272.137961 
L 123.932792 270.627783 
L 124.086003 270.473273 
L 124.239214 270.534555 
L 124.392425 270.439608 
L 124.545636 270.708528 
L 124.698848 270.160929 
L 125.00527 267.730435 
L 125.158481 268.649816 
L 125.311692 268.72325 
L 125.618115 267.240131 
L 125.771326 267.622676 
L 125.924537 266.819686 
L 126.077749 268.403708 
L 126.23096 267.868533 
L 127.150227 259.419967 
L 127.456649 259.980698 
L 127.609861 260.223048 
L 127.916283 260.124627 
L 128.529128 259.691779 
L 128.682339 260.327208 
L 128.988761 262.915366 
L 129.295184 267.764077 
L 129.601606 269.002386 
L 129.908029 266.423179 
L 130.06124 266.11744 
L 130.214451 266.961634 
L 130.520873 266.262941 
L 130.827296 268.111271 
L 130.980507 268.083904 
L 131.28693 270.355697 
L 131.440141 269.832708 
L 131.746563 271.192414 
L 132.206197 267.391669 
L 132.359408 266.816087 
L 132.512619 266.974799 
L 132.66583 267.460706 
L 132.819042 268.435346 
L 133.125464 272.399809 
L 133.431886 273.494791 
L 133.585098 273.621877 
L 133.738309 273.557121 
L 133.89152 274.008931 
L 134.351154 273.72368 
L 134.504365 274.101623 
L 134.963998 275.81108 
L 135.11721 275.98979 
L 135.423632 273.381372 
L 135.576843 273.416711 
L 136.036477 275.206275 
L 136.342899 276.137888 
L 136.496111 276.213201 
L 136.649322 276.789124 
L 136.802533 276.118653 
L 137.262167 273.041 
L 137.415378 272.487455 
L 137.7218 272.557997 
L 138.028223 273.956538 
L 138.181434 273.269763 
L 138.641067 268.991578 
L 138.794279 268.38888 
L 138.94749 268.662071 
L 139.100701 269.553391 
L 139.253912 269.740415 
L 139.560335 267.943562 
L 139.713546 267.799302 
L 139.866757 267.963765 
L 140.173179 269.270907 
L 140.632813 272.721025 
L 140.939235 273.819049 
L 141.092447 273.975722 
L 141.55208 277.981867 
L 142.011714 279.950062 
L 142.318136 283.250192 
L 142.77777 289.474171 
L 142.930981 289.937928 
L 143.084192 289.875996 
L 143.697037 286.122172 
L 143.850248 286.678273 
L 144.00346 287.818048 
L 144.156671 287.490283 
L 144.463093 283.206437 
L 144.769516 282.789829 
L 144.922727 282.654339 
L 145.229149 284.28789 
L 145.38236 285.844819 
L 145.688783 285.176989 
L 145.841994 285.110605 
L 146.454839 287.859605 
L 147.220895 283.645885 
L 147.374106 284.025667 
L 147.527317 284.060721 
L 147.83374 281.620479 
L 147.986951 280.98587 
L 148.140162 281.262557 
L 148.293373 280.246953 
L 148.599796 282.096467 
L 148.906218 283.360787 
L 149.059429 283.280235 
L 149.365852 281.684255 
L 149.519063 280.366499 
L 149.672274 280.26145 
L 149.825485 279.558168 
L 150.131908 279.939482 
L 150.285119 279.524344 
L 150.43833 279.48035 
L 150.591541 278.774903 
L 151.051175 269.613363 
L 151.204386 269.11839 
L 151.66402 271.967747 
L 151.970442 274.811636 
L 152.123654 275.083164 
L 152.583287 272.148074 
L 152.736498 273.207525 
L 153.042921 276.274148 
L 153.196132 276.637291 
L 153.349343 276.592488 
L 153.808977 275.976306 
L 154.575033 271.222588 
L 154.728244 271.086528 
L 154.881455 271.73469 
L 155.187878 274.516454 
L 155.647511 272.87164 
L 156.107145 277.502081 
L 156.260356 277.368145 
L 156.566778 277.573687 
L 156.873201 278.051702 
L 157.179623 277.238315 
L 157.486046 278.517133 
L 157.639257 279.550686 
L 157.945679 279.921921 
L 158.098891 280.438509 
L 158.252102 279.259934 
L 158.558524 275.397741 
L 158.864947 273.753701 
L 159.018158 273.857821 
L 159.32458 274.951147 
L 159.477791 274.809319 
L 159.631003 273.733759 
L 159.784214 273.528251 
L 159.937425 272.343879 
L 160.090636 273.09349 
L 160.243847 271.998906 
L 160.397059 271.825673 
L 160.703481 272.5604 
L 160.856692 272.270673 
L 161.009903 272.700252 
L 161.929171 278.738642 
L 162.542016 282.036471 
L 162.848438 282.052427 
L 163.461283 281.022063 
L 163.614494 281.106328 
L 163.767705 281.942595 
L 164.074128 284.405193 
L 164.38055 285.678727 
L 164.686972 286.741366 
L 164.840184 286.772696 
L 164.993395 286.525267 
L 165.146606 286.734357 
L 165.453028 287.697675 
L 165.759451 285.526928 
L 165.912662 284.772898 
L 166.065873 284.686959 
L 166.219084 285.114614 
L 166.372296 285.175304 
L 166.678718 285.755225 
L 166.985141 285.844329 
L 167.444774 285.815026 
L 167.904408 281.118923 
L 168.057619 280.285082 
L 168.21083 280.700636 
L 168.823675 277.969317 
L 169.283309 281.633018 
L 169.43652 283.650229 
L 169.742942 284.552232 
L 170.049365 283.497064 
L 170.202576 283.336279 
L 170.355787 283.342827 
L 170.508998 283.237574 
L 170.662209 283.832789 
L 170.968632 286.205019 
L 171.121843 286.362216 
L 171.275054 286.711317 
L 171.428265 286.618039 
L 171.734688 285.641372 
L 171.887899 285.413793 
L 172.347533 282.467645 
L 172.500744 282.690054 
L 172.653955 282.669702 
L 172.807166 282.860143 
L 173.113589 284.503785 
L 173.420011 283.58643 
L 173.726434 284.035712 
L 174.339278 278.45597 
L 174.645701 279.233922 
L 174.952123 280.747768 
L 175.87139 283.858892 
L 176.331024 286.449305 
L 176.484235 286.573805 
L 176.637446 286.527066 
L 176.943869 286.184064 
L 177.403503 286.553704 
L 177.709925 284.698097 
L 178.016347 285.200974 
L 178.629192 287.419445 
L 179.088826 286.207843 
L 179.242037 285.948421 
L 179.548459 285.140318 
L 180.008093 285.738449 
L 180.467727 286.646772 
L 180.620938 286.760955 
L 181.233783 284.596682 
L 181.386994 283.837322 
L 181.540205 283.703858 
L 181.693416 284.006204 
L 181.846627 284.683736 
L 182.15305 286.874078 
L 182.459472 287.270357 
L 182.765895 286.14623 
L 183.37874 283.950593 
L 183.531951 283.995971 
L 183.838373 284.402859 
L 183.991584 284.279457 
L 184.298007 284.926975 
L 184.604429 283.647553 
L 184.75764 282.867192 
L 185.217274 284.147104 
L 185.523696 282.461552 
L 185.830119 279.997929 
L 186.136541 274.805748 
L 186.289752 274.230975 
L 186.442964 274.24422 
L 186.902597 272.548242 
L 187.055808 272.214954 
L 187.20902 272.339984 
L 187.362231 273.565207 
L 187.515442 273.347593 
L 187.975076 271.523191 
L 188.128287 271.866752 
L 188.587921 270.269007 
L 189.200765 271.1916 
L 189.507188 273.24587 
L 189.660399 273.794051 
L 189.81361 272.860667 
L 190.273244 266.113249 
L 190.579666 264.043866 
L 190.732877 264.084204 
L 190.886089 264.56993 
L 191.0393 264.156966 
L 191.192511 264.598971 
L 191.345722 264.013595 
L 191.498933 262.01801 
L 191.805356 265.34857 
L 192.111778 266.247555 
L 192.264989 266.649631 
L 192.571412 262.598341 
L 192.724623 262.775115 
L 193.031046 261.376261 
L 193.337468 260.930977 
L 193.64389 260.939028 
L 193.797102 260.995562 
L 193.950313 260.509973 
L 194.103524 259.199961 
L 194.256735 259.018677 
L 194.563158 260.855755 
L 194.716369 261.061069 
L 194.86958 260.009158 
L 195.942058 266.610454 
L 196.09527 265.263395 
L 196.554903 255.079394 
L 196.861326 253.729283 
L 197.167748 256.70839 
L 197.47417 253.806191 
L 197.627382 249.466051 
L 197.780593 251.252016 
L 197.933804 250.736863 
L 198.087015 252.395071 
L 198.240227 252.661986 
L 198.69986 254.851599 
L 198.853071 253.349074 
L 199.159494 244.822598 
L 199.465916 239.656976 
L 199.772339 233.072672 
L 199.92555 232.102941 
L 200.691606 212.502408 
L 200.998028 221.321777 
L 201.151239 223.116808 
L 201.304451 222.95124 
L 202.070507 201.505362 
L 202.376929 212.497181 
L 202.53014 210.450313 
L 202.683351 205.611955 
L 202.836563 205.348946 
L 203.296196 200.7605 
L 203.602619 191.200471 
L 204.062252 193.47608 
L 204.521886 202.964326 
L 204.675097 200.308257 
L 204.828308 194.304603 
L 204.98152 195.718536 
L 205.134731 199.976085 
L 205.441153 197.646688 
L 205.747576 194.292553 
L 205.900787 192.466079 
L 206.053998 194.178303 
L 206.666843 206.067136 
L 206.820054 205.835355 
L 206.973265 204.265967 
L 207.432899 212.063399 
L 207.58611 211.167194 
L 207.739321 208.932493 
L 208.045744 202.662618 
L 208.352166 199.933127 
L 208.505377 199.662966 
L 208.658589 199.742071 
L 209.118222 200.39111 
L 209.731067 193.644916 
L 210.190701 201.011949 
L 210.497123 199.932649 
L 210.650334 198.889564 
L 211.263179 182.164946 
L 211.569601 175.374166 
L 211.722813 174.768917 
L 212.029235 168.709435 
L 212.488869 173.250881 
L 212.795291 162.515659 
L 212.948502 162.776914 
L 213.408136 157.461566 
L 213.714558 146.216862 
L 213.86777 145.063922 
L 214.020981 146.495474 
L 214.327403 136.361868 
L 214.480614 134.576358 
L 214.633826 135.115815 
L 214.940248 121.284206 
L 215.093459 124.18054 
L 215.706304 113.588428 
L 215.859515 109.795808 
L 216.012726 111.688485 
L 216.165938 111.93883 
L 216.319149 111.356438 
L 216.47236 111.361472 
L 216.625571 111.74725 
L 217.085205 132.500506 
L 217.238416 128.9027 
L 217.544838 118.732856 
L 217.69805 118.670355 
L 217.851261 120.34248 
L 218.004472 124.034811 
L 218.157683 122.37715 
L 218.923739 92.997506 
L 219.076951 90.204831 
L 219.230162 90.200207 
L 219.383373 94.775112 
L 219.536584 95.99135 
L 220.30264 80.596173 
L 220.455851 79.112985 
L 220.609063 79.046271 
L 220.762274 78.120785 
L 221.068696 74.064222 
L 221.375119 77.596657 
L 221.52833 80.376167 
L 221.987963 103.30513 
L 222.294386 100.327503 
L 223.213653 167.183996 
L 223.366864 165.586558 
L 223.826498 189.902588 
L 223.979709 185.351542 
L 224.286132 165.16199 
L 224.439343 164.903422 
L 224.592554 168.733397 
L 224.745765 166.580695 
L 225.205399 150.716739 
L 225.511821 139.29763 
L 225.665032 146.740511 
L 225.971455 168.852431 
L 226.124666 171.218146 
L 226.431088 178.459518 
L 226.5843 176.469878 
L 226.737511 172.946462 
L 226.890722 174.404139 
L 227.043933 171.087678 
L 227.350356 152.582425 
L 227.503567 152.396858 
L 227.656778 152.974786 
L 227.9632 149.479455 
L 228.116412 150.745301 
L 228.729257 190.500776 
L 229.035679 215.419174 
L 229.18889 220.568852 
L 229.648524 211.44371 
L 229.801735 210.917373 
L 229.954946 210.904697 
L 230.108157 211.037899 
L 230.41458 215.000471 
L 230.721002 206.902025 
L 230.874213 206.311445 
L 231.027425 204.179743 
L 231.180636 209.196767 
L 231.333847 210.515297 
L 231.487058 209.04417 
L 231.640269 211.084398 
L 231.793481 210.564234 
L 231.946692 207.133044 
L 232.099903 207.095222 
L 232.406325 208.020116 
L 232.712748 213.14163 
L 232.865959 214.293134 
L 233.01917 214.46139 
L 233.632015 213.142097 
L 234.24486 196.663143 
L 234.398071 196.568401 
L 234.551282 195.86259 
L 234.857705 189.902554 
L 235.010916 190.147057 
L 235.164127 188.572134 
L 235.317338 192.335588 
L 235.47055 192.131481 
L 235.623761 189.863537 
L 235.776972 189.801116 
L 235.930183 190.49638 
L 236.083394 191.992562 
L 236.236606 192.145511 
L 236.389817 193.14032 
L 236.543028 194.904043 
L 236.696239 190.252436 
L 236.84945 180.197457 
L 237.309084 172.898744 
L 237.462295 174.444136 
L 237.615506 174.831646 
L 237.768718 176.255885 
L 237.921929 179.070404 
L 238.07514 175.803677 
L 238.381562 178.00527 
L 238.687985 173.981439 
L 238.841196 175.445652 
L 238.994407 174.630682 
L 239.147619 172.708622 
L 239.30083 175.332017 
L 239.607252 187.047914 
L 239.760463 186.948639 
L 240.066886 183.543756 
L 240.220097 183.621062 
L 240.373308 183.992958 
L 240.832942 187.604032 
L 240.986153 186.818558 
L 241.292575 183.528985 
L 241.598998 177.10148 
L 241.90542 174.0405 
L 242.058631 172.5308 
L 242.365054 176.409302 
L 242.518265 176.387117 
L 242.671476 179.569454 
L 242.977899 180.798583 
L 243.13111 180.54669 
L 243.590743 194.629862 
L 243.743955 204.01782 
L 243.897166 205.238818 
L 244.816433 227.679265 
L 245.122856 222.82141 
L 245.276067 223.16037 
L 245.429278 224.614801 
L 245.582489 224.473809 
L 245.7357 226.04109 
L 246.348545 240.755022 
L 246.501756 240.431904 
L 246.654968 239.476101 
L 246.96139 234.501751 
L 247.267812 232.196852 
L 247.574235 231.490984 
L 247.727446 231.483319 
L 247.880657 233.607015 
L 248.340291 225.084365 
L 248.493502 225.569635 
L 248.646713 222.986408 
L 248.953136 221.912745 
L 249.106347 223.307978 
L 249.565981 236.930605 
L 250.178825 225.745498 
L 250.332037 225.205791 
L 250.79167 230.642781 
L 251.098093 227.223697 
L 251.404515 223.631859 
L 251.710937 214.400336 
L 251.864149 214.471799 
L 252.323782 219.470931 
L 252.476993 219.380425 
L 252.630205 220.493118 
L 252.783416 219.297858 
L 253.089838 216.527983 
L 253.243049 216.287979 
L 253.549472 213.312186 
L 253.702683 213.595205 
L 253.855894 216.059204 
L 254.009105 215.667628 
L 254.162317 216.091434 
L 254.315528 212.219697 
L 254.468739 212.11573 
L 254.62195 212.245538 
L 254.928373 214.407613 
L 255.081584 213.673672 
L 255.541218 222.741837 
L 255.694429 223.055925 
L 256.000851 221.199441 
L 256.307274 221.542489 
L 256.613696 217.741954 
L 256.920118 217.21261 
L 257.532963 230.687413 
L 257.686174 231.525355 
L 257.839386 231.257654 
L 258.145808 229.45415 
L 258.45223 230.72019 
L 258.605442 229.715337 
L 258.758653 229.465402 
L 259.218286 229.681683 
L 259.371498 229.898101 
L 259.67792 223.115442 
L 259.984343 221.503346 
L 260.443976 221.842454 
L 260.750399 221.810987 
L 260.90361 223.108768 
L 261.056821 226.377693 
L 261.210032 226.829913 
L 261.516455 225.702666 
L 261.669666 226.057866 
L 261.822877 225.248328 
L 261.976088 225.421571 
L 262.282511 224.621247 
L 262.435722 225.26803 
L 262.588933 224.542711 
L 262.742144 222.860097 
L 263.048567 222.42242 
L 263.5082 215.855712 
L 263.661411 215.182735 
L 263.814623 216.743501 
L 263.967834 216.223815 
L 264.274256 213.1883 
L 264.580679 214.41825 
L 264.73389 214.333951 
L 265.040312 215.358473 
L 265.193524 214.62517 
L 265.346735 214.576461 
L 265.499946 215.326209 
L 265.653157 214.937218 
L 265.806368 212.922216 
L 266.419213 221.817935 
L 266.725636 220.449886 
L 267.032058 218.211018 
L 267.33848 215.456358 
L 267.491692 215.385247 
L 267.644903 215.016552 
L 267.951325 207.672956 
L 268.56417 211.238726 
L 268.870592 212.519195 
L 269.023804 212.3744 
L 269.330226 212.666917 
L 269.483437 212.514207 
L 269.78986 211.65006 
L 270.096282 212.087224 
L 270.402705 210.457352 
L 270.555916 211.037409 
L 270.709127 211.145942 
L 270.862338 212.220346 
L 271.168761 217.240866 
L 271.321972 218.171271 
L 271.475183 218.332626 
L 271.628394 218.072418 
L 271.934817 216.629 
L 272.241239 214.520349 
L 272.39445 215.0892 
L 272.700873 218.197534 
L 273.007295 218.500266 
L 273.773351 217.363237 
L 274.079773 213.148964 
L 274.386196 212.726571 
L 274.539407 212.852484 
L 274.692618 213.132496 
L 274.84583 212.753437 
L 274.999041 211.965582 
L 275.152252 212.037331 
L 275.305463 211.373635 
L 275.458674 209.152214 
L 275.611886 208.54684 
L 275.765097 208.784942 
L 275.918308 209.987069 
L 276.071519 209.941902 
L 276.22473 210.902476 
L 276.377942 210.587877 
L 276.531153 209.758921 
L 276.684364 208.286393 
L 276.837575 208.005584 
L 276.990786 208.365681 
L 277.297209 206.879499 
L 277.45042 205.7866 
L 277.756842 201.681874 
L 278.063265 204.313879 
L 278.216476 204.801711 
L 278.369687 204.781018 
L 278.522898 203.717524 
L 278.829321 200.188916 
L 279.135743 200.006515 
L 279.442166 196.285929 
L 279.748588 199.201237 
L 279.901799 199.456399 
L 280.361433 205.134544 
L 280.514644 204.334674 
L 280.821067 201.08224 
L 281.127489 206.339905 
L 281.433911 210.294938 
L 281.740334 211.43174 
L 282.046756 209.236866 
L 282.199967 209.103801 
L 282.50639 210.138447 
L 282.812812 210.924775 
L 282.966023 210.950787 
L 283.119235 210.846182 
L 283.272446 209.877556 
L 283.732079 205.362852 
L 284.038502 205.467616 
L 284.191713 206.183881 
L 284.498135 209.281897 
L 284.651347 208.596073 
L 284.957769 212.228774 
L 285.11098 212.427801 
L 285.264192 211.80662 
L 285.570614 208.744501 
L 286.183459 206.273236 
L 286.33667 206.21135 
L 286.643092 206.403875 
L 286.796304 207.216078 
L 287.255937 206.306946 
L 287.715571 202.237583 
L 287.868782 202.878478 
L 288.021993 202.09297 
L 288.328416 202.549848 
L 288.481627 202.431998 
L 288.788049 201.286529 
L 288.94126 200.680939 
L 289.247683 201.171573 
L 289.400894 201.953174 
L 289.707316 200.579216 
L 290.013739 202.100771 
L 290.320161 201.278876 
L 290.473373 201.414629 
L 290.626584 202.52034 
L 290.933006 202.010653 
L 291.086217 201.720801 
L 291.39264 198.928832 
L 291.699062 200.250505 
L 292.005485 200.290639 
L 292.311907 199.253761 
L 292.465118 200.388502 
L 292.618329 200.010023 
L 292.771541 200.226475 
L 293.077963 203.19613 
L 293.231174 203.620527 
L 293.690808 198.36112 
L 293.844019 198.170508 
L 293.99723 197.302091 
L 294.150441 197.461794 
L 294.763286 203.401456 
L 295.529342 209.003581 
L 295.682554 208.85193 
L 295.835765 207.833775 
L 295.988976 208.085953 
L 296.601821 208.058541 
L 296.908243 210.271307 
L 297.214666 213.294807 
L 297.521088 213.801829 
L 297.674299 213.585206 
L 297.980722 210.761553 
L 298.133933 211.004336 
L 298.287144 211.592992 
L 298.593566 211.457797 
L 298.746778 213.070622 
L 299.0532 211.334265 
L 299.666045 209.366594 
L 300.125678 211.622078 
L 300.585312 206.966929 
L 300.738523 206.813274 
L 301.044946 207.548239 
L 301.198157 207.81676 
L 301.351368 208.572533 
L 301.504579 208.5803 
L 301.811002 207.643915 
L 301.964213 205.93357 
L 302.117424 206.525255 
L 302.423847 205.604723 
L 302.577058 205.528112 
L 302.730269 205.680572 
L 302.88348 205.639083 
L 303.189903 204.386538 
L 303.343114 203.881259 
L 303.649536 202.240737 
L 303.802747 201.715665 
L 303.955959 202.199419 
L 304.10917 203.066732 
L 304.262381 203.295097 
L 304.415592 203.88045 
L 304.568803 202.550542 
L 304.722015 204.551161 
L 305.028437 202.432909 
L 305.181648 202.436349 
L 305.334859 201.439912 
L 305.488071 201.303248 
L 305.794493 200.427405 
L 305.947704 201.097786 
L 306.407338 196.630731 
L 306.560549 197.299289 
L 306.71376 197.234328 
L 306.866972 198.636599 
L 307.020183 198.586729 
L 307.326605 199.310465 
L 307.479816 200.272303 
L 307.633028 202.615856 
L 307.786239 203.003981 
L 307.93945 202.721884 
L 308.245872 199.912673 
L 308.552295 197.883446 
L 308.705506 197.507781 
L 308.858717 197.871272 
L 309.011928 196.448034 
L 309.318351 192.103339 
L 309.471562 191.156875 
L 309.624773 191.530206 
L 309.777984 190.748058 
L 309.931196 191.109419 
L 310.084407 192.123019 
L 310.390829 192.322411 
L 310.54404 192.929949 
L 310.697252 192.396312 
L 310.850463 190.619469 
L 311.003674 191.660082 
L 311.156885 191.632009 
L 311.616519 193.528228 
L 311.76973 193.457322 
L 311.922941 193.000137 
L 312.229364 194.153897 
L 312.382575 195.221923 
L 312.535786 195.066502 
L 312.99542 193.827476 
L 313.301842 193.56433 
L 313.608265 193.650326 
L 313.761476 191.511893 
L 314.067898 190.754253 
L 314.374321 191.793045 
L 314.527532 191.210812 
L 314.680743 192.324609 
L 314.833954 191.930107 
L 314.987165 191.866718 
L 315.140377 192.553521 
L 315.293588 192.374206 
L 315.60001 191.473274 
L 315.906433 188.71956 
L 316.059644 188.38823 
L 316.212855 190.196552 
L 316.366066 190.441658 
L 316.8257 192.693259 
L 317.132122 189.980225 
L 317.285334 189.669941 
L 317.591756 187.072513 
L 317.744967 186.927752 
L 318.05139 190.078452 
L 318.204601 189.269836 
L 318.357812 191.389625 
L 318.511023 191.370925 
L 318.664234 189.988447 
L 318.817446 190.462032 
L 319.277079 196.673359 
L 319.43029 195.996487 
L 319.583502 196.279972 
L 319.736713 196.877978 
L 319.889924 196.892419 
L 320.043135 195.723399 
L 320.502769 199.764985 
L 320.809191 198.426764 
L 320.962403 198.405126 
L 321.115614 197.867354 
L 321.268825 197.958953 
L 321.422036 198.661837 
L 321.575247 198.819216 
L 321.88167 197.589904 
L 322.341303 197.379192 
L 322.647726 197.19366 
L 322.800937 197.684134 
L 322.954148 197.800617 
L 323.413782 191.659843 
L 323.720204 189.420439 
L 323.873415 189.703378 
L 324.026627 189.229839 
L 324.179838 189.565895 
L 324.333049 189.205023 
L 324.48626 187.741322 
L 324.639471 187.645054 
L 324.792683 186.083467 
L 324.945894 185.858576 
L 325.099105 184.47751 
L 325.252316 184.236812 
L 325.71195 179.307959 
L 326.018372 179.38514 
L 326.324795 183.584528 
L 326.478006 184.051689 
L 326.784428 187.378378 
L 326.93764 188.049066 
L 327.090851 190.72528 
L 327.703696 211.024881 
L 327.856907 211.32053 
L 328.622963 204.624697 
L 329.082596 195.616186 
L 329.235808 194.813868 
L 329.695441 199.919586 
L 329.848652 200.7345 
L 330.155075 198.869713 
L 330.308286 199.069049 
L 330.461497 197.996274 
L 330.614708 195.693868 
L 330.76792 195.357949 
L 331.380765 199.265104 
L 331.533976 199.333698 
L 331.687187 198.121697 
L 331.840398 198.514308 
L 331.993609 199.844911 
L 332.300032 207.647514 
L 332.453243 210.049149 
L 332.606454 210.57757 
L 332.759665 209.878798 
L 332.912877 208.146473 
L 333.219299 208.687957 
L 333.525721 208.393264 
L 333.678933 208.68643 
L 334.138566 204.404441 
L 334.444989 206.532624 
L 334.751411 210.758524 
L 334.904622 211.024312 
L 335.057833 211.724086 
L 335.211045 213.202946 
L 335.517467 211.57649 
L 335.670678 211.418917 
L 335.977101 212.231279 
L 336.130312 212.428565 
L 336.283523 212.241871 
L 336.436734 211.873255 
L 336.589946 211.84517 
L 337.356002 205.444702 
L 337.815635 204.689089 
L 337.968846 205.584269 
L 338.122058 205.344687 
L 338.275269 203.455609 
L 338.42848 202.967366 
L 338.581691 203.250579 
L 339.041325 208.17401 
L 339.194536 208.950214 
L 339.500958 212.353593 
L 339.807381 213.575696 
L 340.113803 211.679659 
L 340.267014 210.475289 
L 340.420226 210.761644 
L 340.726648 213.497775 
L 341.339493 215.193918 
L 341.492704 216.701147 
L 341.799127 224.578357 
L 342.105549 228.571519 
L 342.565183 231.905211 
L 342.871605 231.590737 
L 343.178027 233.644449 
L 343.48445 235.810567 
L 343.637661 235.092047 
L 343.944083 232.563748 
L 344.250506 229.88398 
L 344.403717 229.699575 
L 344.556928 230.366516 
L 344.710139 230.447614 
L 344.863351 231.273165 
L 345.016562 230.591544 
L 345.476195 223.711944 
L 345.629407 223.594721 
L 346.08904 226.360234 
L 346.242251 226.543158 
L 346.395463 228.356923 
L 346.701885 235.425005 
L 346.855096 236.192166 
L 347.008308 235.925239 
L 347.467941 233.721015 
L 347.621152 233.535255 
L 347.774364 234.124161 
L 348.233997 239.847177 
L 348.693631 238.765177 
L 348.846842 237.971162 
L 349.153264 233.45607 
L 349.306476 233.130537 
L 349.459687 233.471763 
L 349.91932 236.799374 
L 350.072532 237.396947 
L 350.378954 239.184792 
L 350.838588 242.824166 
L 350.991799 242.457258 
L 351.14501 241.972786 
L 351.298221 242.65911 
L 351.451432 241.906436 
L 352.064277 233.133715 
L 352.217489 233.118716 
L 352.523911 231.273017 
L 352.830333 229.988971 
L 352.983545 229.821319 
L 353.289967 229.937301 
L 353.443178 230.067952 
L 353.902812 237.501973 
L 354.209234 244.430931 
L 354.515657 251.322273 
L 354.97529 254.28096 
L 355.281713 246.886184 
L 355.434924 246.339723 
L 355.588135 246.952375 
L 355.741346 246.650462 
L 355.894557 248.217583 
L 356.047769 248.622723 
L 356.20098 247.500418 
L 356.660613 240.969686 
L 356.813825 241.304934 
L 356.967036 241.240907 
L 357.120247 241.713672 
L 357.273458 243.346619 
L 357.42667 243.747386 
L 357.733092 240.66799 
L 357.886303 240.965006 
L 358.192726 238.392314 
L 358.345937 239.03281 
L 358.652359 242.970328 
L 358.80557 243.72536 
L 359.111993 248.126338 
L 359.265204 247.897449 
L 359.418415 247.072536 
L 359.571626 247.35158 
L 359.878049 241.769374 
L 360.03126 241.648962 
L 360.337682 244.926633 
L 360.644105 247.534265 
L 360.797316 247.378458 
L 361.103738 244.43412 
L 361.716583 250.04481 
L 362.023006 253.39792 
L 362.176217 253.834309 
L 362.329428 254.72711 
L 362.482639 254.374131 
L 362.789062 255.213826 
L 362.942273 255.336493 
L 363.248695 256.16423 
L 363.401907 254.952787 
L 363.708329 252.068707 
L 363.86154 250.284962 
L 364.014751 250.340083 
L 364.321174 250.748821 
L 364.780807 248.501377 
L 365.08723 245.992837 
L 365.240441 246.18863 
L 365.393652 247.244379 
L 365.546863 247.062776 
L 365.853286 245.901386 
L 366.006497 246.064881 
L 366.159708 247.328154 
L 367.232187 245.756853 
L 367.385398 244.292343 
L 367.845032 236.336756 
L 367.998243 236.585541 
L 368.304665 231.9663 
L 368.457876 232.073786 
L 368.764299 230.377221 
L 369.070721 215.79312 
L 369.223932 215.896324 
L 369.530355 220.626877 
L 369.683566 214.757597 
L 369.836777 213.604566 
L 370.1432 205.730875 
L 370.296411 207.747757 
L 370.449622 213.518867 
L 370.602833 213.049997 
L 370.756044 213.90608 
L 371.062467 217.429826 
L 371.675312 207.320205 
L 371.828523 207.317642 
L 371.981734 208.356889 
L 372.441368 216.079965 
L 372.594579 213.492172 
L 372.901001 203.362677 
L 373.513846 196.84732 
L 373.820269 201.115244 
L 373.97348 202.327826 
L 374.126691 204.646062 
L 374.433113 202.046926 
L 374.739536 199.119147 
L 374.892747 199.029849 
L 375.045958 198.303858 
L 375.199169 199.800279 
L 375.812014 209.655854 
L 375.965225 210.594357 
L 376.118437 210.80729 
L 376.424859 210.393063 
L 377.037704 227.468678 
L 377.190915 226.042389 
L 377.497338 226.150535 
L 377.956971 220.834173 
L 378.263394 224.245581 
L 378.416605 224.604539 
L 378.723027 226.708669 
L 378.876238 226.107919 
L 379.182661 223.053373 
L 379.335872 222.587123 
L 379.642294 222.372367 
L 380.255139 227.220862 
L 380.40835 227.753303 
L 380.714773 222.485764 
L 380.867984 222.386637 
L 381.021195 222.650911 
L 381.327618 225.378534 
L 381.787251 215.918873 
L 382.093674 216.287808 
L 382.246885 218.352783 
L 382.400096 218.204583 
L 382.553307 218.401663 
L 382.85973 214.113422 
L 383.012941 214.053757 
L 383.472575 217.286454 
L 383.778997 222.488566 
L 383.932208 223.102823 
L 384.085419 223.238143 
L 384.238631 222.313317 
L 384.391842 222.145073 
L 384.545053 221.644315 
L 384.851475 222.189705 
L 385.004687 222.238221 
L 385.157898 223.940161 
L 385.46432 223.083052 
L 386.077165 220.747506 
L 386.230376 221.511466 
L 386.383587 222.841089 
L 387.149643 234.467244 
L 387.302855 234.196058 
L 387.456066 233.43122 
L 387.762488 230.931483 
L 387.9157 229.764444 
L 388.222122 224.932065 
L 388.375333 224.920016 
L 388.528544 225.073398 
L 388.681756 224.558723 
L 388.834967 224.896612 
L 388.988178 223.482873 
L 389.141389 223.352268 
L 389.2946 223.654545 
L 389.447812 223.479046 
L 389.754234 222.3965 
L 389.907445 220.715412 
L 390.060656 216.910846 
L 390.213868 216.908967 
L 390.52029 215.042882 
L 390.673501 215.075363 
L 390.826712 215.669758 
L 390.979924 215.745174 
L 391.133135 214.684391 
L 391.286346 215.111487 
L 391.592768 218.038594 
L 391.74598 217.415613 
L 392.358824 218.946746 
L 392.665247 223.074397 
L 392.818458 223.827163 
L 392.971669 223.86692 
L 393.737725 222.533357 
L 393.890937 221.866097 
L 394.044148 220.082774 
L 394.197359 216.916324 
L 394.35057 216.802506 
L 394.503781 217.301943 
L 395.116626 221.584354 
L 395.269837 221.671932 
L 395.423049 221.594478 
L 395.57626 221.154809 
L 395.882682 218.798045 
L 396.342316 221.125597 
L 396.495527 220.369733 
L 396.801949 218.608845 
L 396.955161 219.084048 
L 397.108372 218.937556 
L 397.261583 220.127747 
L 397.568005 223.610255 
L 397.874428 224.307615 
L 398.027639 224.588356 
L 398.334062 223.114735 
L 398.487273 223.518223 
L 398.487273 223.518223 
" style="fill:none;stroke:#1f77b4;stroke-linecap:square;stroke-width:1.5;"/>
   </g>
   <g id="line2d_14">
    <path clip-path="url(#pe1b968b7d7)" d="M 73.832727 264.709095 
L 73.985938 265.794604 
L 74.13915 265.514123 
L 74.292361 260.137393 
L 74.445572 258.724082 
L 74.598783 259.281811 
L 74.751995 258.602829 
L 74.905206 262.883896 
L 75.058417 263.333172 
L 75.364839 267.863961 
L 75.671262 260.914214 
L 76.130895 256.120114 
L 76.284107 256.508222 
L 76.437318 256.375162 
L 76.590529 253.811135 
L 76.74374 253.511611 
L 76.896951 251.991958 
L 77.203374 253.831591 
L 77.356585 252.245812 
L 77.509796 255.659343 
L 77.663007 255.542902 
L 77.816219 251.960355 
L 77.96943 251.881614 
L 78.122641 256.605327 
L 78.275852 256.899654 
L 78.429063 260.395984 
L 78.735486 260.692111 
L 78.888697 262.012981 
L 79.041908 261.825694 
L 79.195119 263.129174 
L 79.348331 262.917831 
L 79.501542 260.709556 
L 79.654753 266.650038 
L 79.807964 262.630042 
L 80.267598 267.214838 
L 80.420809 266.701492 
L 80.57402 266.920364 
L 80.880443 269.799266 
L 81.340076 278.121906 
L 81.493288 274.816535 
L 81.79971 275.486721 
L 81.952921 277.350722 
L 82.106132 277.715674 
L 82.259344 276.325078 
L 82.565766 279.226825 
L 82.718977 278.940413 
L 82.872188 278.673539 
L 83.0254 276.728758 
L 83.331822 276.728758 
L 83.638244 280.562147 
L 83.791456 279.438186 
L 84.097878 270.235596 
L 84.251089 270.965041 
L 84.4043 271.042956 
L 84.710723 276.219086 
L 84.863934 269.285535 
L 85.017145 271.691767 
L 85.323568 267.725337 
L 86.089624 267.725337 
L 86.242835 270.288684 
L 86.396046 269.719147 
L 86.549257 271.564197 
L 86.85568 266.876366 
L 87.008891 266.821386 
L 87.162102 269.772401 
L 87.315313 265.588292 
L 87.774947 265.26306 
L 87.928158 265.795815 
L 88.081369 264.146261 
L 88.234581 264.886521 
L 88.387792 264.862392 
L 88.541003 264.379805 
L 89.307059 258.102283 
L 89.46027 257.741243 
L 89.613481 259.49903 
L 89.766693 259.677448 
L 89.919904 257.076621 
L 90.073115 258.256847 
L 90.379538 262.033291 
L 90.68596 258.673546 
L 90.839171 259.019841 
L 90.992382 257.445116 
L 91.145594 262.301358 
L 91.298805 263.614332 
L 91.452016 261.285483 
L 91.605227 260.875707 
L 91.758438 263.383781 
L 91.91165 263.281791 
L 92.064861 263.464047 
L 92.218072 265.437181 
L 92.371283 265.357447 
L 92.524494 265.614699 
L 92.830917 272.761648 
L 92.984128 271.96224 
L 93.443762 271.96224 
L 93.596973 268.994753 
L 93.750184 268.670494 
L 93.903395 270.233099 
L 94.056606 268.722315 
L 94.209818 268.492003 
L 94.363029 265.337523 
L 94.51624 264.713466 
L 94.669451 264.874053 
L 94.822662 266.531871 
L 94.975874 263.082256 
L 95.129085 263.248774 
L 95.282296 261.125502 
L 95.435507 262.500085 
L 95.588719 262.481575 
L 95.74193 261.129267 
L 95.895141 261.288421 
L 96.048352 261.918814 
L 96.354775 261.918814 
L 96.507986 258.750709 
L 96.661197 258.62705 
L 96.814408 257.729435 
L 96.967619 257.734467 
L 97.120831 257.964852 
L 97.274042 260.995913 
L 97.427253 260.872328 
L 98.040098 265.688941 
L 98.193309 263.229823 
L 98.34652 265.814619 
L 98.499731 265.530374 
L 98.652943 263.649534 
L 98.959365 265.329333 
L 99.112576 266.63959 
L 99.418999 262.421252 
L 99.57221 262.794926 
L 99.725421 263.730167 
L 99.878632 263.639747 
L 100.031843 268.520209 
L 100.185055 268.267035 
L 100.338266 268.444626 
L 100.644688 270.55879 
L 100.7979 268.722848 
L 100.951111 269.931188 
L 101.104322 267.739917 
L 101.257533 269.468232 
L 101.563956 267.955943 
L 102.1768 272.105988 
L 102.330012 274.871148 
L 102.483223 275.025124 
L 102.636434 275.411193 
L 102.789645 276.997578 
L 102.942856 274.77217 
L 103.096068 274.72101 
L 103.249279 274.48921 
L 103.40249 274.630387 
L 103.555701 276.583137 
L 103.708912 274.911382 
L 103.862124 278.880163 
L 104.015335 279.359738 
L 104.321757 277.776218 
L 104.474968 277.745827 
L 104.62818 280.599516 
L 105.087813 277.825101 
L 105.394236 281.092405 
L 105.547447 280.70235 
L 105.853869 282.250595 
L 106.007081 282.042925 
L 106.313503 283.933093 
L 106.466714 282.449451 
L 106.619925 283.365448 
L 106.926348 280.075942 
L 107.23277 279.619083 
L 107.385981 278.632846 
L 107.539193 279.030595 
L 107.692404 281.492871 
L 107.845615 281.008026 
L 108.152037 283.289093 
L 108.305249 283.086454 
L 108.45846 283.683224 
L 108.611671 282.832454 
L 108.764882 283.626518 
L 108.918093 283.223279 
L 109.071305 284.800409 
L 109.224516 287.537969 
L 109.377727 286.225748 
L 109.530938 287.723971 
L 109.684149 287.772872 
L 109.837361 288.15369 
L 109.990572 287.279304 
L 110.296994 288.893886 
L 110.450206 287.823041 
L 110.603417 282.118361 
L 110.756628 281.581988 
L 110.909839 282.660518 
L 111.06305 282.209222 
L 111.216262 283.425844 
L 111.369473 282.412834 
L 111.675895 287.249519 
L 111.829106 286.626122 
L 111.982318 289.859959 
L 112.135529 289.720591 
L 112.28874 289.231531 
L 112.441951 289.524802 
L 112.595162 291.4143 
L 112.901585 285.24682 
L 113.667641 285.24682 
L 113.820852 286.130608 
L 113.974063 283.06104 
L 114.127274 282.706555 
L 114.280486 283.990791 
L 114.433697 283.835547 
L 114.586908 284.304068 
L 114.740119 284.296153 
L 114.89333 283.783947 
L 115.046542 281.823061 
L 115.199753 282.077741 
L 115.352964 281.742575 
L 115.506175 283.119857 
L 115.659387 283.003801 
L 115.812598 284.087657 
L 115.965809 286.748128 
L 116.11902 287.294637 
L 116.272231 287.038617 
L 116.425443 286.547234 
L 116.731865 282.92438 
L 116.885076 283.151442 
L 117.038287 283.755282 
L 117.191499 283.775518 
L 117.34471 286.34948 
L 117.497921 286.533168 
L 117.651132 285.765509 
L 117.804343 288.126081 
L 117.957555 287.559711 
L 118.263977 290.620548 
L 118.417188 290.450779 
L 118.570399 291.056951 
L 118.723611 289.44763 
L 118.876822 290.553908 
L 119.030033 289.668385 
L 119.183244 290.41453 
L 119.489667 293.719598 
L 119.642878 294.474384 
L 119.796089 293.223625 
L 119.9493 294.754268 
L 120.102511 293.597749 
L 120.255723 289.328186 
L 120.408934 289.529007 
L 120.715356 285.427258 
L 120.868568 286.10916 
L 121.021779 285.505779 
L 121.17499 287.104118 
L 121.328201 280.398695 
L 121.481412 279.667819 
L 121.634624 279.508205 
L 121.787835 279.525136 
L 121.941046 279.065265 
L 122.094257 280.196736 
L 122.247468 279.764777 
L 122.40068 275.661136 
L 122.553891 275.245869 
L 122.707102 276.24136 
L 123.166736 271.485382 
L 123.473158 271.485382 
L 123.77958 270.264169 
L 123.932792 270.963223 
L 124.086003 271.018129 
L 124.239214 270.392565 
L 124.392425 273.45084 
L 124.545636 268.280275 
L 124.698848 267.231622 
L 125.00527 270.298399 
L 125.311692 267.040644 
L 125.464904 268.024621 
L 125.618115 267.590477 
L 125.924537 269.817391 
L 126.077749 265.6654 
L 126.23096 264.727293 
L 126.384171 262.959865 
L 126.537382 262.738202 
L 126.690593 260.211103 
L 126.997016 259.149816 
L 127.150227 259.048487 
L 127.303438 260.247958 
L 127.456649 259.204557 
L 128.222705 259.204557 
L 128.375917 260.020198 
L 128.529128 262.926848 
L 128.682339 261.853973 
L 128.83555 267.211385 
L 128.988761 268.097946 
L 129.141973 267.221301 
L 129.295184 269.664168 
L 129.448395 268.168957 
L 129.601606 264.229667 
L 129.754817 264.6875 
L 129.908029 271.16375 
L 130.214451 265.614699 
L 130.367662 267.33609 
L 130.674085 268.366545 
L 130.980507 271.87349 
L 131.28693 270.787908 
L 131.440141 273.675056 
L 131.593352 272.364946 
L 131.746563 267.856432 
L 132.052986 267.036347 
L 132.206197 267.153908 
L 132.359408 269.338642 
L 132.512619 269.068537 
L 132.66583 273.954416 
L 132.819042 273.930416 
L 132.972253 274.097852 
L 133.278675 274.782325 
L 133.585098 274.782325 
L 133.738309 275.813 
L 133.89152 274.746296 
L 134.044731 274.719816 
L 134.197942 275.21421 
L 134.351154 276.17494 
L 134.504365 278.043238 
L 134.657576 277.072647 
L 134.810787 277.151554 
L 134.963998 276.865271 
L 135.11721 273.327035 
L 135.270421 273.513129 
L 135.423632 277.84789 
L 135.576843 275.307092 
L 135.883266 278.346269 
L 136.342899 278.346269 
L 136.496111 278.631267 
L 136.802533 274.340725 
L 136.955744 274.009102 
L 137.108955 273.202404 
L 137.262167 274.204965 
L 137.415378 273.162463 
L 137.568589 273.531859 
L 137.7218 275.405482 
L 137.875011 274.819767 
L 138.334645 269.164356 
L 138.487856 268.778654 
L 138.641067 268.98256 
L 138.794279 270.99354 
L 139.407123 267.356841 
L 139.560335 267.828299 
L 139.713546 269.118558 
L 139.866757 269.219575 
L 140.019968 271.237992 
L 140.173179 271.349843 
L 140.479602 275.865207 
L 140.939235 275.865207 
L 141.092447 280.569437 
L 141.245658 279.540029 
L 141.398869 279.978231 
L 141.55208 279.746873 
L 141.705292 280.938061 
L 141.858503 285.40838 
L 142.011714 286.230192 
L 142.164925 294.493418 
L 142.318136 294.773742 
L 142.471348 295.376452 
L 142.624559 295.488 
L 142.930981 292.085983 
L 143.084192 291.23468 
L 143.237404 292.159243 
L 143.390615 291.269432 
L 143.543826 291.186623 
L 143.697037 294.866642 
L 143.850248 294.326514 
L 144.156671 286.238015 
L 144.309882 288.758126 
L 144.616304 286.78491 
L 145.075938 292.281093 
L 145.229149 291.369926 
L 145.38236 288.427927 
L 145.841994 290.91201 
L 145.995205 293.510266 
L 146.301628 292.194519 
L 146.454839 289.541797 
L 146.60805 289.5154 
L 146.914473 287.177535 
L 147.067684 288.209652 
L 147.220895 288.351279 
L 147.374106 287.799187 
L 147.527317 284.110005 
L 147.680529 283.743474 
L 147.83374 284.196202 
L 148.140162 286.579425 
L 148.293373 285.28946 
L 148.446585 286.2678 
L 148.599796 286.240273 
L 148.906218 287.406341 
L 149.059429 284.471706 
L 149.212641 283.93829 
L 149.672274 284.328197 
L 149.825485 284.323239 
L 149.978697 282.468108 
L 150.131908 282.129195 
L 150.285119 282.519415 
L 150.43833 281.198398 
L 150.744753 273.827912 
L 150.897964 273.580889 
L 151.051175 272.502598 
L 151.204386 273.960807 
L 151.357597 274.323059 
L 151.510809 277.771021 
L 151.66402 277.297836 
L 151.970442 277.297836 
L 152.123654 275.102066 
L 152.430076 276.796611 
L 152.583287 280.00877 
L 152.736498 279.691507 
L 152.88971 278.5905 
L 153.655766 278.5905 
L 153.962188 275.799687 
L 154.115399 277.367194 
L 154.26861 274.567878 
L 154.421822 273.843778 
L 154.575033 274.171782 
L 154.728244 277.205854 
L 154.881455 277.546732 
L 155.034666 277.152748 
L 155.187878 274.485813 
L 155.647511 279.368461 
L 155.800722 281.727756 
L 155.953934 281.659022 
L 156.107145 282.035469 
L 156.260356 279.658729 
L 156.413567 281.076465 
L 156.566778 280.478649 
L 156.71999 280.473232 
L 156.873201 279.901142 
L 157.332835 283.745659 
L 157.486046 283.494137 
L 157.639257 282.192824 
L 157.792468 285.11354 
L 157.945679 284.168437 
L 158.098891 281.511749 
L 158.252102 276.894083 
L 158.405313 277.202017 
L 158.558524 276.187501 
L 158.711735 276.251203 
L 159.171369 277.958088 
L 159.477791 275.227818 
L 159.631003 275.142685 
L 159.784214 276.130483 
L 159.937425 274.979767 
L 160.090636 272.79158 
L 160.243847 273.145018 
L 160.397059 273.893799 
L 160.55027 273.81166 
L 160.703481 273.864914 
L 160.856692 276.371556 
L 161.009903 276.474611 
L 161.163115 276.980133 
L 161.469537 280.36454 
L 161.622748 280.574707 
L 161.77596 282.116102 
L 161.929171 285.350242 
L 162.235593 284.740159 
L 162.388804 283.728581 
L 162.542016 286.22988 
L 162.695227 284.112411 
L 162.848438 284.392359 
L 163.001649 283.004701 
L 163.15486 283.004701 
L 163.308072 283.500454 
L 163.614494 288.290055 
L 163.767705 288.169106 
L 163.920916 288.393028 
L 164.227339 290.727881 
L 164.38055 291.008738 
L 164.533761 289.709151 
L 164.686972 289.971957 
L 164.840184 289.945404 
L 165.146606 292.386011 
L 165.299817 291.102832 
L 165.453028 287.835748 
L 165.60624 288.555487 
L 165.759451 287.636947 
L 165.912662 289.223406 
L 166.065873 288.831313 
L 166.219084 287.973766 
L 166.372296 289.239731 
L 167.138352 289.239731 
L 167.291563 288.38122 
L 167.597985 283.930394 
L 167.751197 283.457723 
L 167.904408 284.326783 
L 168.21083 281.542727 
L 168.364041 282.772442 
L 168.517253 281.005767 
L 168.670464 281.289479 
L 168.976886 285.960086 
L 169.130097 289.154286 
L 169.589731 287.493291 
L 169.742942 286.069219 
L 169.896153 286.352197 
L 170.049365 287.735338 
L 170.202576 287.246893 
L 170.355787 287.372498 
L 170.508998 291.798433 
L 170.662209 291.641078 
L 170.815421 291.901698 
L 170.968632 290.290652 
L 171.121843 291.40174 
L 171.275054 289.947515 
L 171.428265 289.832956 
L 171.581477 290.093357 
L 171.734688 292.218584 
L 172.04111 286.742858 
L 172.194322 286.665236 
L 172.347533 286.939106 
L 172.653955 288.59069 
L 172.807166 289.222956 
L 173.113589 287.291259 
L 173.2668 288.441011 
L 173.420011 287.303066 
L 173.573222 287.303066 
L 173.726434 284.335579 
L 173.879645 283.812593 
L 174.032856 281.626592 
L 174.186067 281.909258 
L 174.339278 281.834263 
L 174.49249 284.086078 
L 174.645701 283.821242 
L 174.798912 284.290369 
L 174.952123 284.375887 
L 175.105334 286.77694 
L 175.258546 286.250043 
L 175.411757 286.659893 
L 175.564968 287.438312 
L 175.87139 291.465819 
L 176.177813 289.745556 
L 176.637446 289.670717 
L 176.790658 289.619198 
L 176.943869 290.969698 
L 177.09708 290.579249 
L 177.250291 290.890571 
L 177.403503 287.75135 
L 177.709925 288.124501 
L 177.863136 289.849658 
L 178.016347 289.734575 
L 178.169559 291.338258 
L 178.32277 291.117421 
L 178.475981 289.851384 
L 178.629192 290.127127 
L 178.935615 288.608447 
L 179.088826 289.128266 
L 179.242037 287.950151 
L 179.395248 288.674711 
L 179.701671 288.77873 
L 179.854882 288.846949 
L 180.008093 289.860189 
L 180.161304 288.653419 
L 180.314515 289.474927 
L 180.467727 289.433867 
L 180.620938 287.776857 
L 180.774149 287.595134 
L 180.92736 287.838466 
L 181.233783 285.260813 
L 181.693416 289.942851 
L 181.846627 289.721794 
L 181.999839 289.895465 
L 182.15305 289.175946 
L 182.306261 289.809947 
L 182.459472 288.818973 
L 182.612684 288.981965 
L 182.765895 288.093146 
L 182.919106 287.938638 
L 183.225528 286.97227 
L 183.37874 287.262153 
L 183.531951 287.220633 
L 183.685162 286.9127 
L 183.838373 288.823858 
L 183.991584 288.844167 
L 184.144796 288.195879 
L 184.298007 286.715258 
L 184.451218 286.436136 
L 184.604429 286.667881 
L 184.75764 287.546765 
L 184.910852 287.285327 
L 185.064063 287.63041 
L 185.217274 286.050728 
L 185.370485 285.824474 
L 185.676908 282.204705 
L 185.830119 278.343569 
L 185.98333 277.949145 
L 186.136541 278.095739 
L 186.289752 276.567418 
L 186.442964 277.790357 
L 186.596175 274.930039 
L 186.902597 275.371253 
L 187.055808 277.612399 
L 187.20902 277.104232 
L 187.362231 274.830528 
L 187.515442 275.06062 
L 187.668653 274.964194 
L 187.821865 276.198555 
L 188.128287 273.716428 
L 188.281498 273.275361 
L 188.434709 273.660402 
L 188.587921 274.393978 
L 188.741132 273.615192 
L 188.894343 274.48304 
L 189.047554 276.150425 
L 189.200765 275.972981 
L 189.353977 276.999451 
L 190.273244 267.17521 
L 190.579666 267.168048 
L 190.886089 268.284866 
L 191.192511 266.219364 
L 191.345722 269.422434 
L 191.805356 266.948129 
L 191.958567 269.925551 
L 192.418201 265.770841 
L 192.571412 265.574152 
L 192.877834 264.359257 
L 193.64389 264.359257 
L 193.950313 262.441176 
L 194.256735 264.198376 
L 194.409946 264.689832 
L 194.563158 263.622155 
L 194.86958 266.065609 
L 195.022791 264.896456 
L 195.482425 268.98144 
L 195.635636 268.991815 
L 195.788847 269.882599 
L 196.09527 263.670285 
L 196.554903 259.312202 
L 196.708114 259.329794 
L 196.861326 260.107608 
L 197.014537 259.700457 
L 197.167748 260.201628 
L 197.320959 256.137174 
L 197.47417 256.331843 
L 197.627382 254.55066 
L 198.087015 255.99148 
L 198.393438 257.793137 
L 198.546649 257.684078 
L 199.465916 240.361689 
L 199.619127 240.525581 
L 199.772339 234.314479 
L 199.92555 233.079494 
L 200.231972 221.116775 
L 200.385183 214.893186 
L 200.538395 227.048462 
L 200.691606 220.959126 
L 200.844817 222.097447 
L 201.151239 220.015621 
L 201.457662 211.922449 
L 201.610873 212.185631 
L 201.917295 206.926224 
L 202.223718 218.578163 
L 202.376929 204.657864 
L 202.53014 203.874634 
L 202.683351 204.040197 
L 202.836563 198.86067 
L 203.142985 198.86067 
L 203.296196 190.147498 
L 203.449408 190.077773 
L 203.602619 188.384808 
L 203.75583 194.439546 
L 203.909041 195.04458 
L 204.062252 199.263909 
L 204.215464 198.813733 
L 204.368675 199.781313 
L 204.675097 188.193683 
L 204.828308 207.76067 
L 204.98152 203.495854 
L 205.134731 192.171407 
L 205.594364 187.690731 
L 205.900787 193.515745 
L 206.207209 200.689469 
L 206.36042 206.861916 
L 206.513632 201.099851 
L 206.820054 206.242817 
L 206.973265 210.802711 
L 207.126476 209.357283 
L 207.432899 204.650262 
L 207.58611 203.468475 
L 208.045744 197.940854 
L 208.8118 197.940854 
L 208.965011 199.299479 
L 209.118222 194.070775 
L 209.271433 193.172389 
L 209.424645 191.218132 
L 209.577856 196.726417 
L 209.731067 195.486786 
L 209.884278 197.822759 
L 210.037489 198.371013 
L 210.190701 193.76622 
L 210.343912 194.995237 
L 210.497123 194.63181 
L 211.263179 173.089871 
L 211.41639 172.71605 
L 211.569601 170.079947 
L 211.722813 164.783997 
L 211.876024 164.50706 
L 212.029235 166.814901 
L 212.335657 164.530675 
L 212.488869 157.349643 
L 212.64208 160.258184 
L 212.795291 155.565082 
L 212.948502 154.399987 
L 213.101714 151.530873 
L 213.254925 151.530873 
L 213.561347 141.68645 
L 213.714558 144.490283 
L 214.174192 131.099508 
L 214.327403 134.965748 
L 214.633826 119.686916 
L 214.787037 124.968488 
L 215.24667 110.118548 
L 215.399882 111.684679 
L 215.553093 101.627554 
L 215.706304 105.477194 
L 215.859515 105.446711 
L 216.012726 108.076663 
L 216.165938 108.076663 
L 216.319149 105.1576 
L 216.625571 124.051683 
L 216.778782 132.855881 
L 217.238416 111.118062 
L 217.391627 113.033021 
L 217.544838 112.841124 
L 217.851261 119.97309 
L 218.004472 109.889595 
L 218.157683 107.728164 
L 218.464106 91.83442 
L 218.770528 72.782155 
L 218.923739 70.464232 
L 219.076951 94.642238 
L 219.230162 95.283226 
L 219.536584 72.809994 
L 219.689795 72.851275 
L 219.843007 70.058955 
L 220.149429 56.160637 
L 220.455851 58.104574 
L 220.609063 56.934466 
L 220.762274 53.568 
L 221.068696 74.547086 
L 221.221907 68.494771 
L 221.681541 105.315561 
L 221.987963 89.385861 
L 222.141175 101.59876 
L 222.447597 137.307451 
L 222.600808 120.444622 
L 223.060442 164.845146 
L 223.213653 158.151145 
L 223.366864 161.820715 
L 223.520076 178.363197 
L 223.979709 143.523457 
L 224.13292 146.975936 
L 224.286132 155.910403 
L 224.439343 154.596144 
L 224.592554 144.503964 
L 224.898976 139.966711 
L 225.052188 139.337162 
L 225.205399 131.975179 
L 225.35861 135.962746 
L 225.511821 161.938571 
L 225.665032 166.643792 
L 225.818244 157.154093 
L 226.124666 166.589327 
L 226.277877 169.659721 
L 226.431088 159.607867 
L 226.737511 166.753825 
L 226.890722 160.53602 
L 227.043933 146.680489 
L 227.197144 146.71863 
L 227.350356 149.846703 
L 227.503567 144.714278 
L 227.656778 143.903521 
L 227.809989 141.772427 
L 227.9632 160.238242 
L 228.116412 156.782457 
L 228.422834 178.321678 
L 228.729257 219.147167 
L 228.882468 221.981226 
L 229.18889 199.03569 
L 229.648524 204.465013 
L 229.954946 204.465013 
L 230.108157 210.463266 
L 230.41458 198.227945 
L 230.567791 201.62741 
L 230.721002 201.451342 
L 231.027425 216.123103 
L 231.180636 205.059524 
L 231.333847 210.038964 
L 231.487058 209.147207 
L 231.793481 202.550623 
L 231.946692 207.795505 
L 232.099903 205.779787 
L 232.253114 209.566165 
L 232.406325 208.933661 
L 232.559537 213.64362 
L 232.712748 212.542154 
L 233.478804 212.542154 
L 233.938438 194.875344 
L 234.091649 194.456551 
L 234.24486 196.77238 
L 234.551282 187.076204 
L 234.704494 187.426116 
L 234.857705 184.520514 
L 235.010916 192.39217 
L 235.317338 185.490498 
L 235.623761 183.843129 
L 235.776972 188.291394 
L 235.930183 187.379859 
L 236.083394 187.737429 
L 236.236606 192.060547 
L 236.389817 192.691601 
L 236.696239 177.187783 
L 237.002662 167.856338 
L 237.155873 168.337419 
L 237.309084 167.603016 
L 237.462295 168.907782 
L 237.615506 172.82375 
L 237.768718 170.859266 
L 237.921929 171.021891 
L 238.07514 173.754254 
L 238.381562 169.088458 
L 238.534774 170.606697 
L 238.687985 170.170588 
L 238.841196 167.777449 
L 238.994407 168.708467 
L 239.147619 183.695176 
L 239.454041 182.190398 
L 239.760463 172.524025 
L 239.913675 177.024349 
L 240.066886 176.126642 
L 240.220097 181.155352 
L 240.373308 180.977173 
L 240.679731 183.824692 
L 240.832942 177.349581 
L 240.986153 178.125356 
L 241.139364 177.686621 
L 241.292575 172.886938 
L 241.445787 172.96478 
L 241.598998 168.187978 
L 241.752209 167.488834 
L 242.058631 170.443466 
L 242.211843 169.276425 
L 242.365054 176.363418 
L 242.671476 173.422705 
L 242.824687 175.957039 
L 242.977899 175.957039 
L 243.13111 194.228791 
L 243.284321 194.871671 
L 243.437532 189.295975 
L 243.590743 207.109985 
L 243.743955 202.490961 
L 243.897166 215.255714 
L 244.050377 214.79261 
L 244.203588 220.303245 
L 244.3568 215.936808 
L 244.510011 223.960769 
L 244.663222 222.992969 
L 244.816433 215.930031 
L 244.969644 218.265105 
L 245.122856 225.501796 
L 245.429278 221.136791 
L 245.582489 235.3323 
L 245.7357 236.402383 
L 245.888912 242.41193 
L 246.042123 236.248793 
L 246.195334 239.915278 
L 246.348545 235.34846 
L 246.501756 236.124914 
L 246.654968 232.982701 
L 246.808179 234.301312 
L 247.574235 234.301312 
L 247.727446 235.60224 
L 248.033868 226.490438 
L 248.340291 227.040786 
L 248.493502 221.989728 
L 248.646713 223.783178 
L 248.799924 221.860286 
L 248.953136 235.974629 
L 249.106347 234.021658 
L 249.259558 239.981091 
L 249.412769 236.582013 
L 249.565981 227.818526 
L 249.872403 225.978287 
L 250.025614 224.233794 
L 250.178825 223.929404 
L 250.485248 231.199847 
L 250.638459 230.780081 
L 250.79167 227.080046 
L 251.098093 226.257868 
L 251.404515 219.885573 
L 251.557726 215.097918 
L 251.710937 216.560039 
L 251.864149 215.762981 
L 252.01736 219.447811 
L 252.170571 218.082189 
L 252.323782 219.684733 
L 252.476993 222.542041 
L 252.630205 216.463613 
L 253.089838 215.795318 
L 253.243049 212.520798 
L 253.396261 212.706799 
L 253.702683 217.643527 
L 253.855894 213.958018 
L 254.009105 214.733572 
L 254.315528 210.317186 
L 254.468739 210.636487 
L 254.62195 213.980366 
L 254.775162 213.291155 
L 255.081584 220.05547 
L 255.234795 219.577933 
L 255.388006 220.523403 
L 255.541218 219.167256 
L 256.000851 221.151151 
L 256.154062 221.151151 
L 256.307274 217.065488 
L 256.460485 217.168616 
L 256.613696 216.674442 
L 256.920118 229.13991 
L 257.07333 229.103955 
L 257.226541 228.769541 
L 257.379752 228.857924 
L 257.532963 229.516302 
L 257.686174 227.729684 
L 257.839386 228.269583 
L 257.992597 230.990157 
L 258.145808 231.035881 
L 258.45223 228.272521 
L 258.758653 230.42062 
L 258.911864 229.867243 
L 259.065075 229.972336 
L 259.218286 229.866655 
L 259.371498 222.78394 
L 259.524709 223.017705 
L 259.831131 221.124231 
L 259.984343 221.469019 
L 260.137554 221.322572 
L 260.290765 221.99094 
L 260.597187 221.99094 
L 260.750399 229.067853 
L 260.90361 228.382039 
L 261.056821 224.995741 
L 261.210032 226.07833 
L 261.516455 224.875462 
L 261.669666 225.646499 
L 261.822877 223.616274 
L 261.976088 224.638465 
L 262.129299 227.472157 
L 262.435722 223.089248 
L 262.588933 221.6575 
L 262.742144 221.806885 
L 262.895355 221.591007 
L 263.201778 216.031342 
L 263.354989 215.211495 
L 263.5082 215.244971 
L 263.661411 217.407651 
L 263.814623 216.894452 
L 263.967834 212.797881 
L 264.121045 211.947349 
L 264.274256 212.449108 
L 264.427468 212.42821 
L 264.887101 214.413611 
L 265.040312 213.578027 
L 265.193524 215.548167 
L 265.346735 215.321619 
L 265.499946 212.738843 
L 265.653157 217.11393 
L 265.806368 216.93913 
L 265.95958 218.066158 
L 266.112791 220.018321 
L 266.419213 218.13221 
L 266.572424 217.833972 
L 266.725636 218.264959 
L 267.032058 214.580514 
L 267.185269 215.102123 
L 267.33848 216.313714 
L 267.644903 207.09546 
L 267.798114 208.235581 
L 267.951325 208.271848 
L 268.104536 208.681092 
L 268.257748 208.381128 
L 268.410959 210.133444 
L 268.56417 209.764801 
L 268.717381 210.05259 
L 268.870592 211.372689 
L 269.023804 211.223763 
L 269.177015 211.244973 
L 269.330226 210.895226 
L 269.483437 210.081843 
L 269.636649 211.750587 
L 269.943071 211.089436 
L 270.096282 209.689071 
L 270.249493 209.597677 
L 270.402705 209.294848 
L 270.555916 210.580975 
L 270.709127 214.859104 
L 270.862338 214.743801 
L 271.015549 216.297829 
L 271.321972 216.297829 
L 271.475183 214.552676 
L 271.628394 214.782162 
L 271.781605 214.565989 
L 271.934817 213.329516 
L 272.088028 213.962609 
L 272.241239 217.984111 
L 272.39445 216.649615 
L 272.547661 217.425408 
L 272.854084 216.158397 
L 273.62014 216.158397 
L 273.926562 211.604287 
L 274.079773 212.112141 
L 274.386196 211.712667 
L 274.539407 213.415787 
L 274.692618 210.203389 
L 274.999041 210.159538 
L 275.152252 209.671919 
L 275.305463 206.865901 
L 275.458674 206.588211 
L 275.611886 207.763608 
L 275.765097 208.061607 
L 276.071519 208.95353 
L 276.22473 207.302983 
L 276.377942 208.784973 
L 276.531153 206.81408 
L 276.684364 207.086297 
L 276.837575 206.483357 
L 276.990786 205.388594 
L 277.143998 206.856646 
L 277.45042 201.766493 
L 277.603631 200.688863 
L 277.910054 201.088576 
L 278.063265 200.833143 
L 278.216476 202.006281 
L 278.522898 197.832088 
L 278.67611 198.374778 
L 278.829321 198.329714 
L 279.135743 195.677305 
L 279.288954 195.23172 
L 279.442166 197.705583 
L 279.595377 195.954921 
L 280.055011 201.495488 
L 280.208222 199.795985 
L 280.361433 200.313168 
L 280.514644 198.995603 
L 280.667855 205.006344 
L 280.821067 204.850862 
L 281.127489 207.660939 
L 281.2807 207.261923 
L 281.433911 207.630254 
L 281.587123 208.774212 
L 281.740334 206.175203 
L 281.893545 206.01513 
L 282.046756 208.226785 
L 282.199967 207.292975 
L 282.659601 209.284105 
L 282.812812 208.716974 
L 282.966023 208.716974 
L 283.272446 204.568288 
L 283.425657 204.070588 
L 283.578868 204.904721 
L 283.732079 203.63244 
L 283.885291 204.351895 
L 284.191713 207.539686 
L 284.498135 208.732693 
L 284.804558 208.011824 
L 284.957769 208.892821 
L 285.264192 206.224472 
L 285.570614 205.263209 
L 285.723825 204.540302 
L 286.489881 204.540302 
L 286.643092 205.969112 
L 286.796304 204.704433 
L 286.949515 204.997474 
L 287.715571 200.120464 
L 287.868782 200.492174 
L 288.021993 199.241194 
L 288.175204 201.312792 
L 288.481627 197.457973 
L 288.634838 196.864362 
L 288.788049 197.604714 
L 288.94126 197.449911 
L 289.094472 199.313251 
L 289.400894 197.938742 
L 289.707316 200.091579 
L 290.013739 198.279325 
L 290.16695 198.410274 
L 290.320161 200.209361 
L 290.473373 200.509178 
L 290.626584 198.684144 
L 290.933006 198.327915 
L 291.086217 196.283917 
L 291.239429 198.65232 
L 291.545851 196.834797 
L 291.699062 198.06767 
L 291.852273 197.817195 
L 292.005485 196.245556 
L 292.158696 196.432843 
L 292.465118 198.361464 
L 292.618329 200.698944 
L 292.771541 199.775528 
L 293.077963 199.775528 
L 293.231174 196.180881 
L 293.537597 194.95403 
L 293.690808 196.249467 
L 293.844019 194.777265 
L 293.99723 195.915733 
L 294.150441 195.755532 
L 294.763286 203.673739 
L 295.069709 203.488417 
L 295.22292 206.769328 
L 295.529342 205.918191 
L 295.682554 205.065235 
L 295.835765 204.87938 
L 295.988976 204.87938 
L 296.601821 208.762019 
L 296.755032 210.599173 
L 296.908243 210.455205 
L 297.061454 212.54186 
L 297.214666 211.886347 
L 297.674299 208.015423 
L 298.287144 210.820083 
L 298.440355 211.852723 
L 298.593566 211.692596 
L 298.746778 208.401511 
L 298.899989 208.233928 
L 299.206411 208.233928 
L 299.359622 207.698473 
L 299.512834 208.793237 
L 299.666045 208.573832 
L 299.819256 209.618133 
L 299.972467 208.830624 
L 300.125678 205.957451 
L 300.432101 204.597926 
L 300.585312 205.991148 
L 300.738523 204.948206 
L 300.891735 206.683352 
L 301.044946 206.547059 
L 301.198157 207.248077 
L 301.351368 205.652896 
L 301.504579 205.980846 
L 301.657791 204.762498 
L 301.811002 205.421317 
L 301.964213 204.637554 
L 302.117424 202.563771 
L 302.270635 202.131059 
L 302.423847 203.484653 
L 302.730269 202.038545 
L 302.88348 201.776409 
L 303.036691 202.762352 
L 303.189903 200.932341 
L 303.496325 200.118279 
L 303.649536 200.5188 
L 303.955959 201.653669 
L 304.10917 200.10278 
L 304.262381 199.782819 
L 304.415592 203.239136 
L 304.568803 202.404103 
L 304.875226 198.094371 
L 305.028437 198.612086 
L 305.181648 197.663072 
L 305.334859 198.182826 
L 305.794493 197.464437 
L 306.100916 194.501082 
L 306.407338 195.983512 
L 306.560549 196.799448 
L 306.71376 195.492497 
L 306.866972 195.310774 
L 307.020183 195.784638 
L 307.173394 196.824422 
L 307.326605 200.826514 
L 307.633028 197.613216 
L 307.786239 197.975083 
L 307.93945 196.321911 
L 308.092661 196.299783 
L 308.245872 194.932215 
L 308.399084 194.682493 
L 308.552295 194.872112 
L 308.705506 196.090093 
L 309.011928 189.23499 
L 309.16514 189.041295 
L 309.471562 189.37345 
L 309.624773 188.898924 
L 309.931196 187.60536 
L 310.084407 187.524727 
L 310.237618 189.020911 
L 310.390829 189.040028 
L 310.697252 187.968567 
L 310.850463 187.618141 
L 311.156885 189.91434 
L 311.310097 189.219345 
L 311.463308 189.671687 
L 311.616519 188.983377 
L 312.076153 190.822183 
L 312.382575 190.542162 
L 312.535786 190.965619 
L 312.688997 190.266033 
L 313.455053 190.266033 
L 313.761476 187.705311 
L 313.914687 187.306975 
L 314.067898 187.471235 
L 314.221109 187.138566 
L 314.527532 188.528702 
L 314.680743 187.795126 
L 314.833954 188.669273 
L 314.987165 188.031755 
L 315.140377 187.877485 
L 315.60001 185.856589 
L 315.753222 185.161208 
L 315.906433 187.152558 
L 316.212855 186.733141 
L 316.519278 188.55105 
L 317.132122 184.335118 
L 317.285334 183.968201 
L 317.438545 182.827713 
L 318.05139 187.711334 
L 318.204601 186.997462 
L 318.511023 184.134352 
L 318.664234 189.961717 
L 318.817446 189.899135 
L 318.970657 192.275288 
L 319.277079 191.099506 
L 319.43029 192.654526 
L 319.583502 192.622262 
L 320.043135 194.401259 
L 320.196346 196.049326 
L 320.349558 194.700103 
L 320.502769 192.27784 
L 320.65598 195.390434 
L 320.809191 193.718898 
L 320.962403 194.516048 
L 321.115614 196.494378 
L 321.268825 196.360106 
L 321.422036 194.207728 
L 321.575247 194.879567 
L 321.728459 193.942893 
L 321.88167 194.168247 
L 322.034881 195.388542 
L 322.188092 193.486639 
L 322.341303 195.768846 
L 322.647726 193.407879 
L 322.800937 193.407879 
L 323.107359 188.749319 
L 323.566993 185.712694 
L 324.179838 184.248921 
L 324.333049 185.636872 
L 324.792683 180.803052 
L 325.099105 178.801694 
L 325.405527 174.431418 
L 325.558739 175.270693 
L 325.71195 174.531921 
L 326.018372 179.806055 
L 326.171584 180.345807 
L 326.324795 182.892095 
L 326.631217 179.844563 
L 326.93764 193.250837 
L 327.090851 196.80178 
L 327.244062 206.745254 
L 327.703696 201.532196 
L 328.469752 201.532196 
L 328.776174 194.772913 
L 328.929385 191.722902 
L 329.235808 197.000507 
L 329.389019 195.921389 
L 329.54223 197.367552 
L 329.695441 197.187188 
L 329.848652 194.726418 
L 330.001864 196.078358 
L 330.461497 191.939148 
L 330.76792 194.595542 
L 330.921131 194.615852 
L 331.074342 196.212686 
L 331.380765 194.651367 
L 331.533976 195.380058 
L 331.687187 196.694226 
L 331.840398 205.022063 
L 331.993609 206.454104 
L 332.146821 203.977468 
L 332.300032 207.313965 
L 332.453243 204.437633 
L 332.606454 203.808379 
L 332.759665 204.238465 
L 332.912877 206.235141 
L 333.066088 206.650481 
L 333.37251 206.650481 
L 333.525721 206.110215 
L 333.832144 200.861037 
L 334.291777 208.189562 
L 334.444989 211.487919 
L 334.751411 207.683581 
L 334.904622 211.130955 
L 335.057833 211.396543 
L 335.211045 206.814759 
L 335.364256 207.638591 
L 335.517467 210.868672 
L 335.670678 210.326974 
L 336.130312 210.406322 
L 336.283523 208.92593 
L 336.436734 209.664996 
L 336.743157 204.364896 
L 336.896368 204.541514 
L 337.049579 203.393479 
L 337.20279 204.232148 
L 337.509213 202.061793 
L 337.815635 204.907586 
L 338.122058 200.427939 
L 338.275269 200.389578 
L 338.581691 204.879913 
L 339.041325 207.451542 
L 339.194536 213.394945 
L 339.347747 209.33095 
L 339.500958 210.860629 
L 339.960592 207.848758 
L 340.113803 208.276053 
L 340.420226 212.542007 
L 340.573437 210.509744 
L 340.726648 212.76659 
L 340.879859 213.190598 
L 341.03307 214.864833 
L 341.186282 214.864833 
L 341.339493 223.445385 
L 341.492704 222.850507 
L 341.645915 225.853196 
L 341.799127 224.803937 
L 342.411971 232.54088 
L 342.565183 227.988735 
L 342.718394 233.393836 
L 342.871605 232.54156 
L 343.178027 236.528447 
L 343.331239 235.524545 
L 343.48445 230.418802 
L 343.637661 229.477482 
L 343.790872 233.2273 
L 343.944083 228.72277 
L 344.097295 229.209782 
L 344.710139 233.620384 
L 345.169773 223.615374 
L 345.322984 223.759416 
L 345.629407 226.01988 
L 345.782618 226.361657 
L 345.935829 225.808757 
L 346.548674 238.689033 
L 346.701885 233.106726 
L 346.855096 235.762148 
L 347.008308 231.977881 
L 347.161519 231.908082 
L 347.467941 232.987053 
L 347.774364 238.686407 
L 347.927575 241.411168 
L 348.233997 236.532671 
L 348.387208 237.978172 
L 348.693631 236.863246 
L 348.846842 232.992029 
L 349.000053 233.211507 
L 349.153264 233.864836 
L 349.459687 237.177717 
L 349.612898 237.517401 
L 349.766109 235.272491 
L 350.072532 239.70926 
L 350.225743 238.903847 
L 350.378954 241.372128 
L 350.532165 241.724519 
L 350.685376 242.378142 
L 350.838588 240.086478 
L 350.991799 240.457655 
L 351.14501 242.703153 
L 351.451432 236.7565 
L 351.604644 236.877312 
L 351.757855 231.744483 
L 351.911066 231.744483 
L 352.064277 232.973978 
L 352.217489 231.042878 
L 352.3707 232.173982 
L 352.523911 229.949455 
L 353.289967 229.949455 
L 353.443178 237.835104 
L 353.749601 237.133572 
L 353.902812 247.84274 
L 354.056023 246.078543 
L 354.362445 250.635353 
L 354.515657 249.485757 
L 354.668868 255.141627 
L 354.97529 242.470968 
L 355.128501 246.987691 
L 355.281713 246.350687 
L 355.434924 246.312693 
L 355.588135 246.685248 
L 355.741346 250.953295 
L 356.20098 246.129391 
L 356.354191 240.846296 
L 356.967036 243.918416 
L 357.120247 246.683356 
L 357.42667 242.470674 
L 357.579881 244.173335 
L 357.886303 240.648174 
L 358.039514 238.812765 
L 358.192726 243.149491 
L 358.345937 242.724528 
L 358.499148 243.181149 
L 358.652359 248.141731 
L 358.958782 248.503065 
L 359.111993 246.467863 
L 359.265204 249.047316 
L 359.418415 247.48697 
L 359.571626 242.476826 
L 359.724838 241.637422 
L 359.878049 242.852391 
L 360.03126 246.208831 
L 360.184471 246.155651 
L 360.337682 247.758195 
L 360.644105 246.436572 
L 360.797316 244.037484 
L 360.950527 247.069297 
L 361.103738 246.750896 
L 361.716583 252.897782 
L 361.869794 252.088751 
L 362.176217 254.248438 
L 362.329428 255.392323 
L 362.482639 254.579234 
L 362.789062 254.579234 
L 362.942273 256.730785 
L 363.095484 256.800584 
L 363.401907 251.631285 
L 363.555118 252.129756 
L 363.708329 250.784665 
L 363.86154 251.480101 
L 364.014751 250.07116 
L 364.167963 251.430024 
L 364.321174 248.82905 
L 364.474385 248.823247 
L 364.627596 249.634463 
L 364.934019 245.808071 
L 365.08723 248.125094 
L 365.240441 248.027327 
L 365.546863 246.468928 
L 365.853286 247.030716 
L 366.006497 248.435598 
L 366.159708 247.758948 
L 366.312919 245.227185 
L 367.078976 245.227185 
L 367.538609 237.492262 
L 367.69182 237.59517 
L 367.845032 240.401849 
L 367.998243 234.988411 
L 368.151454 234.891453 
L 368.304665 234.472274 
L 368.457876 235.180656 
L 368.611088 231.237455 
L 368.764299 219.424269 
L 368.91751 220.911051 
L 369.070721 219.985304 
L 369.223932 220.953324 
L 369.530355 214.437979 
L 369.683566 212.431883 
L 369.836777 208.832644 
L 369.989988 208.507798 
L 370.1432 218.779057 
L 370.449622 211.976088 
L 370.756044 217.212761 
L 370.909256 214.876108 
L 371.062467 209.259958 
L 371.215678 209.669348 
L 371.368889 209.694561 
L 371.5221 208.881087 
L 371.675312 208.678466 
L 371.981734 216.730634 
L 372.134945 214.803224 
L 372.288157 216.892487 
L 372.594579 203.698254 
L 372.74779 203.212215 
L 373.054213 197.966048 
L 373.207424 197.966048 
L 373.360635 198.098502 
L 373.513846 198.485563 
L 373.667057 198.315134 
L 373.820269 202.223959 
L 373.97348 202.324443 
L 374.126691 203.139699 
L 374.279902 197.437516 
L 374.433113 196.721459 
L 374.586325 197.693023 
L 374.739536 196.14386 
L 375.045958 201.574689 
L 375.199169 201.347535 
L 375.505592 210.01355 
L 376.271648 210.01355 
L 376.424859 223.547522 
L 376.57807 222.048693 
L 376.884493 227.722761 
L 377.037704 221.084437 
L 377.344126 225.266434 
L 377.650549 219.843374 
L 377.80376 225.365357 
L 377.956971 226.244701 
L 378.110182 223.584762 
L 378.263394 224.657637 
L 378.416605 227.605365 
L 378.569816 227.569244 
L 378.876238 223.288269 
L 379.02945 222.928349 
L 379.489083 224.779789 
L 379.642294 226.87087 
L 379.795506 226.935711 
L 379.948717 229.464463 
L 380.101928 229.464463 
L 380.255139 227.634324 
L 380.40835 222.099467 
L 380.561562 223.328209 
L 380.714773 223.225834 
L 380.867984 225.38956 
L 381.174406 224.774005 
L 381.327618 222.694658 
L 381.480829 217.480994 
L 381.787251 215.899273 
L 381.940462 217.860452 
L 382.093674 218.295956 
L 382.246885 216.753349 
L 382.400096 218.100846 
L 382.553307 213.1347 
L 382.706519 213.206905 
L 383.012941 216.117319 
L 383.166152 215.680309 
L 383.319363 221.524293 
L 383.472575 221.910381 
L 383.625786 222.882771 
L 383.778997 222.697816 
L 384.085419 220.860369 
L 384.391842 221.650136 
L 384.545053 223.944976 
L 384.698264 222.213503 
L 384.851475 225.01348 
L 385.004687 224.038243 
L 385.311109 221.223649 
L 385.46432 220.683604 
L 385.617531 220.949118 
L 385.770743 220.096916 
L 386.077165 223.374081 
L 386.69001 233.911093 
L 386.843221 231.9651 
L 386.996432 233.454527 
L 387.149643 230.427837 
L 387.302855 231.761414 
L 387.762488 229.763674 
L 387.9157 225.304869 
L 388.068911 225.538046 
L 388.222122 225.513218 
L 388.375333 225.279307 
L 388.528544 224.227036 
L 388.681756 226.773839 
L 388.834967 223.869008 
L 389.141389 224.716693 
L 389.2946 225.068699 
L 389.447812 222.220573 
L 389.601023 221.765972 
L 390.213868 214.651286 
L 390.367079 214.917554 
L 390.52029 215.849472 
L 390.673501 214.162383 
L 390.979924 214.199238 
L 391.133135 218.157846 
L 391.286346 217.590733 
L 391.592768 216.02699 
L 391.74598 218.236073 
L 391.899191 217.614788 
L 392.205613 221.845687 
L 392.358824 221.614034 
L 392.512036 223.64336 
L 393.278092 223.64336 
L 393.584514 222.163849 
L 394.044148 215.919436 
L 394.35057 218.11348 
L 394.503781 218.217269 
L 394.656993 221.164997 
L 394.810204 221.05366 
L 394.963415 219.94349 
L 395.116626 220.903229 
L 395.269837 220.955894 
L 395.423049 219.902118 
L 395.57626 218.012684 
L 395.882682 221.076229 
L 396.035893 221.847946 
L 396.342316 218.355673 
L 396.495527 217.146947 
L 396.648738 218.121743 
L 396.801949 218.11348 
L 396.955161 219.20637 
L 397.108372 223.283825 
L 397.261583 222.91902 
L 397.414794 223.639595 
L 397.568005 223.291336 
L 397.721217 224.68509 
L 398.027639 221.477136 
L 398.334062 223.759948 
L 398.487273 225.14015 
L 398.487273 225.14015 
" style="fill:none;stroke:#ff7f0e;stroke-linecap:square;stroke-width:1.5;"/>
   </g>
   <g id="patch_3">
    <path d="M 57.6 307.584 
L 57.6 41.472 
" style="fill:none;stroke:#000000;stroke-linecap:square;stroke-linejoin:miter;stroke-width:0.8;"/>
   </g>
   <g id="patch_4">
    <path d="M 414.72 307.584 
L 414.72 41.472 
" style="fill:none;stroke:#000000;stroke-linecap:square;stroke-linejoin:miter;stroke-width:0.8;"/>
   </g>
   <g id="patch_5">
    <path d="M 57.6 307.584 
L 414.72 307.584 
" style="fill:none;stroke:#000000;stroke-linecap:square;stroke-linejoin:miter;stroke-width:0.8;"/>
   </g>
   <g id="patch_6">
    <path d="M 57.6 41.472 
L 414.72 41.472 
" style="fill:none;stroke:#000000;stroke-linecap:square;stroke-linejoin:miter;stroke-width:0.8;"/>
   </g>
   <g id="text_13">
    <!-- up:535 upp:1044 down:464 downn:930 bingo:999 total:2118 -->
    <defs>
     <path d="M 8.5 21.578125 
L 8.5 54.6875 
L 17.484375 54.6875 
L 17.484375 21.921875 
Q 17.484375 14.15625 20.5 10.265625 
Q 23.53125 6.390625 29.59375 6.390625 
Q 36.859375 6.390625 41.078125 11.03125 
Q 45.3125 15.671875 45.3125 23.6875 
L 45.3125 54.6875 
L 54.296875 54.6875 
L 54.296875 0 
L 45.3125 0 
L 45.3125 8.40625 
Q 42.046875 3.421875 37.71875 1 
Q 33.40625 -1.421875 27.6875 -1.421875 
Q 18.265625 -1.421875 13.375 4.4375 
Q 8.5 10.296875 8.5 21.578125 
z
M 31.109375 56 
z
" id="DejaVuSans-117"/>
     <path d="M 18.109375 8.203125 
L 18.109375 -20.796875 
L 9.078125 -20.796875 
L 9.078125 54.6875 
L 18.109375 54.6875 
L 18.109375 46.390625 
Q 20.953125 51.265625 25.265625 53.625 
Q 29.59375 56 35.59375 56 
Q 45.5625 56 51.78125 48.09375 
Q 58.015625 40.1875 58.015625 27.296875 
Q 58.015625 14.40625 51.78125 6.484375 
Q 45.5625 -1.421875 35.59375 -1.421875 
Q 29.59375 -1.421875 25.265625 0.953125 
Q 20.953125 3.328125 18.109375 8.203125 
z
M 48.6875 27.296875 
Q 48.6875 37.203125 44.609375 42.84375 
Q 40.53125 48.484375 33.40625 48.484375 
Q 26.265625 48.484375 22.1875 42.84375 
Q 18.109375 37.203125 18.109375 27.296875 
Q 18.109375 17.390625 22.1875 11.75 
Q 26.265625 6.109375 33.40625 6.109375 
Q 40.53125 6.109375 44.609375 11.75 
Q 48.6875 17.390625 48.6875 27.296875 
z
" id="DejaVuSans-112"/>
     <path d="M 11.71875 12.40625 
L 22.015625 12.40625 
L 22.015625 0 
L 11.71875 0 
z
M 11.71875 51.703125 
L 22.015625 51.703125 
L 22.015625 39.3125 
L 11.71875 39.3125 
z
" id="DejaVuSans-58"/>
     <path id="DejaVuSans-32"/>
     <path d="M 45.40625 46.390625 
L 45.40625 75.984375 
L 54.390625 75.984375 
L 54.390625 0 
L 45.40625 0 
L 45.40625 8.203125 
Q 42.578125 3.328125 38.25 0.953125 
Q 33.9375 -1.421875 27.875 -1.421875 
Q 17.96875 -1.421875 11.734375 6.484375 
Q 5.515625 14.40625 5.515625 27.296875 
Q 5.515625 40.1875 11.734375 48.09375 
Q 17.96875 56 27.875 56 
Q 33.9375 56 38.25 53.625 
Q 42.578125 51.265625 45.40625 46.390625 
z
M 14.796875 27.296875 
Q 14.796875 17.390625 18.875 11.75 
Q 22.953125 6.109375 30.078125 6.109375 
Q 37.203125 6.109375 41.296875 11.75 
Q 45.40625 17.390625 45.40625 27.296875 
Q 45.40625 37.203125 41.296875 42.84375 
Q 37.203125 48.484375 30.078125 48.484375 
Q 22.953125 48.484375 18.875 42.84375 
Q 14.796875 37.203125 14.796875 27.296875 
z
" id="DejaVuSans-100"/>
     <path d="M 30.609375 48.390625 
Q 23.390625 48.390625 19.1875 42.75 
Q 14.984375 37.109375 14.984375 27.296875 
Q 14.984375 17.484375 19.15625 11.84375 
Q 23.34375 6.203125 30.609375 6.203125 
Q 37.796875 6.203125 41.984375 11.859375 
Q 46.1875 17.53125 46.1875 27.296875 
Q 46.1875 37.015625 41.984375 42.703125 
Q 37.796875 48.390625 30.609375 48.390625 
z
M 30.609375 56 
Q 42.328125 56 49.015625 48.375 
Q 55.71875 40.765625 55.71875 27.296875 
Q 55.71875 13.875 49.015625 6.21875 
Q 42.328125 -1.421875 30.609375 -1.421875 
Q 18.84375 -1.421875 12.171875 6.21875 
Q 5.515625 13.875 5.515625 27.296875 
Q 5.515625 40.765625 12.171875 48.375 
Q 18.84375 56 30.609375 56 
z
" id="DejaVuSans-111"/>
     <path d="M 4.203125 54.6875 
L 13.1875 54.6875 
L 24.421875 12.015625 
L 35.59375 54.6875 
L 46.1875 54.6875 
L 57.421875 12.015625 
L 68.609375 54.6875 
L 77.59375 54.6875 
L 63.28125 0 
L 52.6875 0 
L 40.921875 44.828125 
L 29.109375 0 
L 18.5 0 
z
" id="DejaVuSans-119"/>
     <path d="M 54.890625 33.015625 
L 54.890625 0 
L 45.90625 0 
L 45.90625 32.71875 
Q 45.90625 40.484375 42.875 44.328125 
Q 39.84375 48.1875 33.796875 48.1875 
Q 26.515625 48.1875 22.3125 43.546875 
Q 18.109375 38.921875 18.109375 30.90625 
L 18.109375 0 
L 9.078125 0 
L 9.078125 54.6875 
L 18.109375 54.6875 
L 18.109375 46.1875 
Q 21.34375 51.125 25.703125 53.5625 
Q 30.078125 56 35.796875 56 
Q 45.21875 56 50.046875 50.171875 
Q 54.890625 44.34375 54.890625 33.015625 
z
" id="DejaVuSans-110"/>
     <path d="M 10.984375 1.515625 
L 10.984375 10.5 
Q 14.703125 8.734375 18.5 7.8125 
Q 22.3125 6.890625 25.984375 6.890625 
Q 35.75 6.890625 40.890625 13.453125 
Q 46.046875 20.015625 46.78125 33.40625 
Q 43.953125 29.203125 39.59375 26.953125 
Q 35.25 24.703125 29.984375 24.703125 
Q 19.046875 24.703125 12.671875 31.3125 
Q 6.296875 37.9375 6.296875 49.421875 
Q 6.296875 60.640625 12.9375 67.421875 
Q 19.578125 74.21875 30.609375 74.21875 
Q 43.265625 74.21875 49.921875 64.515625 
Q 56.59375 54.828125 56.59375 36.375 
Q 56.59375 19.140625 48.40625 8.859375 
Q 40.234375 -1.421875 26.421875 -1.421875 
Q 22.703125 -1.421875 18.890625 -0.6875 
Q 15.09375 0.046875 10.984375 1.515625 
z
M 30.609375 32.421875 
Q 37.25 32.421875 41.125 36.953125 
Q 45.015625 41.5 45.015625 49.421875 
Q 45.015625 57.28125 41.125 61.84375 
Q 37.25 66.40625 30.609375 66.40625 
Q 23.96875 66.40625 20.09375 61.84375 
Q 16.21875 57.28125 16.21875 49.421875 
Q 16.21875 41.5 20.09375 36.953125 
Q 23.96875 32.421875 30.609375 32.421875 
z
" id="DejaVuSans-57"/>
     <path d="M 48.6875 27.296875 
Q 48.6875 37.203125 44.609375 42.84375 
Q 40.53125 48.484375 33.40625 48.484375 
Q 26.265625 48.484375 22.1875 42.84375 
Q 18.109375 37.203125 18.109375 27.296875 
Q 18.109375 17.390625 22.1875 11.75 
Q 26.265625 6.109375 33.40625 6.109375 
Q 40.53125 6.109375 44.609375 11.75 
Q 48.6875 17.390625 48.6875 27.296875 
z
M 18.109375 46.390625 
Q 20.953125 51.265625 25.265625 53.625 
Q 29.59375 56 35.59375 56 
Q 45.5625 56 51.78125 48.09375 
Q 58.015625 40.1875 58.015625 27.296875 
Q 58.015625 14.40625 51.78125 6.484375 
Q 45.5625 -1.421875 35.59375 -1.421875 
Q 29.59375 -1.421875 25.265625 0.953125 
Q 20.953125 3.328125 18.109375 8.203125 
L 18.109375 0 
L 9.078125 0 
L 9.078125 75.984375 
L 18.109375 75.984375 
z
" id="DejaVuSans-98"/>
     <path d="M 9.421875 54.6875 
L 18.40625 54.6875 
L 18.40625 0 
L 9.421875 0 
z
M 9.421875 75.984375 
L 18.40625 75.984375 
L 18.40625 64.59375 
L 9.421875 64.59375 
z
" id="DejaVuSans-105"/>
     <path d="M 45.40625 27.984375 
Q 45.40625 37.75 41.375 43.109375 
Q 37.359375 48.484375 30.078125 48.484375 
Q 22.859375 48.484375 18.828125 43.109375 
Q 14.796875 37.75 14.796875 27.984375 
Q 14.796875 18.265625 18.828125 12.890625 
Q 22.859375 7.515625 30.078125 7.515625 
Q 37.359375 7.515625 41.375 12.890625 
Q 45.40625 18.265625 45.40625 27.984375 
z
M 54.390625 6.78125 
Q 54.390625 -7.171875 48.1875 -13.984375 
Q 42 -20.796875 29.203125 -20.796875 
Q 24.46875 -20.796875 20.265625 -20.09375 
Q 16.0625 -19.390625 12.109375 -17.921875 
L 12.109375 -9.1875 
Q 16.0625 -11.328125 19.921875 -12.34375 
Q 23.78125 -13.375 27.78125 -13.375 
Q 36.625 -13.375 41.015625 -8.765625 
Q 45.40625 -4.15625 45.40625 5.171875 
L 45.40625 9.625 
Q 42.625 4.78125 38.28125 2.390625 
Q 33.9375 0 27.875 0 
Q 17.828125 0 11.671875 7.65625 
Q 5.515625 15.328125 5.515625 27.984375 
Q 5.515625 40.671875 11.671875 48.328125 
Q 17.828125 56 27.875 56 
Q 33.9375 56 38.28125 53.609375 
Q 42.625 51.21875 45.40625 46.390625 
L 45.40625 54.6875 
L 54.390625 54.6875 
z
" id="DejaVuSans-103"/>
     <path d="M 18.3125 70.21875 
L 18.3125 54.6875 
L 36.8125 54.6875 
L 36.8125 47.703125 
L 18.3125 47.703125 
L 18.3125 18.015625 
Q 18.3125 11.328125 20.140625 9.421875 
Q 21.96875 7.515625 27.59375 7.515625 
L 36.8125 7.515625 
L 36.8125 0 
L 27.59375 0 
Q 17.1875 0 13.234375 3.875 
Q 9.28125 7.765625 9.28125 18.015625 
L 9.28125 47.703125 
L 2.6875 47.703125 
L 2.6875 54.6875 
L 9.28125 54.6875 
L 9.28125 70.21875 
z
" id="DejaVuSans-116"/>
     <path d="M 34.28125 27.484375 
Q 23.390625 27.484375 19.1875 25 
Q 14.984375 22.515625 14.984375 16.5 
Q 14.984375 11.71875 18.140625 8.90625 
Q 21.296875 6.109375 26.703125 6.109375 
Q 34.1875 6.109375 38.703125 11.40625 
Q 43.21875 16.703125 43.21875 25.484375 
L 43.21875 27.484375 
z
M 52.203125 31.203125 
L 52.203125 0 
L 43.21875 0 
L 43.21875 8.296875 
Q 40.140625 3.328125 35.546875 0.953125 
Q 30.953125 -1.421875 24.3125 -1.421875 
Q 15.921875 -1.421875 10.953125 3.296875 
Q 6 8.015625 6 15.921875 
Q 6 25.140625 12.171875 29.828125 
Q 18.359375 34.515625 30.609375 34.515625 
L 43.21875 34.515625 
L 43.21875 35.40625 
Q 43.21875 41.609375 39.140625 45 
Q 35.0625 48.390625 27.6875 48.390625 
Q 23 48.390625 18.546875 47.265625 
Q 14.109375 46.140625 10.015625 43.890625 
L 10.015625 52.203125 
Q 14.9375 54.109375 19.578125 55.046875 
Q 24.21875 56 28.609375 56 
Q 40.484375 56 46.34375 49.84375 
Q 52.203125 43.703125 52.203125 31.203125 
z
" id="DejaVuSans-97"/>
     <path d="M 9.421875 75.984375 
L 18.40625 75.984375 
L 18.40625 0 
L 9.421875 0 
z
" id="DejaVuSans-108"/>
    </defs>
    <g transform="translate(52.455938 35.472)scale(0.12 -0.12)">
     <use xlink:href="#DejaVuSans-117"/>
     <use x="63.378906" xlink:href="#DejaVuSans-112"/>
     <use x="126.855469" xlink:href="#DejaVuSans-58"/>
     <use x="160.546875" xlink:href="#DejaVuSans-53"/>
     <use x="224.169922" xlink:href="#DejaVuSans-51"/>
     <use x="287.792969" xlink:href="#DejaVuSans-53"/>
     <use x="351.416016" xlink:href="#DejaVuSans-32"/>
     <use x="383.203125" xlink:href="#DejaVuSans-117"/>
     <use x="446.582031" xlink:href="#DejaVuSans-112"/>
     <use x="510.058594" xlink:href="#DejaVuSans-112"/>
     <use x="573.535156" xlink:href="#DejaVuSans-58"/>
     <use x="607.226562" xlink:href="#DejaVuSans-49"/>
     <use x="670.849609" xlink:href="#DejaVuSans-48"/>
     <use x="734.472656" xlink:href="#DejaVuSans-52"/>
     <use x="798.095703" xlink:href="#DejaVuSans-52"/>
     <use x="861.71875" xlink:href="#DejaVuSans-32"/>
     <use x="893.505859" xlink:href="#DejaVuSans-100"/>
     <use x="956.982422" xlink:href="#DejaVuSans-111"/>
     <use x="1018.164062" xlink:href="#DejaVuSans-119"/>
     <use x="1099.951172" xlink:href="#DejaVuSans-110"/>
     <use x="1163.330078" xlink:href="#DejaVuSans-58"/>
     <use x="1197.021484" xlink:href="#DejaVuSans-52"/>
     <use x="1260.644531" xlink:href="#DejaVuSans-54"/>
     <use x="1324.267578" xlink:href="#DejaVuSans-52"/>
     <use x="1387.890625" xlink:href="#DejaVuSans-32"/>
     <use x="1419.677734" xlink:href="#DejaVuSans-100"/>
     <use x="1483.154297" xlink:href="#DejaVuSans-111"/>
     <use x="1544.335938" xlink:href="#DejaVuSans-119"/>
     <use x="1626.123047" xlink:href="#DejaVuSans-110"/>
     <use x="1689.501953" xlink:href="#DejaVuSans-110"/>
     <use x="1752.880859" xlink:href="#DejaVuSans-58"/>
     <use x="1786.572266" xlink:href="#DejaVuSans-57"/>
     <use x="1850.195312" xlink:href="#DejaVuSans-51"/>
     <use x="1913.818359" xlink:href="#DejaVuSans-48"/>
     <use x="1977.441406" xlink:href="#DejaVuSans-32"/>
     <use x="2009.228516" xlink:href="#DejaVuSans-98"/>
     <use x="2072.705078" xlink:href="#DejaVuSans-105"/>
     <use x="2100.488281" xlink:href="#DejaVuSans-110"/>
     <use x="2163.867188" xlink:href="#DejaVuSans-103"/>
     <use x="2227.34375" xlink:href="#DejaVuSans-111"/>
     <use x="2288.525391" xlink:href="#DejaVuSans-58"/>
     <use x="2322.216797" xlink:href="#DejaVuSans-57"/>
     <use x="2385.839844" xlink:href="#DejaVuSans-57"/>
     <use x="2449.462891" xlink:href="#DejaVuSans-57"/>
     <use x="2513.085938" xlink:href="#DejaVuSans-32"/>
     <use x="2544.873047" xlink:href="#DejaVuSans-116"/>
     <use x="2584.082031" xlink:href="#DejaVuSans-111"/>
     <use x="2645.263672" xlink:href="#DejaVuSans-116"/>
     <use x="2684.472656" xlink:href="#DejaVuSans-97"/>
     <use x="2745.751953" xlink:href="#DejaVuSans-108"/>
     <use x="2773.535156" xlink:href="#DejaVuSans-58"/>
     <use x="2807.226562" xlink:href="#DejaVuSans-50"/>
     <use x="2870.849609" xlink:href="#DejaVuSans-49"/>
     <use x="2934.472656" xlink:href="#DejaVuSans-49"/>
     <use x="2998.095703" xlink:href="#DejaVuSans-56"/>
    </g>
   </g>
   <g id="legend_1">
    <g id="patch_7">
     <path d="M 359.110625 78.82825 
L 407.72 78.82825 
Q 409.72 78.82825 409.72 76.82825 
L 409.72 48.472 
Q 409.72 46.472 407.72 46.472 
L 359.110625 46.472 
Q 357.110625 46.472 357.110625 48.472 
L 357.110625 76.82825 
Q 357.110625 78.82825 359.110625 78.82825 
z
" style="fill:#ffffff;opacity:0.8;stroke:#cccccc;stroke-linejoin:miter;"/>
    </g>
    <g id="line2d_15">
     <path d="M 361.110625 54.570437 
L 381.110625 54.570437 
" style="fill:none;stroke:#1f77b4;stroke-linecap:square;stroke-width:1.5;"/>
    </g>
    <g id="line2d_16"/>
    <g id="text_14">
     <!-- pre -->
     <defs>
      <path d="M 41.109375 46.296875 
Q 39.59375 47.171875 37.8125 47.578125 
Q 36.03125 48 33.890625 48 
Q 26.265625 48 22.1875 43.046875 
Q 18.109375 38.09375 18.109375 28.8125 
L 18.109375 0 
L 9.078125 0 
L 9.078125 54.6875 
L 18.109375 54.6875 
L 18.109375 46.1875 
Q 20.953125 51.171875 25.484375 53.578125 
Q 30.03125 56 36.53125 56 
Q 37.453125 56 38.578125 55.875 
Q 39.703125 55.765625 41.0625 55.515625 
z
" id="DejaVuSans-114"/>
      <path d="M 56.203125 29.59375 
L 56.203125 25.203125 
L 14.890625 25.203125 
Q 15.484375 15.921875 20.484375 11.0625 
Q 25.484375 6.203125 34.421875 6.203125 
Q 39.59375 6.203125 44.453125 7.46875 
Q 49.3125 8.734375 54.109375 11.28125 
L 54.109375 2.78125 
Q 49.265625 0.734375 44.1875 -0.34375 
Q 39.109375 -1.421875 33.890625 -1.421875 
Q 20.796875 -1.421875 13.15625 6.1875 
Q 5.515625 13.8125 5.515625 26.8125 
Q 5.515625 40.234375 12.765625 48.109375 
Q 20.015625 56 32.328125 56 
Q 43.359375 56 49.78125 48.890625 
Q 56.203125 41.796875 56.203125 29.59375 
z
M 47.21875 32.234375 
Q 47.125 39.59375 43.09375 43.984375 
Q 39.0625 48.390625 32.421875 48.390625 
Q 24.90625 48.390625 20.390625 44.140625 
Q 15.875 39.890625 15.1875 32.171875 
z
" id="DejaVuSans-101"/>
     </defs>
     <g transform="translate(389.110625 58.070437)scale(0.1 -0.1)">
      <use xlink:href="#DejaVuSans-112"/>
      <use x="63.476562" xlink:href="#DejaVuSans-114"/>
      <use x="104.558594" xlink:href="#DejaVuSans-101"/>
     </g>
    </g>
    <g id="line2d_17">
     <path d="M 361.110625 69.248562 
L 381.110625 69.248562 
" style="fill:none;stroke:#ff7f0e;stroke-linecap:square;stroke-width:1.5;"/>
    </g>
    <g id="line2d_18"/>
    <g id="text_15">
     <!-- tru -->
     <g transform="translate(389.110625 72.748562)scale(0.1 -0.1)">
      <use xlink:href="#DejaVuSans-116"/>
      <use x="39.208984" xlink:href="#DejaVuSans-114"/>
      <use x="80.322266" xlink:href="#DejaVuSans-117"/>
     </g>
    </g>
   </g>
  </g>
 </g>
 <defs>
  <clipPath id="pe1b968b7d7">
   <rect height="266.112" width="357.12" x="57.6" y="41.472"/>
  </clipPath>
 </defs>
</svg>
