<?xml version="1.0" encoding="utf-8" standalone="no"?>
<!DOCTYPE svg PUBLIC "-//W3C//DTD SVG 1.1//EN"
  "http://www.w3.org/Graphics/SVG/1.1/DTD/svg11.dtd">
<!-- Created with matplotlib (https://matplotlib.org/) -->
<svg height="345.6pt" version="1.1" viewBox="0 0 460.8 345.6" width="460.8pt" xmlns="http://www.w3.org/2000/svg" xmlns:xlink="http://www.w3.org/1999/xlink">
 <defs>
  <style type="text/css">
*{stroke-linecap:butt;stroke-linejoin:round;}
  </style>
 </defs>
 <g id="figure_1">
  <g id="patch_1">
   <path d="M 0 345.6 
L 460.8 345.6 
L 460.8 0 
L 0 0 
z
" style="fill:#ffffff;"/>
  </g>
  <g id="axes_1">
   <g id="patch_2">
    <path d="M 57.6 307.584 
L 414.72 307.584 
L 414.72 41.472 
L 57.6 41.472 
z
" style="fill:#ffffff;"/>
   </g>
   <g id="matplotlib.axis_1">
    <g id="xtick_1">
     <g id="line2d_1">
      <defs>
       <path d="M 0 0 
L 0 3.5 
" id="m102a045a7c" style="stroke:#000000;stroke-width:0.8;"/>
      </defs>
      <g>
       <use style="stroke:#000000;stroke-width:0.8;" x="73.832727" xlink:href="#m102a045a7c" y="307.584"/>
      </g>
     </g>
     <g id="text_1">
      <!-- 0 -->
      <defs>
       <path d="M 31.78125 66.40625 
Q 24.171875 66.40625 20.328125 58.90625 
Q 16.5 51.421875 16.5 36.375 
Q 16.5 21.390625 20.328125 13.890625 
Q 24.171875 6.390625 31.78125 6.390625 
Q 39.453125 6.390625 43.28125 13.890625 
Q 47.125 21.390625 47.125 36.375 
Q 47.125 51.421875 43.28125 58.90625 
Q 39.453125 66.40625 31.78125 66.40625 
z
M 31.78125 74.21875 
Q 44.046875 74.21875 50.515625 64.515625 
Q 56.984375 54.828125 56.984375 36.375 
Q 56.984375 17.96875 50.515625 8.265625 
Q 44.046875 -1.421875 31.78125 -1.421875 
Q 19.53125 -1.421875 13.0625 8.265625 
Q 6.59375 17.96875 6.59375 36.375 
Q 6.59375 54.828125 13.0625 64.515625 
Q 19.53125 74.21875 31.78125 74.21875 
z
" id="DejaVuSans-48"/>
      </defs>
      <g transform="translate(70.651477 322.182437)scale(0.1 -0.1)">
       <use xlink:href="#DejaVuSans-48"/>
      </g>
     </g>
    </g>
    <g id="xtick_2">
     <g id="line2d_2">
      <g>
       <use style="stroke:#000000;stroke-width:0.8;" x="148.862666" xlink:href="#m102a045a7c" y="307.584"/>
      </g>
     </g>
     <g id="text_2">
      <!-- 1000 -->
      <defs>
       <path d="M 12.40625 8.296875 
L 28.515625 8.296875 
L 28.515625 63.921875 
L 10.984375 60.40625 
L 10.984375 69.390625 
L 28.421875 72.90625 
L 38.28125 72.90625 
L 38.28125 8.296875 
L 54.390625 8.296875 
L 54.390625 0 
L 12.40625 0 
z
" id="DejaVuSans-49"/>
      </defs>
      <g transform="translate(136.137666 322.182437)scale(0.1 -0.1)">
       <use xlink:href="#DejaVuSans-49"/>
       <use x="63.623047" xlink:href="#DejaVuSans-48"/>
       <use x="127.246094" xlink:href="#DejaVuSans-48"/>
       <use x="190.869141" xlink:href="#DejaVuSans-48"/>
      </g>
     </g>
    </g>
    <g id="xtick_3">
     <g id="line2d_3">
      <g>
       <use style="stroke:#000000;stroke-width:0.8;" x="223.892605" xlink:href="#m102a045a7c" y="307.584"/>
      </g>
     </g>
     <g id="text_3">
      <!-- 2000 -->
      <defs>
       <path d="M 19.1875 8.296875 
L 53.609375 8.296875 
L 53.609375 0 
L 7.328125 0 
L 7.328125 8.296875 
Q 12.9375 14.109375 22.625 23.890625 
Q 32.328125 33.6875 34.8125 36.53125 
Q 39.546875 41.84375 41.421875 45.53125 
Q 43.3125 49.21875 43.3125 52.78125 
Q 43.3125 58.59375 39.234375 62.25 
Q 35.15625 65.921875 28.609375 65.921875 
Q 23.96875 65.921875 18.8125 64.3125 
Q 13.671875 62.703125 7.8125 59.421875 
L 7.8125 69.390625 
Q 13.765625 71.78125 18.9375 73 
Q 24.125 74.21875 28.421875 74.21875 
Q 39.75 74.21875 46.484375 68.546875 
Q 53.21875 62.890625 53.21875 53.421875 
Q 53.21875 48.921875 51.53125 44.890625 
Q 49.859375 40.875 45.40625 35.40625 
Q 44.1875 33.984375 37.640625 27.21875 
Q 31.109375 20.453125 19.1875 8.296875 
z
" id="DejaVuSans-50"/>
      </defs>
      <g transform="translate(211.167605 322.182437)scale(0.1 -0.1)">
       <use xlink:href="#DejaVuSans-50"/>
       <use x="63.623047" xlink:href="#DejaVuSans-48"/>
       <use x="127.246094" xlink:href="#DejaVuSans-48"/>
       <use x="190.869141" xlink:href="#DejaVuSans-48"/>
      </g>
     </g>
    </g>
    <g id="xtick_4">
     <g id="line2d_4">
      <g>
       <use style="stroke:#000000;stroke-width:0.8;" x="298.922544" xlink:href="#m102a045a7c" y="307.584"/>
      </g>
     </g>
     <g id="text_4">
      <!-- 3000 -->
      <defs>
       <path d="M 40.578125 39.3125 
Q 47.65625 37.796875 51.625 33 
Q 55.609375 28.21875 55.609375 21.1875 
Q 55.609375 10.40625 48.1875 4.484375 
Q 40.765625 -1.421875 27.09375 -1.421875 
Q 22.515625 -1.421875 17.65625 -0.515625 
Q 12.796875 0.390625 7.625 2.203125 
L 7.625 11.71875 
Q 11.71875 9.328125 16.59375 8.109375 
Q 21.484375 6.890625 26.8125 6.890625 
Q 36.078125 6.890625 40.9375 10.546875 
Q 45.796875 14.203125 45.796875 21.1875 
Q 45.796875 27.640625 41.28125 31.265625 
Q 36.765625 34.90625 28.71875 34.90625 
L 20.21875 34.90625 
L 20.21875 43.015625 
L 29.109375 43.015625 
Q 36.375 43.015625 40.234375 45.921875 
Q 44.09375 48.828125 44.09375 54.296875 
Q 44.09375 59.90625 40.109375 62.90625 
Q 36.140625 65.921875 28.71875 65.921875 
Q 24.65625 65.921875 20.015625 65.03125 
Q 15.375 64.15625 9.8125 62.3125 
L 9.8125 71.09375 
Q 15.4375 72.65625 20.34375 73.4375 
Q 25.25 74.21875 29.59375 74.21875 
Q 40.828125 74.21875 47.359375 69.109375 
Q 53.90625 64.015625 53.90625 55.328125 
Q 53.90625 49.265625 50.4375 45.09375 
Q 46.96875 40.921875 40.578125 39.3125 
z
" id="DejaVuSans-51"/>
      </defs>
      <g transform="translate(286.197544 322.182437)scale(0.1 -0.1)">
       <use xlink:href="#DejaVuSans-51"/>
       <use x="63.623047" xlink:href="#DejaVuSans-48"/>
       <use x="127.246094" xlink:href="#DejaVuSans-48"/>
       <use x="190.869141" xlink:href="#DejaVuSans-48"/>
      </g>
     </g>
    </g>
    <g id="xtick_5">
     <g id="line2d_5">
      <g>
       <use style="stroke:#000000;stroke-width:0.8;" x="373.952483" xlink:href="#m102a045a7c" y="307.584"/>
      </g>
     </g>
     <g id="text_5">
      <!-- 4000 -->
      <defs>
       <path d="M 37.796875 64.3125 
L 12.890625 25.390625 
L 37.796875 25.390625 
z
M 35.203125 72.90625 
L 47.609375 72.90625 
L 47.609375 25.390625 
L 58.015625 25.390625 
L 58.015625 17.1875 
L 47.609375 17.1875 
L 47.609375 0 
L 37.796875 0 
L 37.796875 17.1875 
L 4.890625 17.1875 
L 4.890625 26.703125 
z
" id="DejaVuSans-52"/>
      </defs>
      <g transform="translate(361.227483 322.182437)scale(0.1 -0.1)">
       <use xlink:href="#DejaVuSans-52"/>
       <use x="63.623047" xlink:href="#DejaVuSans-48"/>
       <use x="127.246094" xlink:href="#DejaVuSans-48"/>
       <use x="190.869141" xlink:href="#DejaVuSans-48"/>
      </g>
     </g>
    </g>
    <g id="text_6">
     <!-- Days -->
     <defs>
      <path d="M 19.671875 64.796875 
L 19.671875 8.109375 
L 31.59375 8.109375 
Q 46.6875 8.109375 53.6875 14.9375 
Q 60.6875 21.78125 60.6875 36.53125 
Q 60.6875 51.171875 53.6875 57.984375 
Q 46.6875 64.796875 31.59375 64.796875 
z
M 9.8125 72.90625 
L 30.078125 72.90625 
Q 51.265625 72.90625 61.171875 64.09375 
Q 71.09375 55.28125 71.09375 36.53125 
Q 71.09375 17.671875 61.125 8.828125 
Q 51.171875 0 30.078125 0 
L 9.8125 0 
z
" id="DejaVuSans-68"/>
      <path d="M 34.28125 27.484375 
Q 23.390625 27.484375 19.1875 25 
Q 14.984375 22.515625 14.984375 16.5 
Q 14.984375 11.71875 18.140625 8.90625 
Q 21.296875 6.109375 26.703125 6.109375 
Q 34.1875 6.109375 38.703125 11.40625 
Q 43.21875 16.703125 43.21875 25.484375 
L 43.21875 27.484375 
z
M 52.203125 31.203125 
L 52.203125 0 
L 43.21875 0 
L 43.21875 8.296875 
Q 40.140625 3.328125 35.546875 0.953125 
Q 30.953125 -1.421875 24.3125 -1.421875 
Q 15.921875 -1.421875 10.953125 3.296875 
Q 6 8.015625 6 15.921875 
Q 6 25.140625 12.171875 29.828125 
Q 18.359375 34.515625 30.609375 34.515625 
L 43.21875 34.515625 
L 43.21875 35.40625 
Q 43.21875 41.609375 39.140625 45 
Q 35.0625 48.390625 27.6875 48.390625 
Q 23 48.390625 18.546875 47.265625 
Q 14.109375 46.140625 10.015625 43.890625 
L 10.015625 52.203125 
Q 14.9375 54.109375 19.578125 55.046875 
Q 24.21875 56 28.609375 56 
Q 40.484375 56 46.34375 49.84375 
Q 52.203125 43.703125 52.203125 31.203125 
z
" id="DejaVuSans-97"/>
      <path d="M 32.171875 -5.078125 
Q 28.375 -14.84375 24.75 -17.8125 
Q 21.140625 -20.796875 15.09375 -20.796875 
L 7.90625 -20.796875 
L 7.90625 -13.28125 
L 13.1875 -13.28125 
Q 16.890625 -13.28125 18.9375 -11.515625 
Q 21 -9.765625 23.484375 -3.21875 
L 25.09375 0.875 
L 2.984375 54.6875 
L 12.5 54.6875 
L 29.59375 11.921875 
L 46.6875 54.6875 
L 56.203125 54.6875 
z
" id="DejaVuSans-121"/>
      <path d="M 44.28125 53.078125 
L 44.28125 44.578125 
Q 40.484375 46.53125 36.375 47.5 
Q 32.28125 48.484375 27.875 48.484375 
Q 21.1875 48.484375 17.84375 46.4375 
Q 14.5 44.390625 14.5 40.28125 
Q 14.5 37.15625 16.890625 35.375 
Q 19.28125 33.59375 26.515625 31.984375 
L 29.59375 31.296875 
Q 39.15625 29.25 43.1875 25.515625 
Q 47.21875 21.78125 47.21875 15.09375 
Q 47.21875 7.46875 41.1875 3.015625 
Q 35.15625 -1.421875 24.609375 -1.421875 
Q 20.21875 -1.421875 15.453125 -0.5625 
Q 10.6875 0.296875 5.421875 2 
L 5.421875 11.28125 
Q 10.40625 8.6875 15.234375 7.390625 
Q 20.0625 6.109375 24.8125 6.109375 
Q 31.15625 6.109375 34.5625 8.28125 
Q 37.984375 10.453125 37.984375 14.40625 
Q 37.984375 18.0625 35.515625 20.015625 
Q 33.0625 21.96875 24.703125 23.78125 
L 21.578125 24.515625 
Q 13.234375 26.265625 9.515625 29.90625 
Q 5.8125 33.546875 5.8125 39.890625 
Q 5.8125 47.609375 11.28125 51.796875 
Q 16.75 56 26.8125 56 
Q 31.78125 56 36.171875 55.265625 
Q 40.578125 54.546875 44.28125 53.078125 
z
" id="DejaVuSans-115"/>
     </defs>
     <g transform="translate(223.681875 335.860562)scale(0.1 -0.1)">
      <use xlink:href="#DejaVuSans-68"/>
      <use x="77.001953" xlink:href="#DejaVuSans-97"/>
      <use x="138.28125" xlink:href="#DejaVuSans-121"/>
      <use x="197.460938" xlink:href="#DejaVuSans-115"/>
     </g>
    </g>
   </g>
   <g id="matplotlib.axis_2">
    <g id="ytick_1">
     <g id="line2d_6">
      <defs>
       <path d="M 0 0 
L -3.5 0 
" id="mca6eee3526" style="stroke:#000000;stroke-width:0.8;"/>
      </defs>
      <g>
       <use style="stroke:#000000;stroke-width:0.8;" x="57.6" xlink:href="#mca6eee3526" y="296.508401"/>
      </g>
     </g>
     <g id="text_7">
      <!-- 0 -->
      <g transform="translate(44.2375 300.307619)scale(0.1 -0.1)">
       <use xlink:href="#DejaVuSans-48"/>
      </g>
     </g>
    </g>
    <g id="ytick_2">
     <g id="line2d_7">
      <g>
       <use style="stroke:#000000;stroke-width:0.8;" x="57.6" xlink:href="#mca6eee3526" y="239.819473"/>
      </g>
     </g>
     <g id="text_8">
      <!-- 200000 -->
      <g transform="translate(12.425 243.618692)scale(0.1 -0.1)">
       <use xlink:href="#DejaVuSans-50"/>
       <use x="63.623047" xlink:href="#DejaVuSans-48"/>
       <use x="127.246094" xlink:href="#DejaVuSans-48"/>
       <use x="190.869141" xlink:href="#DejaVuSans-48"/>
       <use x="254.492188" xlink:href="#DejaVuSans-48"/>
       <use x="318.115234" xlink:href="#DejaVuSans-48"/>
      </g>
     </g>
    </g>
    <g id="ytick_3">
     <g id="line2d_8">
      <g>
       <use style="stroke:#000000;stroke-width:0.8;" x="57.6" xlink:href="#mca6eee3526" y="183.130545"/>
      </g>
     </g>
     <g id="text_9">
      <!-- 400000 -->
      <g transform="translate(12.425 186.929764)scale(0.1 -0.1)">
       <use xlink:href="#DejaVuSans-52"/>
       <use x="63.623047" xlink:href="#DejaVuSans-48"/>
       <use x="127.246094" xlink:href="#DejaVuSans-48"/>
       <use x="190.869141" xlink:href="#DejaVuSans-48"/>
       <use x="254.492188" xlink:href="#DejaVuSans-48"/>
       <use x="318.115234" xlink:href="#DejaVuSans-48"/>
      </g>
     </g>
    </g>
    <g id="ytick_4">
     <g id="line2d_9">
      <g>
       <use style="stroke:#000000;stroke-width:0.8;" x="57.6" xlink:href="#mca6eee3526" y="126.441617"/>
      </g>
     </g>
     <g id="text_10">
      <!-- 600000 -->
      <defs>
       <path d="M 33.015625 40.375 
Q 26.375 40.375 22.484375 35.828125 
Q 18.609375 31.296875 18.609375 23.390625 
Q 18.609375 15.53125 22.484375 10.953125 
Q 26.375 6.390625 33.015625 6.390625 
Q 39.65625 6.390625 43.53125 10.953125 
Q 47.40625 15.53125 47.40625 23.390625 
Q 47.40625 31.296875 43.53125 35.828125 
Q 39.65625 40.375 33.015625 40.375 
z
M 52.59375 71.296875 
L 52.59375 62.3125 
Q 48.875 64.0625 45.09375 64.984375 
Q 41.3125 65.921875 37.59375 65.921875 
Q 27.828125 65.921875 22.671875 59.328125 
Q 17.53125 52.734375 16.796875 39.40625 
Q 19.671875 43.65625 24.015625 45.921875 
Q 28.375 48.1875 33.59375 48.1875 
Q 44.578125 48.1875 50.953125 41.515625 
Q 57.328125 34.859375 57.328125 23.390625 
Q 57.328125 12.15625 50.6875 5.359375 
Q 44.046875 -1.421875 33.015625 -1.421875 
Q 20.359375 -1.421875 13.671875 8.265625 
Q 6.984375 17.96875 6.984375 36.375 
Q 6.984375 53.65625 15.1875 63.9375 
Q 23.390625 74.21875 37.203125 74.21875 
Q 40.921875 74.21875 44.703125 73.484375 
Q 48.484375 72.75 52.59375 71.296875 
z
" id="DejaVuSans-54"/>
      </defs>
      <g transform="translate(12.425 130.240836)scale(0.1 -0.1)">
       <use xlink:href="#DejaVuSans-54"/>
       <use x="63.623047" xlink:href="#DejaVuSans-48"/>
       <use x="127.246094" xlink:href="#DejaVuSans-48"/>
       <use x="190.869141" xlink:href="#DejaVuSans-48"/>
       <use x="254.492188" xlink:href="#DejaVuSans-48"/>
       <use x="318.115234" xlink:href="#DejaVuSans-48"/>
      </g>
     </g>
    </g>
    <g id="ytick_5">
     <g id="line2d_10">
      <g>
       <use style="stroke:#000000;stroke-width:0.8;" x="57.6" xlink:href="#mca6eee3526" y="69.752689"/>
      </g>
     </g>
     <g id="text_11">
      <!-- 800000 -->
      <defs>
       <path d="M 31.78125 34.625 
Q 24.75 34.625 20.71875 30.859375 
Q 16.703125 27.09375 16.703125 20.515625 
Q 16.703125 13.921875 20.71875 10.15625 
Q 24.75 6.390625 31.78125 6.390625 
Q 38.8125 6.390625 42.859375 10.171875 
Q 46.921875 13.96875 46.921875 20.515625 
Q 46.921875 27.09375 42.890625 30.859375 
Q 38.875 34.625 31.78125 34.625 
z
M 21.921875 38.8125 
Q 15.578125 40.375 12.03125 44.71875 
Q 8.5 49.078125 8.5 55.328125 
Q 8.5 64.0625 14.71875 69.140625 
Q 20.953125 74.21875 31.78125 74.21875 
Q 42.671875 74.21875 48.875 69.140625 
Q 55.078125 64.0625 55.078125 55.328125 
Q 55.078125 49.078125 51.53125 44.71875 
Q 48 40.375 41.703125 38.8125 
Q 48.828125 37.15625 52.796875 32.3125 
Q 56.78125 27.484375 56.78125 20.515625 
Q 56.78125 9.90625 50.3125 4.234375 
Q 43.84375 -1.421875 31.78125 -1.421875 
Q 19.734375 -1.421875 13.25 4.234375 
Q 6.78125 9.90625 6.78125 20.515625 
Q 6.78125 27.484375 10.78125 32.3125 
Q 14.796875 37.15625 21.921875 38.8125 
z
M 18.3125 54.390625 
Q 18.3125 48.734375 21.84375 45.5625 
Q 25.390625 42.390625 31.78125 42.390625 
Q 38.140625 42.390625 41.71875 45.5625 
Q 45.3125 48.734375 45.3125 54.390625 
Q 45.3125 60.0625 41.71875 63.234375 
Q 38.140625 66.40625 31.78125 66.40625 
Q 25.390625 66.40625 21.84375 63.234375 
Q 18.3125 60.0625 18.3125 54.390625 
z
" id="DejaVuSans-56"/>
      </defs>
      <g transform="translate(12.425 73.551908)scale(0.1 -0.1)">
       <use xlink:href="#DejaVuSans-56"/>
       <use x="63.623047" xlink:href="#DejaVuSans-48"/>
       <use x="127.246094" xlink:href="#DejaVuSans-48"/>
       <use x="190.869141" xlink:href="#DejaVuSans-48"/>
       <use x="254.492188" xlink:href="#DejaVuSans-48"/>
       <use x="318.115234" xlink:href="#DejaVuSans-48"/>
      </g>
     </g>
    </g>
    <g id="text_12">
     <!-- Volume -->
     <defs>
      <path d="M 28.609375 0 
L 0.78125 72.90625 
L 11.078125 72.90625 
L 34.1875 11.53125 
L 57.328125 72.90625 
L 67.578125 72.90625 
L 39.796875 0 
z
" id="DejaVuSans-86"/>
      <path d="M 30.609375 48.390625 
Q 23.390625 48.390625 19.1875 42.75 
Q 14.984375 37.109375 14.984375 27.296875 
Q 14.984375 17.484375 19.15625 11.84375 
Q 23.34375 6.203125 30.609375 6.203125 
Q 37.796875 6.203125 41.984375 11.859375 
Q 46.1875 17.53125 46.1875 27.296875 
Q 46.1875 37.015625 41.984375 42.703125 
Q 37.796875 48.390625 30.609375 48.390625 
z
M 30.609375 56 
Q 42.328125 56 49.015625 48.375 
Q 55.71875 40.765625 55.71875 27.296875 
Q 55.71875 13.875 49.015625 6.21875 
Q 42.328125 -1.421875 30.609375 -1.421875 
Q 18.84375 -1.421875 12.171875 6.21875 
Q 5.515625 13.875 5.515625 27.296875 
Q 5.515625 40.765625 12.171875 48.375 
Q 18.84375 56 30.609375 56 
z
" id="DejaVuSans-111"/>
      <path d="M 9.421875 75.984375 
L 18.40625 75.984375 
L 18.40625 0 
L 9.421875 0 
z
" id="DejaVuSans-108"/>
      <path d="M 8.5 21.578125 
L 8.5 54.6875 
L 17.484375 54.6875 
L 17.484375 21.921875 
Q 17.484375 14.15625 20.5 10.265625 
Q 23.53125 6.390625 29.59375 6.390625 
Q 36.859375 6.390625 41.078125 11.03125 
Q 45.3125 15.671875 45.3125 23.6875 
L 45.3125 54.6875 
L 54.296875 54.6875 
L 54.296875 0 
L 45.3125 0 
L 45.3125 8.40625 
Q 42.046875 3.421875 37.71875 1 
Q 33.40625 -1.421875 27.6875 -1.421875 
Q 18.265625 -1.421875 13.375 4.4375 
Q 8.5 10.296875 8.5 21.578125 
z
M 31.109375 56 
z
" id="DejaVuSans-117"/>
      <path d="M 52 44.1875 
Q 55.375 50.25 60.0625 53.125 
Q 64.75 56 71.09375 56 
Q 79.640625 56 84.28125 50.015625 
Q 88.921875 44.046875 88.921875 33.015625 
L 88.921875 0 
L 79.890625 0 
L 79.890625 32.71875 
Q 79.890625 40.578125 77.09375 44.375 
Q 74.3125 48.1875 68.609375 48.1875 
Q 61.625 48.1875 57.5625 43.546875 
Q 53.515625 38.921875 53.515625 30.90625 
L 53.515625 0 
L 44.484375 0 
L 44.484375 32.71875 
Q 44.484375 40.625 41.703125 44.40625 
Q 38.921875 48.1875 33.109375 48.1875 
Q 26.21875 48.1875 22.15625 43.53125 
Q 18.109375 38.875 18.109375 30.90625 
L 18.109375 0 
L 9.078125 0 
L 9.078125 54.6875 
L 18.109375 54.6875 
L 18.109375 46.1875 
Q 21.1875 51.21875 25.484375 53.609375 
Q 29.78125 56 35.6875 56 
Q 41.65625 56 45.828125 52.96875 
Q 50 49.953125 52 44.1875 
z
" id="DejaVuSans-109"/>
      <path d="M 56.203125 29.59375 
L 56.203125 25.203125 
L 14.890625 25.203125 
Q 15.484375 15.921875 20.484375 11.0625 
Q 25.484375 6.203125 34.421875 6.203125 
Q 39.59375 6.203125 44.453125 7.46875 
Q 49.3125 8.734375 54.109375 11.28125 
L 54.109375 2.78125 
Q 49.265625 0.734375 44.1875 -0.34375 
Q 39.109375 -1.421875 33.890625 -1.421875 
Q 20.796875 -1.421875 13.15625 6.1875 
Q 5.515625 13.8125 5.515625 26.8125 
Q 5.515625 40.234375 12.765625 48.109375 
Q 20.015625 56 32.328125 56 
Q 43.359375 56 49.78125 48.890625 
Q 56.203125 41.796875 56.203125 29.59375 
z
M 47.21875 32.234375 
Q 47.125 39.59375 43.09375 43.984375 
Q 39.0625 48.390625 32.421875 48.390625 
Q 24.90625 48.390625 20.390625 44.140625 
Q 15.875 39.890625 15.1875 32.171875 
z
" id="DejaVuSans-101"/>
     </defs>
     <g transform="translate(6.345312 193.506906)rotate(-90)scale(0.1 -0.1)">
      <use xlink:href="#DejaVuSans-86"/>
      <use x="68.298828" xlink:href="#DejaVuSans-111"/>
      <use x="129.480469" xlink:href="#DejaVuSans-108"/>
      <use x="157.263672" xlink:href="#DejaVuSans-117"/>
      <use x="220.642578" xlink:href="#DejaVuSans-109"/>
      <use x="318.054688" xlink:href="#DejaVuSans-101"/>
     </g>
    </g>
   </g>
   <g id="line2d_11">
    <path clip-path="url(#pf15a0bf689)" d="M 73.832727 294.014088 
L 73.982787 294.580977 
L 74.057817 294.127466 
L 74.282907 295.034489 
L 74.357937 294.9778 
L 74.432967 295.147866 
L 74.507997 294.694355 
L 74.583027 294.807733 
L 74.733087 294.580977 
L 74.883146 295.147866 
L 74.958176 294.864422 
L 75.033206 294.921111 
L 75.108236 292.710243 
L 75.183266 292.766931 
L 75.258296 293.503888 
L 75.333326 292.710243 
L 75.483386 294.184155 
L 75.558416 293.957399 
L 75.708476 292.256731 
L 75.858536 287.55155 
L 75.933566 288.175128 
L 76.008595 286.134327 
L 76.083625 287.381483 
L 76.158655 285.45406 
L 76.458775 293.333821 
L 76.608835 290.952886 
L 76.683865 293.107065 
L 76.758895 289.762418 
L 76.833925 291.23633 
L 76.908955 291.179641 
L 76.983985 292.143353 
L 77.059015 290.102552 
L 77.134045 291.349708 
L 77.209075 290.045863 
L 77.434164 293.277132 
L 77.509194 293.957399 
L 77.584224 293.787332 
L 77.659254 291.349708 
L 77.734284 292.200042 
L 77.809314 292.483487 
L 78.034404 291.916598 
L 78.184464 293.333821 
L 78.259494 292.483487 
L 78.559613 294.580977 
L 78.634643 292.766931 
L 78.709673 294.184155 
L 78.784703 293.787332 
L 78.934763 294.467599 
L 79.084823 293.673954 
L 79.159853 294.637666 
L 79.234883 294.41091 
L 79.309913 294.694355 
L 79.384943 294.580977 
L 79.459973 293.844021 
L 79.610033 294.864422 
L 79.685063 294.637666 
L 79.835122 294.637666 
L 79.985182 294.807733 
L 80.060212 294.637666 
L 80.135242 294.9778 
L 80.210272 292.710243 
L 80.360332 294.751044 
L 80.435362 294.467599 
L 80.510392 294.524288 
L 80.585422 292.880309 
L 80.660452 293.277132 
L 80.960571 294.694355 
L 81.035601 292.426798 
L 81.185661 294.9778 
L 81.260691 294.637666 
L 81.335721 294.921111 
L 81.485781 294.41091 
L 81.635841 294.921111 
L 81.710871 294.9778 
L 81.785901 294.467599 
L 81.935961 295.374622 
L 82.010991 295.147866 
L 82.086021 294.524288 
L 82.16105 294.637666 
L 82.31111 295.204555 
L 82.46117 294.864422 
L 82.5362 295.034489 
L 82.61123 294.921111 
L 82.76129 295.261244 
L 82.91135 294.864422 
L 83.06141 293.957399 
L 83.21147 294.467599 
L 83.2865 294.240844 
L 83.36153 294.807733 
L 83.436559 294.751044 
L 83.586619 295.261244 
L 83.661649 294.524288 
L 83.736679 294.637666 
L 84.036799 295.147866 
L 84.186859 294.807733 
L 84.336919 295.204555 
L 84.411949 295.147866 
L 84.486979 294.807733 
L 84.562009 295.261244 
L 84.637038 294.921111 
L 84.712068 292.936998 
L 84.862128 294.694355 
L 84.937158 294.580977 
L 85.087218 295.034489 
L 85.162248 294.9778 
L 85.237278 294.524288 
L 85.312308 292.256731 
L 85.462368 294.014088 
L 85.537398 294.240844 
L 85.687458 292.766931 
L 85.762488 294.014088 
L 85.837517 293.673954 
L 85.912547 293.503888 
L 85.987577 289.762418 
L 86.062607 292.370109 
L 86.137637 291.80322 
L 86.212667 292.426798 
L 86.287697 294.127466 
L 86.362727 293.957399 
L 86.437757 293.787332 
L 86.662847 294.864422 
L 86.737877 292.31342 
L 86.812907 293.617265 
L 86.887937 290.72613 
L 86.962967 290.839508 
L 87.037997 291.293019 
L 87.113026 289.365596 
L 87.338116 293.107065 
L 87.488176 291.009575 
L 87.563206 290.442685 
L 87.863326 293.39051 
L 87.938356 290.839508 
L 88.013386 291.293019 
L 88.163446 293.39051 
L 88.313505 291.746531 
L 88.388535 292.540176 
L 88.538595 289.025462 
L 88.913745 292.540176 
L 89.063805 292.370109 
L 89.138835 291.80322 
L 89.288895 287.268105 
L 89.438955 288.458573 
L 89.513984 287.438172 
L 89.589014 289.989174 
L 89.664044 289.13884 
L 89.814104 291.179641 
L 89.889134 290.669441 
L 89.964164 291.293019 
L 90.114224 286.701216 
L 90.189254 288.968773 
L 90.339314 287.268105 
L 90.414344 287.268105 
L 90.489374 289.082151 
L 90.564404 288.742018 
L 90.639434 288.968773 
L 90.714464 288.798707 
L 90.789493 290.102552 
L 90.864523 289.989174 
L 90.939553 288.06175 
L 91.014583 288.231817 
L 91.164643 289.875796 
L 91.239673 288.401884 
L 91.314703 288.855395 
L 91.539793 290.896197 
L 91.614823 290.839508 
L 91.689853 290.669441 
L 91.989972 292.086664 
L 92.140032 291.80322 
L 92.215062 291.23633 
L 92.290092 291.973286 
L 92.365122 289.365596 
L 92.440152 290.21593 
L 92.515182 291.122953 
L 92.590212 290.556063 
L 92.740272 291.519775 
L 92.815302 291.293019 
L 92.890332 291.463086 
L 92.965362 291.916598 
L 93.040392 291.859909 
L 93.115422 291.859909 
L 93.190451 292.596865 
L 93.490571 289.762418 
L 93.565601 289.989174 
L 93.715661 290.159241 
L 93.790691 289.592351 
L 93.865721 291.293019 
L 93.940751 291.066264 
L 94.015781 290.952886 
L 94.090811 292.200042 
L 94.165841 291.519775 
L 94.315901 292.880309 
L 94.390931 292.200042 
L 94.61602 293.617265 
L 94.69105 292.880309 
L 94.76608 292.936998 
L 94.84111 292.710243 
L 94.91614 292.993687 
L 95.0662 294.297533 
L 95.14123 293.39051 
L 95.21626 294.014088 
L 95.29129 293.844021 
L 95.36632 294.127466 
L 95.51638 292.993687 
L 95.741469 294.41091 
L 95.816499 293.90071 
L 95.891529 294.41091 
L 95.966559 293.050376 
L 96.116619 295.488 
L 96.266679 292.653554 
L 96.491769 293.90071 
L 96.641829 293.277132 
L 96.716859 293.617265 
L 96.791889 293.560576 
L 96.866919 293.560576 
L 96.941948 293.673954 
L 97.016978 293.447199 
L 97.242068 294.354221 
L 97.317098 293.503888 
L 97.392128 294.184155 
L 97.467158 293.90071 
L 97.542188 293.844021 
L 97.617218 294.240844 
L 97.692248 293.617265 
L 97.767278 294.184155 
L 97.842308 292.596865 
L 97.992368 294.184155 
L 98.067398 293.107065 
L 98.217457 294.524288 
L 98.292487 294.467599 
L 98.367517 294.127466 
L 98.442547 294.524288 
L 98.592607 292.993687 
L 98.667637 290.272619 
L 98.817697 293.050376 
L 98.892727 293.844021 
L 98.967757 292.880309 
L 99.117817 294.240844 
L 99.192847 293.957399 
L 99.342906 293.39051 
L 99.492966 294.524288 
L 99.567996 294.354221 
L 99.643026 291.661497 
L 99.793086 293.957399 
L 99.943146 294.580977 
L 100.168236 294.184155 
L 100.318296 294.524288 
L 100.543386 294.240844 
L 100.618415 294.751044 
L 100.693445 293.844021 
L 100.843505 294.864422 
L 100.918535 294.580977 
L 100.993565 294.807733 
L 101.068595 293.192098 
L 101.143625 294.751044 
L 101.218655 294.070777 
L 101.443745 294.921111 
L 101.518775 294.184155 
L 101.593805 294.240844 
L 101.668835 294.751044 
L 101.743865 294.580977 
L 101.818894 292.936998 
L 101.893924 288.175128 
L 101.968954 289.989174 
L 102.119014 284.660415 
L 102.344104 290.159241 
L 102.419134 284.943859 
L 102.569194 292.483487 
L 102.719254 292.82362 
L 102.794284 292.596865 
L 102.869314 289.932485 
L 103.019373 292.483487 
L 103.094403 291.633153 
L 103.244463 293.617265 
L 103.544583 291.406397 
L 103.694643 291.689842 
L 103.769673 290.612752 
L 103.844703 290.952886 
L 103.919733 291.406397 
L 104.069793 293.39051 
L 104.219853 292.540176 
L 104.444942 294.467599 
L 104.595002 288.742018 
L 104.745062 292.483487 
L 104.820092 292.483487 
L 104.970152 293.220443 
L 105.120212 291.80322 
L 105.195242 291.859909 
L 105.270272 291.859909 
L 105.495361 293.673954 
L 105.570391 293.90071 
L 105.645421 293.787332 
L 105.795481 292.653554 
L 106.020571 294.070777 
L 106.095601 292.200042 
L 106.320691 294.240844 
L 106.395721 293.277132 
L 106.545781 294.354221 
L 106.620811 294.240844 
L 106.69584 294.524288 
L 106.77087 292.710243 
L 106.92093 294.467599 
L 106.99596 294.467599 
L 107.22105 294.014088 
L 107.37111 294.184155 
L 107.44614 294.070777 
L 107.52117 294.240844 
L 107.5962 293.957399 
L 107.67123 294.467599 
L 107.74626 294.297533 
L 107.82129 294.580977 
L 108.046379 293.673954 
L 108.121409 293.617265 
L 108.196439 293.844021 
L 108.271469 293.560576 
L 108.421529 291.406397 
L 108.571589 293.787332 
L 108.646619 293.844021 
L 108.721649 294.184155 
L 108.871709 293.844021 
L 109.021769 290.72613 
L 109.321888 293.503888 
L 109.396918 292.936998 
L 109.546978 289.64904 
L 109.622008 290.782819 
L 109.697038 289.705729 
L 109.847098 292.540176 
L 109.922128 291.23633 
L 110.072188 293.39051 
L 110.147218 293.447199 
L 110.297278 290.669441 
L 110.447337 292.256731 
L 110.522367 291.23633 
L 110.747457 292.880309 
L 110.822487 292.993687 
L 110.897517 293.673954 
L 110.972547 292.370109 
L 111.047577 292.710243 
L 111.272667 293.957399 
L 111.347697 293.90071 
L 111.422727 293.277132 
L 111.497757 293.560576 
L 111.572787 290.952886 
L 111.722846 293.220443 
L 111.872906 289.64904 
L 112.097996 292.82362 
L 112.173026 290.952886 
L 112.398116 293.220443 
L 112.473146 293.39051 
L 112.548176 293.333821 
L 112.698236 292.653554 
L 112.773266 292.653554 
L 112.848295 292.540176 
L 112.923325 292.653554 
L 112.998355 291.576464 
L 113.148415 293.447199 
L 113.223445 292.766931 
L 113.298475 293.39051 
L 113.448535 292.710243 
L 113.523565 293.617265 
L 113.598595 293.220443 
L 113.823685 293.787332 
L 113.898715 293.787332 
L 113.973745 293.39051 
L 114.123804 293.844021 
L 114.198834 293.617265 
L 114.273864 294.070777 
L 114.348894 293.90071 
L 114.498954 293.277132 
L 114.573984 293.673954 
L 114.649014 293.39051 
L 114.724044 292.029975 
L 114.874104 285.000548 
L 115.099194 291.293019 
L 115.249254 292.426798 
L 115.399313 290.442685 
L 115.624403 293.277132 
L 115.699433 293.333821 
L 115.774463 290.329308 
L 115.924523 292.710243 
L 115.999553 292.596865 
L 116.074583 292.653554 
L 116.374703 294.070777 
L 116.524762 293.277132 
L 116.599792 291.293019 
L 116.749852 292.936998 
L 116.824882 292.880309 
L 116.974942 293.730643 
L 117.125002 293.333821 
L 117.200032 289.308907 
L 117.275062 292.483487 
L 117.350092 289.252218 
L 117.425122 289.762418 
L 117.500152 289.535663 
L 117.650212 292.31342 
L 117.725242 291.122953 
L 117.800271 287.608239 
L 117.875301 291.009575 
L 118.025361 287.948373 
L 118.100391 288.798707 
L 118.325481 285.057237 
L 118.400511 287.891684 
L 118.475541 287.098039 
L 118.550571 287.324794 
L 118.625601 282.562924 
L 118.850691 290.329308 
L 119.15081 289.592351 
L 119.22584 291.23633 
L 119.30087 290.385996 
L 119.3759 286.927972 
L 119.45093 288.288506 
L 119.52596 288.912084 
L 119.60099 286.984661 
L 119.90111 291.689842 
L 120.05117 287.381483 
L 120.201229 290.159241 
L 120.276259 289.535663 
L 120.351289 287.324794 
L 120.426319 287.494861 
L 120.501349 288.401884 
L 120.651409 292.370109 
L 120.726439 291.406397 
L 120.801469 292.31342 
L 120.876499 291.23633 
L 121.026559 293.163754 
L 121.101589 292.710243 
L 121.176619 291.293019 
L 121.251649 291.689842 
L 121.401709 292.200042 
L 121.551768 291.122953 
L 121.626798 291.576464 
L 121.701828 291.406397 
L 121.851888 291.689842 
L 121.926918 291.066264 
L 122.227038 292.540176 
L 122.302068 291.179641 
L 122.377098 291.746531 
L 122.527158 293.107065 
L 122.677217 291.746531 
L 122.752247 291.916598 
L 122.902307 293.90071 
L 123.052367 292.936998 
L 123.127397 293.107065 
L 123.202427 290.159241 
L 123.352487 292.370109 
L 123.427517 292.936998 
L 123.502547 291.633153 
L 123.577577 292.086664 
L 123.802667 293.447199 
L 123.877696 293.957399 
L 124.027756 293.333821 
L 124.252846 293.560576 
L 124.327876 292.710243 
L 124.402906 293.107065 
L 124.477936 293.277132 
L 124.627996 291.746531 
L 124.778056 293.050376 
L 124.853086 293.163754 
L 124.928116 293.050376 
L 125.003146 293.333821 
L 125.153205 291.23633 
L 125.303265 292.370109 
L 125.378295 290.329308 
L 125.453325 290.839508 
L 125.603385 290.839508 
L 125.753445 288.175128 
L 125.828475 286.757905 
L 125.978535 288.912084 
L 126.053565 287.834995 
L 126.128595 288.855395 
L 126.203625 288.62864 
L 126.353684 290.896197 
L 126.503744 286.984661 
L 126.578774 287.098039 
L 126.803864 288.968773 
L 127.329074 288.968773 
L 127.404104 288.231817 
L 127.479134 285.624127 
L 127.704223 289.025462 
L 127.779253 289.082151 
L 127.854283 290.102552 
L 128.004343 287.324794 
L 128.154403 290.385996 
L 128.304463 288.401884 
L 128.379493 290.045863 
L 128.454523 289.819107 
L 128.529553 288.912084 
L 128.679613 289.819107 
L 128.754643 288.458573 
L 129.129792 292.143353 
L 129.279852 292.596865 
L 129.354882 292.31342 
L 129.504942 291.293019 
L 129.579972 291.179641 
L 129.655002 290.782819 
L 129.730032 289.592351 
L 129.805062 290.159241 
L 129.880092 289.308907 
L 129.955122 289.592351 
L 130.030151 290.669441 
L 130.180211 286.814594 
L 130.255241 289.13884 
L 130.330271 288.968773 
L 130.555361 285.794193 
L 130.630391 284.660415 
L 130.705421 285.000548 
L 130.780451 284.773793 
L 130.855481 284.093525 
L 130.930511 285.96426 
L 131.005541 284.830482 
L 131.080571 285.794193 
L 131.155601 284.547037 
L 131.230631 286.077638 
L 131.53075 281.769279 
L 131.60578 284.263592 
L 131.68081 282.78968 
L 131.75584 285.850882 
L 131.9059 283.86677 
L 132.20602 283.86677 
L 132.506139 275.760253 
L 132.581169 277.120787 
L 132.731229 271.508583 
L 132.881289 279.331656 
L 133.031349 274.626475 
L 133.181409 280.295367 
L 133.256439 284.88717 
L 133.331469 284.093525 
L 133.706618 274.34303 
L 133.856678 279.955234 
L 133.931708 278.084499 
L 134.156798 287.608239 
L 134.231828 287.324794 
L 134.306858 287.324794 
L 134.381888 288.458573 
L 134.531948 286.417772 
L 134.606978 286.417772 
L 134.682008 285.227304 
L 134.757038 287.324794 
L 134.832068 286.587838 
L 134.907098 285.340682 
L 135.057157 287.098039 
L 135.132187 281.825968 
L 135.207217 282.392858 
L 135.282247 282.732991 
L 135.432307 279.274967 
L 135.657397 285.45406 
L 135.732427 285.170615 
L 135.882487 277.404232 
L 136.032547 287.381483 
L 136.107577 287.608239 
L 136.182606 286.587838 
L 136.257636 288.401884 
L 136.332666 288.005062 
L 136.482726 286.814594 
L 136.557756 287.664928 
L 136.632786 286.247705 
L 136.707816 287.098039 
L 136.782846 286.984661 
L 136.857876 287.324794 
L 137.007936 290.612752 
L 137.082966 289.195529 
L 137.157996 289.705729 
L 137.233026 289.875796 
L 137.308056 290.385996 
L 137.383085 289.025462 
L 137.458115 289.875796 
L 137.533145 289.252218 
L 137.608175 290.782819 
L 137.683205 288.401884 
L 137.758235 289.875796 
L 137.833265 289.705729 
L 137.908295 289.875796 
L 138.058355 288.798707 
L 138.133385 289.422285 
L 138.208415 288.62864 
L 138.358475 282.903058 
L 138.433505 287.608239 
L 138.508535 286.531149 
L 138.583565 286.304394 
L 138.658594 287.154728 
L 138.733624 285.000548 
L 138.958714 288.968773 
L 139.183804 284.320281 
L 139.258834 286.927972 
L 139.333864 283.186503 
L 139.408894 283.810081 
L 139.483924 284.206903 
L 139.558954 285.510749 
L 139.633984 285.283993 
L 139.709014 283.810081 
L 139.934103 288.231817 
L 140.159193 284.830482 
L 140.459313 284.830482 
L 140.609373 280.862257 
L 140.684403 282.562924 
L 140.759433 281.429146 
L 140.834463 284.433659 
L 140.909493 283.243192 
L 141.059552 286.077638 
L 141.284642 283.923459 
L 141.359672 285.170615 
L 141.509732 282.676302 
L 141.584762 275.590186 
L 141.659792 283.640014 
L 141.734822 283.29988 
L 141.809852 282.959747 
L 141.884882 281.825968 
L 142.034942 282.449547 
L 142.109972 280.975634 
L 142.185002 285.794193 
L 142.260032 284.036837 
L 142.335061 278.708077 
L 142.485121 284.263592 
L 142.560151 283.29988 
L 142.635181 278.367944 
L 142.710211 282.506236 
L 142.785241 279.728478 
L 142.860271 281.259079 
L 142.935301 278.141188 
L 143.010331 279.274967 
L 143.085361 279.161589 
L 143.235421 280.918946 
L 143.310451 280.635501 
L 143.53554 271.792028 
L 143.61057 271.508583 
L 143.6856 266.91678 
L 143.76063 268.390692 
L 143.91069 278.764766 
L 143.98572 276.610587 
L 144.06075 280.238678 
L 144.13578 279.955234 
L 144.21081 279.331656 
L 144.36087 271.848717 
L 144.4359 274.34303 
L 144.51093 272.925807 
L 144.58596 276.553898 
L 144.66099 275.533497 
L 144.811049 276.043698 
L 145.036139 271.905406 
L 145.186199 271.905406 
L 145.261229 262.438355 
L 145.336259 266.40658 
L 145.411289 266.236513 
L 145.636379 262.041533 
L 145.786439 270.488183 
L 145.936499 260.397554 
L 146.011528 264.649223 
L 146.236618 256.032506 
L 146.461708 265.442868 
L 146.686798 264.139023 
L 146.911888 276.894032 
L 147.061948 269.637849 
L 147.287037 274.116274 
L 147.362067 274.116274 
L 147.662187 263.061933 
L 147.962307 263.061933 
L 148.037337 264.762601 
L 148.112367 250.760436 
L 148.337457 269.864605 
L 148.412487 266.179824 
L 148.487516 274.683163 
L 148.562546 271.565272 
L 148.637576 271.281828 
L 148.712606 266.123135 
L 148.787636 267.710425 
L 148.937696 264.252401 
L 149.012726 267.653736 
L 149.087756 261.758088 
L 149.237816 270.204738 
L 149.312846 268.390692 
L 149.387876 260.794376 
L 149.462906 262.891866 
L 149.612966 261.191199 
L 149.687995 249.116457 
L 149.763025 254.105083 
L 149.838055 271.16845 
L 149.913085 268.900893 
L 150.138175 264.025645 
L 150.213205 262.608422 
L 150.363265 254.615283 
L 150.438295 254.671972 
L 150.513325 258.129996 
L 150.588355 253.821638 
L 150.663385 259.377153 
L 150.738415 250.987192 
L 150.813445 253.878327 
L 150.888474 247.529167 
L 150.963504 257.166285 
L 151.113564 247.075656 
L 151.263624 263.288689 
L 151.338654 259.037019 
L 151.488714 254.955417 
L 151.788834 254.955417 
L 151.863864 250.987192 
L 151.938894 237.438538 
L 152.163983 256.996218 
L 152.239013 252.12097 
L 152.314043 259.150397 
L 152.389073 257.052907 
L 152.464103 259.433842 
L 152.614163 247.302411 
L 152.689193 250.760436 
L 152.764223 245.204921 
L 152.839253 252.801237 
L 152.914283 245.885188 
L 152.989313 247.755923 
L 153.064343 243.901076 
L 153.214403 250.873814 
L 153.289433 263.968956 
L 153.364462 251.950903 
L 153.439492 255.182172 
L 153.664582 258.583508 
L 153.814642 249.173146 
L 153.964702 265.726313 
L 154.039732 259.944042 
L 154.114762 261.191199 
L 154.189792 258.186685 
L 154.264822 264.479156 
L 154.339852 262.608422 
L 154.489912 269.921293 
L 154.639971 268.787515 
L 154.940091 280.522123 
L 155.015121 278.538011 
L 155.165181 272.869118 
L 155.240211 274.796541 
L 155.315241 281.939346 
L 155.390271 280.862257 
L 155.465301 283.469947 
L 155.540331 283.016436 
L 155.615361 282.676302 
L 155.690391 278.708077 
L 155.765421 282.676302 
L 155.91548 262.041533 
L 155.99051 265.046046 
L 156.06554 269.864605 
L 156.14057 268.390692 
L 156.2156 268.107248 
L 156.44069 260.737687 
L 156.51572 268.674137 
L 156.59075 263.855578 
L 156.66578 264.81929 
L 156.81584 262.778489 
L 156.89087 268.844204 
L 156.9659 267.653736 
L 157.040929 264.139023 
L 157.115959 271.395206 
L 157.190989 270.828316 
L 157.266019 270.828316 
L 157.341049 270.65825 
L 157.566139 265.839691 
L 157.641169 268.334004 
L 157.791229 263.572134 
L 157.941289 267.937181 
L 158.016319 267.823803 
L 158.091349 267.143536 
L 158.166379 260.851065 
L 158.241408 262.381666 
L 158.316438 269.241026 
L 158.391468 266.179824 
L 158.466498 262.551733 
L 158.541528 267.48367 
L 158.616558 265.32949 
L 158.766618 271.962095 
L 158.916678 266.576647 
L 158.991708 267.426981 
L 159.141768 271.962095 
L 159.216798 270.204738 
L 159.291828 273.322629 
L 159.366858 269.127649 
L 159.516917 279.841856 
L 159.666977 273.662763 
L 159.967097 273.662763 
L 160.042127 269.297715 
L 160.117157 272.925807 
L 160.342247 262.7218 
L 160.567337 276.270453 
L 160.642367 276.723965 
L 160.792426 281.089012 
L 161.017516 276.157076 
L 161.167576 282.27948 
L 161.242606 281.145701 
L 161.317636 276.383831 
L 161.392666 278.141188 
L 161.467696 279.6151 
L 161.542726 278.311255 
L 161.692786 284.37697 
L 161.917875 281.599213 
L 161.992905 282.562924 
L 162.067935 282.052724 
L 162.142965 282.959747 
L 162.217995 285.907571 
L 162.293025 284.88717 
L 162.368055 282.619613 
L 162.593145 287.778306 
L 162.668175 286.077638 
L 162.743205 287.778306 
L 162.818235 287.211417 
L 162.893265 282.336169 
L 162.968295 284.206903 
L 163.043325 281.259079 
L 163.118355 284.37697 
L 163.193384 281.089012 
L 163.268414 284.263592 
L 163.343444 282.336169 
L 163.418474 277.007409 
L 163.493504 277.574299 
L 163.568534 276.043698 
L 163.643564 277.460921 
L 163.718594 281.485835 
L 163.793624 278.481322 
L 163.868654 285.000548 
L 164.168774 272.415606 
L 164.243804 276.383831 
L 164.318834 275.42012 
L 164.393863 271.735339 
L 164.543923 274.626475 
L 164.618953 274.626475 
L 164.693983 274.796541 
L 164.769013 268.560759 
L 164.844043 273.606074 
L 164.994103 267.48367 
L 165.069133 274.739852 
L 165.144163 269.127649 
L 165.219193 271.621961 
L 165.294223 274.172963 
L 165.369253 273.606074 
L 165.519313 268.447381 
L 165.594343 277.064098 
L 165.669372 275.079986 
L 165.744402 270.318116 
L 165.819432 271.565272 
L 165.894462 270.998383 
L 166.269612 283.696703 
L 166.419672 278.538011 
L 166.569732 281.599213 
L 166.869851 281.599213 
L 167.019911 286.587838 
L 167.470091 277.347543 
L 167.695181 282.166102 
L 167.845241 282.959747 
L 167.995301 271.848717 
L 168.07033 275.476808 
L 168.14536 272.415606 
L 168.22039 280.408745 
L 168.29542 277.914432 
L 168.37045 281.939346 
L 168.44548 280.295367 
L 168.52051 278.481322 
L 168.59554 284.773793 
L 168.67057 282.562924 
L 168.89566 275.760253 
L 169.19578 283.413258 
L 169.345839 278.594699 
L 169.420869 283.129814 
L 169.495899 280.975634 
L 169.570929 277.971121 
L 169.720989 282.109413 
L 169.871049 277.971121 
L 169.946079 279.558411 
L 170.096139 284.263592 
L 170.171169 282.222791 
L 170.321229 285.170615 
L 170.546318 279.501722 
L 170.621348 282.676302 
L 170.696378 277.744366 
L 170.771408 256.259262 
L 170.846438 259.773975 
L 170.996498 277.460921 
L 171.146558 266.009757 
L 171.221588 266.009757 
L 171.521708 275.193364 
L 171.596738 271.621961 
L 171.671768 273.889518 
L 171.746797 270.771627 
L 171.821827 271.395206 
L 171.896857 272.699051 
L 172.046917 282.78968 
L 172.196977 275.646875 
L 172.422067 281.542524 
L 172.497097 284.490348 
L 172.572127 281.655902 
L 172.647157 281.939346 
L 172.722187 282.78968 
L 172.797217 282.562924 
L 172.872247 280.465434 
L 173.172366 286.644527 
L 173.247396 282.052724 
L 173.322426 283.186503 
L 173.397456 282.449547 
L 173.547516 285.057237 
L 173.622546 284.263592 
L 173.697576 277.687677 
L 173.772606 280.408745 
L 173.847636 275.476808 
L 173.922666 285.000548 
L 173.997696 282.78968 
L 174.147756 277.914432 
L 174.222785 279.331656 
L 174.297815 285.567438 
L 174.372845 285.000548 
L 174.447875 285.113926 
L 174.522905 277.177476 
L 174.597935 280.295367 
L 174.823025 269.014271 
L 174.898055 270.714938 
L 175.048115 281.089012 
L 175.123145 276.383831 
L 175.273205 282.109413 
L 175.423264 277.687677 
L 175.498294 279.048211 
L 175.573324 279.1049 
L 175.648354 275.93032 
L 175.798414 278.821455 
L 175.873444 279.898545 
L 176.023504 283.86677 
L 176.098534 282.562924 
L 176.173564 285.96426 
L 176.248594 284.490348 
L 176.398654 285.340682 
L 176.473684 282.732991 
L 176.548714 283.129814 
L 176.623744 286.134327 
L 176.698773 284.88717 
L 176.848833 287.664928 
L 176.923863 281.315768 
L 176.998893 285.567438 
L 177.073923 275.590186 
L 177.148953 279.1049 
L 177.299013 286.927972 
L 177.449073 284.88717 
L 177.524103 286.644527 
L 177.599133 283.356569 
L 177.749193 286.814594 
L 177.824223 284.547037 
L 177.899252 286.814594 
L 177.974282 285.567438 
L 178.049312 285.850882 
L 178.124342 287.778306 
L 178.199372 285.45406 
L 178.274402 286.191016 
L 178.424462 287.891684 
L 178.649552 277.687677 
L 178.724582 279.955234 
L 178.799612 256.826151 
L 178.949672 278.197877 
L 179.024702 267.823803 
L 179.174761 274.34303 
L 179.474881 274.34303 
L 179.699971 282.109413 
L 179.775001 283.753392 
L 180.000091 277.234165 
L 180.075121 284.943859 
L 180.150151 282.166102 
L 180.225181 285.567438 
L 180.37524 281.20239 
L 180.45027 282.78968 
L 180.5253 282.959747 
L 180.60033 283.413258 
L 180.75039 279.558411 
L 181.05051 286.361083 
L 181.12554 285.397371 
L 181.20057 279.388344 
L 181.2756 283.583325 
L 181.35063 283.243192 
L 181.42566 270.65825 
L 181.50069 270.771627 
L 181.575719 277.857743 
L 181.725779 259.54722 
L 181.800809 257.733174 
L 181.875839 252.12097 
L 181.950869 260.000731 
L 182.025899 259.433842 
L 182.100929 260.454243 
L 182.250989 276.780654 
L 182.326019 278.02781 
L 182.401049 261.814777 
L 182.476079 274.456408 
L 182.551109 273.322629 
L 182.776198 246.622144 
L 182.851228 262.948555 
L 182.926258 249.740035 
L 183.001288 255.29555 
L 183.376438 274.286341 
L 183.451468 268.957582 
L 183.526498 270.374805 
L 183.601528 267.540359 
L 183.676558 271.905406 
L 183.751588 268.447381 
L 183.976678 281.429146 
L 184.126737 280.522123 
L 184.276797 282.222791 
L 184.351827 282.222791 
L 184.501887 268.447381 
L 184.576917 270.318116 
L 184.726977 276.327142 
L 184.802007 272.812429 
L 184.877037 275.590186 
L 185.102127 258.810264 
L 185.252186 275.363431 
L 185.327216 271.792028 
L 185.402246 271.508583 
L 185.552306 272.132162 
L 185.852426 272.132162 
L 185.927456 272.472295 
L 186.152546 249.626657 
L 186.227576 250.930503 
L 186.302606 241.973652 
L 186.377636 247.585856 
L 186.452666 237.155093 
L 186.527695 247.189033 
L 186.677755 236.588204 
L 186.752785 240.329673 
L 186.977875 259.944042 
L 187.127935 244.411276 
L 187.428055 271.735339 
L 187.503085 268.787515 
L 187.653145 244.808098 
L 187.878234 272.699051 
L 187.953264 267.086847 
L 188.178354 275.703564 
L 188.328414 254.842039 
L 188.403444 255.182172 
L 188.628534 250.363613 
L 188.703564 255.465617 
L 188.853624 243.617631 
L 188.928653 256.88284 
L 189.003683 256.089195 
L 189.153743 243.107431 
L 189.378833 261.304576 
L 189.453863 254.898728 
L 189.528893 264.422467 
L 189.678953 242.257097 
L 189.753983 249.683346 
L 189.904043 243.731009 
L 190.054103 254.558594 
L 190.204162 241.520141 
L 190.354222 264.252401 
L 190.429252 264.479156 
L 190.504282 269.637849 
L 190.654342 259.320464 
L 190.729372 259.320464 
L 190.879432 251.61077 
L 190.954462 250.930503 
L 191.029492 244.978165 
L 191.104522 250.590369 
L 191.179552 245.998566 
L 191.254582 261.64471 
L 191.329612 255.182172 
L 191.479671 265.102735 
L 191.554701 262.778489 
L 191.629731 254.728661 
L 191.704761 257.336351 
L 191.779791 257.109596 
L 191.854821 268.390692 
L 191.929851 264.762601 
L 192.004881 264.025645 
L 192.154941 267.256914 
L 192.229971 267.256914 
L 192.380031 252.177659 
L 192.455061 252.404415 
L 192.530091 248.096056 
L 192.75518 258.923641 
L 192.83021 255.352239 
L 193.13033 267.200225 
L 193.20536 265.102735 
L 193.35542 253.141371 
L 193.58051 256.656084 
L 193.73057 265.442868 
L 193.8056 260.05742 
L 193.880629 260.851065 
L 194.180749 244.581343 
L 194.255779 245.828499 
L 194.330809 252.461104 
L 194.405839 249.116457 
L 194.555899 252.12097 
L 194.630929 250.703747 
L 194.705959 240.953251 
L 194.780989 242.313786 
L 194.856019 249.853413 
L 194.931049 240.159606 
L 195.006079 240.49974 
L 195.156138 249.343213 
L 195.456258 218.334369 
L 195.606318 241.57683 
L 195.756378 236.588204 
L 195.831408 239.082517 
L 196.131528 267.086847 
L 196.206558 258.413441 
L 196.281587 263.345378 
L 196.356617 260.851065 
L 196.431647 261.077821 
L 196.506677 266.40658 
L 196.581707 264.082334 
L 196.656737 265.32949 
L 196.881827 255.352239 
L 196.956857 259.54722 
L 197.031887 257.733174 
L 197.332007 272.699051 
L 197.407037 259.717286 
L 197.482067 260.000731 
L 197.557096 259.320464 
L 197.632126 260.227487 
L 197.707156 259.433842 
L 197.782186 266.519958 
L 198.007276 255.578995 
L 198.082306 254.728661 
L 198.232366 248.889701 
L 198.457456 266.009757 
L 198.532486 267.426981 
L 198.682546 276.157076 
L 198.757575 275.646875 
L 198.907635 278.141188 
L 199.282785 278.141188 
L 199.432845 271.508583 
L 199.507875 273.83283 
L 199.582905 259.773975 
L 199.732965 270.374805 
L 199.883025 255.80575 
L 199.958054 258.129996 
L 200.033084 267.313603 
L 200.108114 257.222974 
L 200.333204 267.880492 
L 200.408234 265.272801 
L 200.483264 266.803402 
L 200.633324 253.821638 
L 200.783384 255.29555 
L 200.858414 250.193547 
L 200.933444 257.052907 
L 201.008474 256.145884 
L 201.083504 260.56762 
L 201.233563 253.651571 
L 201.308593 239.706095 
L 201.458653 251.554081 
L 201.608713 246.622144 
L 201.683743 248.43619 
L 201.758773 225.590552 
L 201.983863 254.331838 
L 202.058893 257.166285 
L 202.208953 246.905589 
L 202.283983 251.384014 
L 202.359013 235.284359 
L 202.509072 257.676485 
L 202.734162 270.544872 
L 202.809192 263.005244 
L 202.884222 267.767114 
L 202.959252 267.086847 
L 203.034282 266.576647 
L 203.109312 267.653736 
L 203.184342 275.363431 
L 203.259372 272.415606 
L 203.334402 273.83283 
L 203.409432 267.48367 
L 203.484462 272.528984 
L 203.559492 270.65825 
L 203.709551 259.830664 
L 203.784581 263.458756 
L 203.859611 263.458756 
L 203.934641 265.499557 
L 204.009671 260.737687 
L 204.084701 261.474643 
L 204.159731 260.05742 
L 204.234761 268.617448 
L 204.459851 251.61077 
L 204.609911 262.324977 
L 204.835001 251.667459 
L 204.91003 264.082334 
L 204.98506 257.449729 
L 205.06009 274.286341 
L 205.13512 269.977982 
L 205.28518 275.703564 
L 205.43524 271.508583 
L 205.51027 273.152562 
L 205.5853 267.880492 
L 205.66033 268.163937 
L 205.73536 268.957582 
L 205.88542 278.878144 
L 205.96045 280.748879 
L 206.03548 280.465434 
L 206.185539 280.635501 
L 206.485659 280.635501 
L 206.785779 262.608422 
L 206.860809 267.823803 
L 206.935839 265.046046 
L 207.010869 266.633336 
L 207.160929 260.680998 
L 207.310989 273.549385 
L 207.386018 270.318116 
L 207.761168 279.6151 
L 207.911228 270.601561 
L 207.986258 271.451895 
L 208.061288 269.184337 
L 208.136318 270.204738 
L 208.211348 271.225139 
L 208.286378 270.941694 
L 208.361408 270.148049 
L 208.436438 259.150397 
L 208.586497 267.823803 
L 208.661527 260.56762 
L 208.736557 261.701399 
L 208.811587 261.701399 
L 208.961647 267.143536 
L 209.036677 264.025645 
L 209.111707 266.633336 
L 209.261767 255.692373 
L 209.486857 273.549385 
L 209.561887 259.830664 
L 209.636917 267.653736 
L 209.786976 261.984844 
L 209.937036 271.225139 
L 210.012066 265.839691 
L 210.087096 272.75574 
L 210.162126 271.16845 
L 210.312186 271.338517 
L 210.387216 277.801054 
L 210.462246 269.467782 
L 210.537276 270.261427 
L 210.612306 270.431494 
L 210.687336 273.322629 
L 210.762366 271.621961 
L 210.987456 275.703564 
L 211.137515 273.039185 
L 211.287575 277.687677 
L 211.437635 264.649223 
L 211.512665 270.09136 
L 211.587695 277.007409 
L 211.662725 271.621961 
L 211.737755 271.848717 
L 211.962845 278.141188 
L 212.037875 276.780654 
L 212.112905 280.465434 
L 212.337994 269.297715 
L 212.488054 277.630988 
L 212.563084 277.630988 
L 212.638114 280.918946 
L 212.788174 274.229652 
L 213.013264 282.676302 
L 213.088294 282.336169 
L 213.163324 284.263592 
L 213.238354 275.590186 
L 213.388414 282.336169 
L 213.463443 277.120787 
L 213.538473 282.903058 
L 213.613503 279.1049 
L 213.688533 280.578812 
L 213.763563 281.089012 
L 213.838593 272.188851 
L 213.913623 272.982496 
L 213.988653 277.687677 
L 214.063683 275.816942 
L 214.138713 266.576647 
L 214.213743 276.44052 
L 214.363803 262.891866 
L 214.438833 264.139023 
L 214.513863 266.463269 
L 214.588893 264.082334 
L 214.738952 271.962095 
L 214.889012 257.052907 
L 214.964042 269.637849 
L 215.039072 264.479156 
L 215.114102 260.227487 
L 215.189132 264.705912 
L 215.264162 264.30909 
L 215.489252 260.510931 
L 215.564282 271.848717 
L 215.639312 270.261427 
L 215.714342 271.338517 
L 215.789372 260.851065 
L 215.864402 261.758088 
L 215.939431 257.903241 
L 216.089491 263.572134 
L 216.164521 271.508583 
L 216.314581 265.442868 
L 216.464641 276.553898 
L 216.614701 265.102735 
L 216.689731 260.454243 
L 216.764761 261.361265 
L 216.839791 259.830664 
L 216.914821 255.635684 
L 216.989851 264.705912 
L 217.064881 264.30909 
L 217.13991 258.810264 
L 217.21494 264.479156 
L 217.28997 263.061933 
L 217.44003 261.928155 
L 217.51506 262.778489 
L 217.74015 280.011923 
L 217.96524 280.011923 
L 218.1153 270.09136 
L 218.19033 271.395206 
L 218.34039 271.111761 
L 218.640509 271.111761 
L 218.790569 237.665293 
L 218.865599 249.059768 
L 218.940629 244.014453 
L 219.165719 221.849083 
L 219.240749 248.152745 
L 219.315779 237.608605 
L 219.465839 254.842039 
L 219.615898 240.159606 
L 219.765958 255.80575 
L 219.840988 254.78535 
L 219.991048 232.733357 
L 220.141108 246.395388 
L 220.216138 236.418137 
L 220.291168 238.288872 
L 220.441228 244.071142 
L 220.591288 230.4658 
L 220.666318 253.084682 
L 220.741348 248.039367 
L 220.891407 267.540359 
L 221.041467 260.454243 
L 221.191527 263.572134 
L 221.266557 259.207086 
L 221.416617 267.48367 
L 221.491647 256.996218 
L 221.566677 273.492696 
L 221.641707 266.973469 
L 221.716737 272.812429 
L 221.791767 271.055072 
L 221.941827 271.905406 
L 222.016857 269.694538 
L 222.091886 273.719452 
L 222.166916 260.000731 
L 222.241946 262.211599 
L 222.467036 275.646875 
L 222.542066 266.236513 
L 222.617096 268.617448 
L 222.767156 273.492696 
L 222.842186 268.787515 
L 222.992246 278.367944 
L 223.067276 275.760253 
L 223.292365 265.32949 
L 223.367395 266.91678 
L 223.442425 272.472295 
L 223.517455 264.422467 
L 223.667515 273.662763 
L 223.742545 274.059585 
L 223.817575 275.306742 
L 223.892605 274.739852 
L 223.967635 270.261427 
L 224.042665 279.388344 
L 224.267755 269.411093 
L 224.417815 276.837343 
L 224.492845 279.274967 
L 224.567874 266.576647 
L 224.642904 272.302228 
L 224.717934 270.544872 
L 224.867994 275.703564 
L 225.168114 275.703564 
L 225.393204 265.953069 
L 225.468234 252.801237 
L 225.543264 253.311438 
L 225.768353 264.252401 
L 225.843383 262.835178 
L 225.918413 253.141371 
L 226.068473 265.386179 
L 226.143503 268.163937 
L 226.443623 253.878327 
L 226.518653 263.005244 
L 226.593683 251.100569 
L 226.743743 261.13451 
L 226.818773 261.417954 
L 226.893803 263.628822 
L 226.968832 263.345378 
L 227.043862 252.574482 
L 227.268952 267.99387 
L 227.419012 269.524471 
L 227.794162 248.719634 
L 228.019252 268.220626 
L 228.169312 268.220626 
L 228.244341 256.37264 
L 228.319371 261.13451 
L 228.394401 264.082334 
L 228.469431 254.78535 
L 228.544461 255.125483 
L 228.619491 260.170798 
L 228.694521 259.830664 
L 228.769551 260.05742 
L 228.919611 256.315951 
L 228.994641 262.551733 
L 229.069671 262.041533 
L 229.219731 263.232 
L 229.294761 269.524471 
L 229.369791 266.633336 
L 229.44482 266.690025 
L 229.59488 271.67865 
L 229.74494 264.932668 
L 229.895 270.714938 
L 230.04506 273.492696 
L 230.19512 268.107248 
L 230.34518 272.528984 
L 230.42021 269.637849 
L 230.49524 274.739852 
L 230.57027 274.683163 
L 230.645299 276.44052 
L 230.720329 268.560759 
L 230.870389 275.42012 
L 231.020449 273.095873 
L 231.095479 278.02781 
L 231.170509 277.234165 
L 231.245539 277.064098 
L 231.320569 272.132162 
L 231.470629 277.234165 
L 231.545659 278.084499 
L 231.695719 272.869118 
L 231.845779 278.651388 
L 231.920808 272.982496 
L 231.995838 275.306742 
L 232.370988 279.955234 
L 232.446018 275.590186 
L 232.521048 260.851065 
L 232.596078 267.710425 
L 232.746138 271.508583 
L 232.896198 270.431494 
L 232.971228 261.928155 
L 233.046258 265.272801 
L 233.121287 267.256914 
L 233.196317 263.458756 
L 233.346377 272.132162 
L 233.571467 266.860091 
L 233.721527 265.839691 
L 233.946617 273.322629 
L 234.021647 276.610587 
L 234.096677 264.989357 
L 234.171707 275.873631 
L 234.246737 273.719452 
L 234.396796 275.136675 
L 234.471826 279.785167 
L 234.546856 276.667276 
L 234.696916 279.841856 
L 234.846976 265.216112 
L 234.922006 267.086847 
L 235.297156 272.358917 
L 235.372186 276.610587 
L 235.447216 276.383831 
L 235.522246 276.497209 
L 235.672305 279.218278 
L 235.747335 277.971121 
L 235.822365 266.860091 
L 235.972425 275.646875 
L 236.047455 274.966608 
L 236.197515 280.295367 
L 236.422605 282.562924 
L 236.497635 279.6151 
L 236.572665 280.862257 
L 236.722725 281.996035 
L 236.797754 282.336169 
L 236.947814 280.635501 
L 237.022844 282.903058 
L 237.097874 282.676302 
L 237.172904 283.413258 
L 237.247934 271.962095 
L 237.322964 275.363431 
L 237.548054 280.862257 
L 237.623084 280.69219 
L 237.698114 279.728478 
L 237.848174 282.676302 
L 238.148293 282.676302 
L 238.223323 284.660415 
L 238.373383 270.544872 
L 238.448413 271.621961 
L 238.598473 280.011923 
L 238.673503 273.946207 
L 238.748533 279.898545 
L 238.823563 277.971121 
L 238.898593 282.78968 
L 239.123683 266.066446 
L 239.198713 273.152562 
L 239.273742 265.32949 
L 239.348772 272.642362 
L 239.423802 271.338517 
L 239.573862 257.789863 
L 239.798952 274.229652 
L 239.873982 274.34303 
L 239.949012 271.792028 
L 240.024042 277.744366 
L 240.249132 270.034671 
L 240.474221 282.27948 
L 240.549251 281.939346 
L 240.624281 282.166102 
L 240.699311 281.712591 
L 240.774341 283.640014 
L 240.849371 283.469947 
L 240.999431 274.796541 
L 241.074461 268.560759 
L 241.224521 281.712591 
L 241.374581 284.717104 
L 241.449611 281.939346 
L 241.599671 285.283993 
L 241.674701 279.898545 
L 241.74973 284.036837 
L 241.89979 280.295367 
L 241.97482 280.125301 
L 242.12488 282.109413 
L 242.19991 279.785167 
L 242.34997 284.150214 
L 242.425 283.526636 
L 242.50003 282.449547 
L 242.57506 283.810081 
L 242.72512 281.769279 
L 242.80015 281.769279 
L 242.87518 282.562924 
L 242.950209 279.841856 
L 243.025239 282.166102 
L 243.175299 265.442868 
L 243.325359 276.213764 
L 243.400389 276.270453 
L 243.475419 283.526636 
L 243.625479 270.998383 
L 243.775539 276.667276 
L 244.150688 276.667276 
L 244.300748 282.676302 
L 244.450808 278.538011 
L 244.525838 274.116274 
L 244.600868 275.023297 
L 244.675898 277.404232 
L 244.825958 268.730826 
L 244.900988 269.127649 
L 245.051048 275.760253 
L 245.126078 268.50407 
L 245.201108 269.58116 
L 245.276138 276.100387 
L 245.351168 271.281828 
L 245.426197 274.002896 
L 245.501227 262.891866 
L 245.576257 264.592534 
L 245.726317 251.724148 
L 245.951407 275.250053 
L 246.101467 264.592534 
L 246.251527 269.637849 
L 246.326557 269.07096 
L 246.476617 266.40658 
L 246.551647 266.860091 
L 246.626676 245.545054 
L 246.776736 267.143536 
L 246.851766 267.540359 
L 247.001826 269.411093 
L 247.226916 280.805568 
L 247.301946 279.274967 
L 247.376976 272.812429 
L 247.452006 275.476808 
L 247.602066 278.934833 
L 247.752126 278.934833 
L 247.827155 273.776141 
L 247.902185 276.043698 
L 247.977215 279.558411 
L 248.127275 275.193364 
L 248.277335 268.50407 
L 248.427395 272.528984 
L 248.502425 265.726313 
L 248.577455 269.807916 
L 248.802545 258.583508 
L 248.877575 259.377153 
L 249.177694 270.65825 
L 249.252724 260.227487 
L 249.402784 267.540359 
L 249.477814 265.669624 
L 249.627874 268.730826 
L 249.777934 275.306742 
L 249.852964 270.828316 
L 250.003024 274.739852 
L 250.153084 271.111761 
L 250.228114 275.306742 
L 250.303143 274.739852 
L 250.378173 272.642362 
L 250.528233 275.533497 
L 250.678293 263.288689 
L 250.828353 274.456408 
L 250.903383 274.683163 
L 250.978413 270.941694 
L 251.128473 279.898545 
L 251.203503 279.445033 
L 251.278533 277.234165 
L 251.428593 279.501722 
L 251.503622 274.286341 
L 251.578652 276.213764 
L 251.653682 277.064098 
L 251.878772 281.145701 
L 252.028832 279.785167 
L 252.103862 279.558411 
L 252.253922 282.052724 
L 252.554042 278.708077 
L 252.629072 280.862257 
L 252.704102 280.068612 
L 252.779131 274.796541 
L 252.854161 275.193364 
L 253.004221 279.898545 
L 253.079251 273.209251 
L 253.154281 280.181989 
L 253.229311 277.404232 
L 253.304341 280.862257 
L 253.454401 274.002896 
L 253.679491 281.089012 
L 253.754521 282.732991 
L 253.829551 281.542524 
L 253.904581 281.769279 
L 253.97961 281.769279 
L 254.12967 281.259079 
L 254.27973 281.372457 
L 254.42979 275.250053 
L 254.65488 277.120787 
L 254.72991 276.270453 
L 254.80494 277.347543 
L 255.03003 283.923459 
L 255.10506 283.243192 
L 255.18009 279.274967 
L 255.255119 279.955234 
L 255.330149 279.955234 
L 255.480209 279.388344 
L 255.630269 281.712591 
L 255.705299 278.934833 
L 255.780329 283.413258 
L 255.855359 279.331656 
L 255.930389 280.238678 
L 256.005419 280.181989 
L 256.080449 280.635501 
L 256.155479 256.826151 
L 256.230509 267.143536 
L 256.305539 273.719452 
L 256.380569 272.642362 
L 256.455598 274.116274 
L 256.530628 270.65825 
L 256.755718 281.712591 
L 256.830748 277.404232 
L 256.905778 279.445033 
L 256.980808 280.181989 
L 257.055838 282.846369 
L 257.130868 282.222791 
L 257.280928 274.002896 
L 257.656077 274.002896 
L 257.731107 280.862257 
L 257.806137 272.528984 
L 257.881167 274.116274 
L 258.031227 277.177476 
L 258.106257 281.20239 
L 258.181287 280.125301 
L 258.256317 279.558411 
L 258.331347 271.792028 
L 258.481407 279.445033 
L 258.706497 272.302228 
L 258.781527 274.229652 
L 258.856557 281.315768 
L 258.931586 279.331656 
L 259.006616 279.6151 
L 259.081646 273.039185 
L 259.156676 274.796541 
L 259.381766 279.671789 
L 259.456796 277.630988 
L 259.531826 281.145701 
L 259.606856 280.465434 
L 259.681886 279.218278 
L 259.756916 282.903058 
L 259.831946 282.166102 
L 259.906976 282.449547 
L 260.057036 284.433659 
L 260.132065 281.429146 
L 260.207095 283.583325 
L 260.282125 281.882657 
L 260.357155 283.810081 
L 260.432185 280.465434 
L 260.582245 282.449547 
L 260.807335 278.821455 
L 260.882365 262.495044 
L 260.957395 273.436007 
L 261.107455 263.798889 
L 261.332544 276.043698 
L 261.407574 250.930503 
L 261.482604 255.635684 
L 261.632664 269.751227 
L 261.707694 268.334004 
L 261.782724 267.200225 
L 261.857754 274.286341 
L 261.932784 255.862439 
L 262.007814 261.984844 
L 262.082844 259.944042 
L 262.157874 263.628822 
L 262.307934 260.227487 
L 262.457994 260.227487 
L 262.533024 256.996218 
L 262.608053 263.005244 
L 262.683083 261.64471 
L 262.833143 262.495044 
L 262.908173 261.077821 
L 263.058233 249.569968 
L 263.133263 252.971304 
L 263.208293 262.7218 
L 263.283323 260.964443 
L 263.433383 254.161772 
L 263.508413 263.005244 
L 263.583443 250.873814 
L 263.658473 270.261427 
L 263.883562 254.048394 
L 263.958592 256.88284 
L 264.033622 256.599395 
L 264.108652 249.003079 
L 264.408772 265.612935 
L 264.783922 265.612935 
L 264.933982 261.531332 
L 265.009011 265.272801 
L 265.084041 255.692373 
L 265.234101 271.451895 
L 265.309131 263.175311 
L 265.384161 268.787515 
L 265.609251 250.647058 
L 265.684281 259.320464 
L 265.759311 256.429329 
L 265.834341 256.88284 
L 265.984401 272.642362 
L 266.059431 263.175311 
L 266.209491 273.776141 
L 266.28452 263.515445 
L 266.43458 271.67865 
L 266.50961 259.320464 
L 266.58464 262.7218 
L 266.7347 269.014271 
L 266.80973 266.91678 
L 266.88476 269.184337 
L 266.95979 260.340865 
L 267.10985 274.569786 
L 267.18488 271.055072 
L 267.33494 273.322629 
L 267.40997 273.322629 
L 267.484999 272.075473 
L 267.710089 275.646875 
L 267.785119 277.574299 
L 267.935179 273.83283 
L 268.010209 277.120787 
L 268.085239 276.213764 
L 268.160269 265.442868 
L 268.235299 269.524471 
L 268.310329 269.127649 
L 268.385359 270.544872 
L 268.460389 269.07096 
L 268.610449 274.796541 
L 268.760508 274.796541 
L 268.835538 277.120787 
L 268.985598 270.374805 
L 269.060628 272.018784 
L 269.210688 268.560759 
L 269.510808 276.157076 
L 269.735898 257.052907 
L 269.810928 261.304576 
L 269.885958 260.114109 
L 269.960987 261.361265 
L 270.036017 267.767114 
L 270.111047 266.066446 
L 270.186077 258.923641 
L 270.261107 261.021132 
L 270.486197 269.07096 
L 270.561227 267.653736 
L 270.636257 274.85323 
L 270.711287 273.379318 
L 270.861347 270.998383 
L 271.011407 270.998383 
L 271.086437 269.751227 
L 271.236496 275.023297 
L 271.311526 276.780654 
L 271.536616 273.946207 
L 271.686676 257.336351 
L 271.761706 267.823803 
L 271.836736 266.519958 
L 271.911766 267.937181 
L 271.986796 274.399719 
L 272.061826 272.018784 
L 272.211886 268.050559 
L 272.436975 278.197877 
L 272.512005 271.055072 
L 272.587035 251.157258 
L 272.812125 269.07096 
L 272.887155 267.256914 
L 272.962185 270.374805 
L 273.037215 266.860091 
L 273.112245 272.982496 
L 273.187275 265.442868 
L 273.262305 266.293202 
L 273.337335 268.560759 
L 273.412365 275.590186 
L 273.487395 274.201308 
L 273.562425 274.626475 
L 273.637454 276.610587 
L 273.787514 269.977982 
L 273.862544 272.273884 
L 274.012604 265.981413 
L 274.087634 272.670707 
L 274.162664 269.496127 
L 274.237694 258.21503 
L 274.312724 263.146967 
L 274.387754 264.082334 
L 274.462784 268.334004 
L 274.537814 253.113026 
L 274.612844 268.900893 
L 274.687874 266.066446 
L 274.762904 271.735339 
L 274.837933 270.743283 
L 275.138053 250.760436 
L 275.213083 258.753575 
L 275.288113 248.322812 
L 275.438173 257.166285 
L 275.513203 256.259262 
L 275.588233 260.652654 
L 275.663263 255.919128 
L 275.813323 229.275332 
L 275.888353 227.262875 
L 276.263502 263.883923 
L 276.413562 263.883923 
L 276.563622 251.04388 
L 276.638652 251.100569 
L 276.938772 270.204738 
L 277.238892 270.204738 
L 277.463981 254.048394 
L 277.614041 249.456591 
L 277.914161 267.115192 
L 278.064221 254.246805 
L 278.139251 255.04045 
L 278.214281 267.313603 
L 278.289311 264.224056 
L 278.364341 271.451895 
L 278.439371 255.947473 
L 278.5144 262.608422 
L 278.73949 274.938264 
L 278.88955 268.022214 
L 279.11464 276.752309 
L 279.2647 271.480239 
L 279.33973 272.75574 
L 279.48979 251.86587 
L 279.63985 262.778489 
L 279.71488 257.619796 
L 279.939969 268.022214 
L 280.090029 258.385097 
L 280.165059 266.179824 
L 280.240089 247.104 
L 280.315119 264.337434 
L 280.390149 251.922559 
L 280.615239 270.063016 
L 280.765299 265.499557 
L 280.915359 272.387262 
L 280.990388 267.767114 
L 281.140448 278.311255 
L 281.290508 271.905406 
L 281.365538 277.205821 
L 281.440568 276.582243 
L 281.515598 278.02781 
L 281.590628 274.257996 
L 281.665658 274.739852 
L 281.740688 275.505153 
L 281.890748 273.691107 
L 281.965778 277.092443 
L 282.115838 271.111761 
L 282.190867 278.538011 
L 282.265897 276.213764 
L 282.340927 274.994953 
L 282.415957 275.079986 
L 282.490987 277.659332 
L 282.566017 276.553898 
L 282.641047 277.404232 
L 282.716077 275.873631 
L 282.866137 280.550467 
L 282.941167 279.558411 
L 283.016197 268.475726 
L 283.091227 272.642362 
L 283.166257 270.176394 
L 283.241287 271.338517 
L 283.466376 278.764766 
L 283.841526 278.764766 
L 283.916556 275.646875 
L 284.066616 256.202573 
L 284.141646 260.709343 
L 284.216676 254.983761 
L 284.291706 264.904323 
L 284.441766 256.004162 
L 284.591826 251.979248 
L 284.666855 263.146967 
L 284.741885 261.474643 
L 284.816915 256.797807 
L 284.891945 265.301146 
L 284.966975 259.037019 
L 285.042005 264.875979 
L 285.117035 260.369209 
L 285.267095 265.981413 
L 285.342125 265.527902 
L 285.417155 267.115192 
L 285.492185 263.713856 
L 285.567215 270.233083 
L 285.642245 267.767114 
L 285.717275 267.880492 
L 285.867334 272.047128 
L 286.092424 265.244457 
L 286.242484 254.643627 
L 286.392544 267.426981 
L 286.467574 262.750144 
L 286.542604 262.013188 
L 286.692664 272.897462 
L 286.842724 265.726313 
L 286.992784 272.925807 
L 287.067814 258.696886 
L 287.142843 266.66168 
L 287.217873 252.064281 
L 287.517993 271.16845 
L 287.593023 271.026728 
L 287.668053 271.508583 
L 287.818113 268.532415 
L 287.968173 274.34303 
L 288.043203 270.148049 
L 288.118233 271.055072 
L 288.268293 275.391775 
L 288.418352 275.391775 
L 288.493382 273.861174 
L 288.643442 275.42012 
L 288.718472 274.428063 
L 288.793502 274.909919 
L 288.868532 263.713856 
L 288.943562 268.957582 
L 289.018592 276.100387 
L 289.093622 275.023297 
L 289.318712 279.133244 
L 289.393742 278.991522 
L 289.468772 275.335086 
L 289.543802 278.509666 
L 289.768891 273.464351 
L 289.843921 273.492696 
L 290.069011 276.213764 
L 290.144041 275.987009 
L 290.369131 278.141188 
L 290.444161 273.946207 
L 290.519191 275.42012 
L 290.669251 268.957582 
L 290.744281 269.32606 
L 290.89434 271.792028 
L 290.96937 270.176394 
L 291.0444 277.460921 
L 291.11943 276.525554 
L 291.19446 276.327142 
L 291.26949 277.375888 
L 291.41955 268.844204 
L 291.49458 269.099304 
L 291.56961 268.589104 
L 291.71967 261.673054 
L 291.94476 269.552815 
L 292.019789 264.394123 
L 292.094819 268.75917 
L 292.169849 266.718369 
L 292.394939 257.648141 
L 292.469969 266.888436 
L 292.544999 266.293202 
L 292.620029 269.892949 
L 292.845119 249.541624 
L 292.920149 256.11754 
L 292.995179 229.558777 
L 293.070209 239.734439 
L 293.220269 249.825069 
L 293.295298 242.228752 
L 293.370328 247.160689 
L 293.445358 246.792211 
L 293.520388 246.140288 
L 293.595418 246.8489 
L 293.670448 258.186685 
L 293.745478 253.821638 
L 293.820508 252.63117 
L 293.895538 246.02691 
L 293.970568 248.294467 
L 294.045598 253.991705 
L 294.195658 246.140288 
L 294.420748 251.128914 
L 294.570807 250.165202 
L 294.645837 262.239944 
L 294.720867 261.304576 
L 294.795897 266.690025 
L 294.870927 259.887353 
L 295.020987 236.276415 
L 295.096017 239.961195 
L 295.246077 236.078004 
L 295.396137 242.710608 
L 295.471167 233.527002 
L 295.546197 241.661863 
L 295.621227 235.539459 
L 295.696256 210.709708 
L 295.846316 242.909019 
L 296.071406 252.035937 
L 296.221466 232.534946 
L 296.296496 246.990622 
L 296.371526 239.791128 
L 296.446556 241.548485 
L 296.821706 241.548485 
L 296.896736 238.572316 
L 296.971765 229.64381 
L 297.046795 232.81839 
L 297.196855 240.726496 
L 297.271885 239.025828 
L 297.346915 226.157441 
L 297.647035 253.226404 
L 297.722065 250.420302 
L 297.872125 259.575564 
L 298.172244 204.162137 
L 298.472364 233.583691 
L 298.697454 179.757554 
L 298.772484 224.825251 
L 298.847514 212.892232 
L 298.997574 235.369392 
L 299.222664 249.598313 
L 299.297694 236.361448 
L 299.372723 193.476274 
L 299.447753 207.42175 
L 299.597813 193.306207 
L 299.672843 164.451543 
L 299.747873 169.865336 
L 299.822903 172.444682 
L 300.047993 114.962109 
L 300.123023 129.95633 
L 300.198053 77.689139 
L 300.348113 159.718018 
L 300.498173 183.017167 
L 300.648232 142.739684 
L 300.723262 172.954882 
L 300.873322 103.936112 
L 301.023382 189.70646 
L 301.173442 151.92329 
L 301.248472 183.782467 
L 301.323502 181.429877 
L 301.473562 181.429877 
L 301.548592 145.885919 
L 301.623622 154.304225 
L 301.773682 191.322095 
L 301.848711 180.239409 
L 301.998771 231.117722 
L 302.073801 228.424998 
L 302.448951 180.012654 
L 302.674041 206.514728 
L 302.749071 190.358383 
L 302.974161 223.29465 
L 303.12422 226.157441 
L 303.19925 225.902341 
L 303.27428 209.745996 
L 303.49937 241.57683 
L 303.5744 247.529167 
L 303.64943 241.350074 
L 303.72446 222.444316 
L 303.79949 233.07349 
L 303.87452 231.797989 
L 304.24967 231.797989 
L 304.324699 230.380766 
L 304.549789 198.323178 
L 304.624819 188.232548 
L 304.699849 213.289054 
L 304.774879 205.607705 
L 304.849909 216.321912 
L 304.924939 205.380949 
L 305.074999 216.293568 
L 305.450149 141.974383 
L 305.525178 144.213596 
L 305.600208 150.052555 
L 305.675238 144.553729 
L 305.750268 115.217209 
L 305.975358 180.607888 
L 306.050388 136.447213 
L 306.125418 137.297547 
L 306.200448 169.666924 
L 306.275478 160.653385 
L 306.425538 162.439086 
L 306.575598 121.311269 
L 306.650628 130.636598 
L 306.725657 159.236162 
L 306.875717 123.408759 
L 306.950747 122.756837 
L 307.025777 140.273715 
L 307.175837 53.568 
L 307.250867 116.662777 
L 307.325897 103.681012 
L 307.400927 107.365793 
L 307.475957 118.3351 
L 307.626017 78.907951 
L 307.701047 149.173877 
L 307.776077 147.218109 
L 307.851107 147.218109 
L 307.926137 156.43006 
L 308.001166 134.122967 
L 308.151226 184.661146 
L 308.226256 183.867501 
L 308.376316 148.578643 
L 308.451346 151.809912 
L 308.676436 188.771093 
L 308.826496 150.789511 
L 308.901526 164.706643 
L 309.051586 103.057434 
L 309.126616 96.708274 
L 309.201645 103.425912 
L 309.276675 74.571248 
L 309.426735 128.312351 
L 309.651825 105.183269 
L 309.801885 54.163234 
L 310.026975 136.645624 
L 310.177035 115.727409 
L 310.327095 144.270285 
L 310.552184 168.193012 
L 310.627214 162.297364 
L 310.777274 134.151311 
L 310.852304 136.30549 
L 311.002364 95.489462 
L 311.152424 130.409842 
L 311.227454 141.124049 
L 311.302484 60.937561 
L 311.377514 98.437286 
L 311.527574 110.313617 
L 311.602604 130.296464 
L 311.752663 106.430425 
L 311.977753 159.973118 
L 312.052783 143.703395 
L 312.127813 153.567269 
L 312.202843 148.918777 
L 312.352903 118.675234 
L 312.577993 173.380049 
L 312.653023 166.7191 
L 312.728053 197.019332 
L 312.803083 193.334552 
L 312.878112 193.646341 
L 312.953142 192.654285 
L 313.028172 218.816225 
L 313.253262 143.760084 
L 313.328292 171.027459 
L 313.403322 174.598861 
L 313.628412 142.371206 
L 313.928532 201.63948 
L 314.003562 196.650854 
L 314.078592 164.224787 
L 314.153621 183.045511 
L 314.228651 170.914081 
L 314.303681 183.867501 
L 314.453741 172.30296 
L 314.603801 172.30296 
L 314.753861 224.11664 
L 314.828891 190.131627 
L 314.978951 232.846735 
L 315.053981 198.266489 
L 315.129011 225.873996 
L 315.204041 217.852513 
L 315.279071 206.486383 
L 315.3541 237.211782 
L 315.42913 228.510032 
L 315.50416 218.617814 
L 315.65422 236.163037 
L 315.72925 229.530432 
L 315.80428 252.092626 
L 315.87931 250.250236 
L 316.02937 254.955417 
L 316.32949 254.955417 
L 316.554579 187.013736 
L 316.704639 212.863888 
L 316.779669 206.854861 
L 316.854699 184.406046 
L 316.929729 189.337982 
L 317.004759 206.089561 
L 317.079789 166.549033 
L 317.154819 204.757371 
L 317.229849 198.039733 
L 317.304879 192.88104 
L 317.755059 241.83193 
L 317.905118 139.678482 
L 317.980148 174.853961 
L 318.055178 153.935747 
L 318.205238 194.184886 
L 318.280268 193.986475 
L 318.355298 198.4649 
L 318.430328 218.220991 
L 318.505358 187.779037 
L 318.655418 226.242475 
L 318.805478 206.939895 
L 318.880508 225.987374 
L 318.955538 219.128014 
L 319.105597 196.083965 
L 319.255657 224.966974 
L 319.330687 211.049842 
L 319.405717 216.832112 
L 319.705837 241.038285 
L 319.780867 239.706095 
L 319.855897 244.666376 
L 319.930927 235.454425 
L 320.005957 239.67775 
L 320.080987 241.661863 
L 320.156017 216.038467 
L 320.231046 218.929603 
L 320.306076 211.531698 
L 320.381106 222.472661 
L 320.456136 211.985209 
L 320.606196 241.945308 
L 320.681226 219.978348 
L 320.756256 244.751409 
L 320.831286 243.249153 
L 320.981346 246.338699 
L 321.056376 244.241209 
L 321.131406 220.857026 
L 321.206436 228.793476 
L 321.281466 276.497209 
L 321.356496 215.329856 
L 321.431526 219.524837 
L 321.581585 241.435107 
L 321.656615 236.163037 
L 321.806675 249.825069 
L 321.956735 235.142636 
L 322.181825 253.141371 
L 322.331885 235.369392 
L 322.406915 248.011023 
L 322.481945 243.589286 
L 322.556975 252.177659 
L 322.632005 251.695803 
L 322.707034 254.445216 
L 322.782064 248.209434 
L 322.932124 256.486018 
L 323.232244 256.486018 
L 323.307274 259.859009 
L 323.457334 235.029258 
L 323.532364 234.377336 
L 323.607394 250.193547 
L 323.682424 230.692555 
L 323.757454 239.904506 
L 323.832484 236.021315 
L 323.907513 219.893315 
L 323.982543 242.34213 
L 324.057573 237.721982 
L 324.132603 243.447564 
L 324.282663 215.018067 
L 324.357693 207.931951 
L 324.432723 234.859192 
L 324.507753 230.324077 
L 324.732843 260.454243 
L 324.807873 241.293385 
L 324.882903 250.193547 
L 325.032963 239.734439 
L 325.183022 196.62251 
L 325.333082 235.000914 
L 325.408112 229.332021 
L 325.483142 248.379501 
L 325.558172 239.252583 
L 325.633202 244.638032 
L 325.783262 234.037202 
L 325.933322 237.977083 
L 326.008352 223.748162 
L 326.233442 243.249153 
L 326.308472 234.15058 
L 326.383501 244.723065 
L 326.458531 208.640562 
L 326.608591 242.767297 
L 326.683621 244.552998 
L 326.758651 252.149315 
L 326.833681 216.265223 
L 327.058771 260.822721 
L 327.133801 263.146967 
L 327.283861 257.194629 
L 327.433921 265.527902 
L 327.508951 248.69129 
L 327.583981 249.626657 
L 327.65901 255.465617 
L 327.73404 237.892049 
L 327.80907 245.374988 
L 327.8841 262.268288 
L 327.95913 258.016619 
L 328.03416 257.874896 
L 328.10919 264.110678 
L 328.18422 263.997301 
L 328.33428 256.684429 
L 328.48434 265.697968 
L 328.55937 262.353322 
L 328.70943 267.17188 
L 328.78446 263.968956 
L 328.859489 265.386179 
L 328.934519 266.378236 
L 329.009549 235.48277 
L 329.084579 243.107431 
L 329.309669 256.259262 
L 329.384699 258.810264 
L 329.534759 255.975817 
L 329.609789 255.975817 
L 329.684819 248.521223 
L 329.759849 262.551733 
L 329.909909 247.217378 
L 329.984939 247.897645 
L 330.059968 257.789863 
L 330.134998 249.910102 
L 330.210028 259.490531 
L 330.285058 257.931585 
L 330.360088 242.427163 
L 330.435118 252.092626 
L 330.585178 241.746896 
L 330.735238 256.486018 
L 330.885298 229.842221 
L 331.110388 248.606257 
L 331.260448 222.954517 
L 331.335477 224.598496 
L 331.485537 247.500822 
L 331.560567 246.196977 
L 331.710627 257.336351 
L 331.785657 250.080169 
L 331.860687 250.590369 
L 331.935717 255.635684 
L 332.010747 252.092626 
L 332.085777 217.087213 
L 332.235837 253.96336 
L 332.310867 254.728661 
L 332.385897 263.770545 
L 332.460927 256.514362 
L 332.535956 258.555163 
L 332.686016 252.37607 
L 332.761046 248.322812 
L 332.836076 249.825069 
L 332.911106 250.618714 
L 332.986136 248.833012 
L 333.061166 212.155276 
L 333.136196 217.625757 
L 333.211226 235.907937 
L 333.286256 231.4862 
L 333.511346 250.760436 
L 333.586376 255.210517 
L 333.661406 247.189033 
L 333.811465 255.55065 
L 333.886495 256.712773 
L 333.961525 256.429329 
L 334.036555 252.517793 
L 334.111585 253.878327 
L 334.186615 255.408928 
L 334.336675 243.504253 
L 334.411705 255.153828 
L 334.486735 250.958847 
L 334.561765 238.118805 
L 334.711825 258.696886 
L 334.861885 258.696886 
L 335.011944 262.806833 
L 335.086974 263.713856 
L 335.162004 257.024562 
L 335.237034 260.907754 
L 335.312064 255.607339 
L 335.462124 266.860091 
L 335.537154 264.422467 
L 335.687214 267.795459 
L 335.987334 267.795459 
L 336.137394 249.088112 
L 336.212423 256.11754 
L 336.512543 244.921476 
L 336.587573 244.779754 
L 336.662603 250.958847 
L 336.812663 228.339965 
L 336.887693 238.855761 
L 336.962723 242.172063 
L 337.037753 251.724148 
L 337.112783 244.978165 
L 337.187813 253.566538 
L 337.262843 251.100569 
L 337.412902 233.300246 
L 337.487932 240.471395 
L 337.562962 245.658432 
L 337.637992 242.427163 
L 337.938112 203.085047 
L 338.088172 233.64038 
L 338.238232 237.041715 
L 338.388292 222.359283 
L 338.463322 225.647241 
L 338.538352 230.664211 
L 338.613382 230.210699 
L 338.763441 205.57936 
L 338.913501 229.105265 
L 338.988531 222.926172 
L 339.138591 251.837525 
L 339.213621 248.577912 
L 339.288651 248.124401 
L 339.438711 218.646158 
L 339.513741 244.014453 
L 339.588771 239.42265 
L 339.813861 252.801237 
L 339.88889 251.894214 
L 339.96392 243.589286 
L 340.18901 253.254749 
L 340.4141 258.923641 
L 340.56416 258.72523 
L 340.63919 256.37264 
L 340.86428 244.43962 
L 340.93931 247.840956 
L 341.01434 245.545054 
L 341.089369 245.941877 
L 341.164399 254.303494 
L 341.239429 252.206004 
L 341.314459 223.408028 
L 341.464519 259.150397 
L 341.614579 261.814777 
L 341.689609 258.895297 
L 341.839669 264.734257 
L 341.989729 264.224056 
L 342.289849 264.224056 
L 342.364878 270.374805 
L 342.514938 260.142453 
L 342.589968 255.437272 
L 342.740028 228.680098 
L 342.815058 234.093891 
L 342.890088 242.994053 
L 342.965118 228.05652 
L 343.040148 235.000914 
L 343.190208 230.692555 
L 343.340268 237.693638 
L 343.415298 237.211782 
L 343.640387 253.651571 
L 343.715417 242.455508 
L 343.790447 245.148232 
L 343.940507 252.262692 
L 344.015537 249.995135 
L 344.090567 250.958847 
L 344.165597 249.059768 
L 344.240627 257.761518 
L 344.315657 250.108513 
L 344.465717 255.664028 
L 344.615777 239.649406 
L 344.765837 250.391958 
L 344.990926 234.207269 
L 345.140986 250.675402 
L 345.291046 226.46923 
L 345.441106 240.839873 
L 345.516136 240.839873 
L 345.591166 226.129097 
L 345.666196 226.979431 
L 345.816256 230.550833 
L 345.891286 216.775424 
L 345.966316 220.148415 
L 346.041345 237.750327 
L 346.116375 237.523571 
L 346.191405 236.219726 
L 346.266435 243.022397 
L 346.341465 236.078004 
L 346.491525 249.796724 
L 346.566555 243.702664 
L 346.641585 253.027993 
L 346.716615 248.351156 
L 346.791645 236.474826 
L 346.941705 250.335269 
L 347.016735 252.801237 
L 347.316854 245.346643 
L 347.391884 258.21503 
L 347.541944 242.285441 
L 347.692004 258.044963 
L 347.767034 247.245722 
L 347.842064 248.69129 
L 347.992124 259.773975 
L 348.142184 245.970221 
L 348.217214 256.88284 
L 348.292244 242.257097 
L 348.442304 252.319381 
L 348.517333 252.319381 
L 348.592363 253.141371 
L 348.667393 250.306924 
L 348.892483 264.365779 
L 348.967513 247.415789 
L 349.042543 253.339782 
L 349.117573 251.128914 
L 349.267633 260.142453 
L 349.342663 257.308007 
L 349.417693 254.842039 
L 349.492723 259.745631 
L 349.567753 258.271719 
L 349.642783 256.486018 
L 349.717812 257.761518 
L 349.792842 242.285441 
L 349.867872 252.63117 
L 349.942902 247.302411 
L 350.167992 260.000731 
L 350.243022 262.069877 
L 350.393082 256.514362 
L 350.468112 254.473561 
L 350.693202 240.131262 
L 350.843262 243.532598 
L 350.918291 241.151663 
L 350.993321 251.128914 
L 351.068351 221.055438 
L 351.143381 242.483852 
L 351.218411 219.298081 
L 351.368471 238.118805 
L 351.443501 230.437455 
L 351.518531 238.232183 
L 351.593561 235.99297 
L 351.668591 231.741301 
L 351.743621 244.864787 
L 351.818651 226.781019 
L 351.893681 229.275332 
L 351.968711 220.913715 
L 352.043741 230.380766 
L 352.118771 218.306025 
L 352.1938 230.976 
L 352.26883 225.080351 
L 352.34386 229.728844 
L 352.41889 228.283276 
L 352.49392 221.96246 
L 352.64398 244.836443 
L 352.71901 246.367044 
L 352.79404 238.799072 
L 352.86907 242.34213 
L 353.09416 245.545054 
L 353.16919 250.165202 
L 353.31925 223.521406 
L 353.394279 234.292302 
L 353.619369 216.43529 
L 353.994519 240.272984 
L 354.069549 234.434025 
L 354.144579 219.156359 
L 354.219609 241.350074 
L 354.294639 233.782102 
L 354.369669 234.207269 
L 354.444699 242.568886 
L 354.519729 242.34213 
L 354.594758 242.030341 
L 354.669788 240.556429 
L 354.894878 258.923641 
L 354.969908 255.947473 
L 355.044938 254.161772 
L 355.194998 255.437272 
L 355.495118 255.437272 
L 355.570148 242.172063 
L 355.645178 245.658432 
L 355.720208 245.063199 
L 355.870267 256.826151 
L 355.945297 247.104 
L 356.020327 260.964443 
L 356.170387 251.582425 
L 356.245417 260.454243 
L 356.320447 259.433842 
L 356.395477 256.854496 
L 356.470507 261.616366 
L 356.545537 244.411276 
L 356.620567 248.237779 
L 356.695597 237.466882 
L 356.770627 252.999649 
L 356.845657 245.318299 
L 357.070746 252.687859 
L 357.145776 242.483852 
L 357.220806 243.957764 
L 357.295836 251.525736 
L 357.445896 238.288872 
L 357.520926 240.811529 
L 357.670986 252.092626 
L 357.746016 225.788963 
L 357.821046 246.480422 
L 357.896076 240.698151 
L 357.971106 235.964626 
L 358.046136 237.32516 
L 358.121166 251.270636 
L 358.196196 249.343213 
L 358.271225 257.336351 
L 358.346255 244.411276 
L 358.496315 257.052907 
L 358.571345 254.53025 
L 358.646375 237.466882 
L 358.796435 259.065364 
L 358.871465 258.753575 
L 358.946495 259.093708 
L 359.096555 264.762601 
L 359.171585 262.353322 
L 359.246615 259.405497 
L 359.396675 263.883923 
L 359.546734 256.230917 
L 359.621764 261.361265 
L 359.921884 246.792211 
L 360.071944 256.37264 
L 360.222004 235.907937 
L 360.297034 237.83536 
L 360.372064 236.106348 
L 360.447094 229.558777 
L 360.522124 242.228752 
L 360.597154 237.240127 
L 360.672184 247.245722 
L 360.747213 247.160689 
L 360.822243 230.749244 
L 360.897273 236.559859 
L 360.972303 222.52935 
L 361.047333 234.15058 
L 361.122363 226.355852 
L 361.197393 234.859192 
L 361.347453 224.796907 
L 361.497513 233.385279 
L 361.572543 229.615466 
L 361.647573 243.67432 
L 361.722603 237.750327 
L 361.797633 222.671072 
L 361.872663 237.523571 
L 361.947693 234.802503 
L 362.022722 216.973835 
L 362.097752 222.557694 
L 362.172782 239.450995 
L 362.247812 223.833195 
L 362.397872 253.566538 
L 362.547932 268.078903 
L 362.848052 268.078903 
L 363.073142 243.050742 
L 363.373261 253.736605 
L 363.448291 255.465617 
L 363.523321 241.123318 
L 363.673381 254.048394 
L 363.823441 237.977083 
L 364.048531 254.388527 
L 364.198591 257.39304 
L 364.273621 256.854496 
L 364.348651 248.776323 
L 364.42368 253.878327 
L 364.49871 218.419402 
L 364.57374 243.67432 
L 364.64877 242.909019 
L 364.7238 250.165202 
L 364.79883 248.237779 
L 364.87386 252.687859 
L 364.94889 246.140288 
L 365.09895 254.842039 
L 365.24901 254.842039 
L 365.32404 256.939529 
L 365.4741 246.650489 
L 365.62416 260.340865 
L 365.699189 252.744548 
L 365.774219 254.78535 
L 365.924279 251.128914 
L 365.999309 252.546137 
L 366.074339 259.178742 
L 366.149369 250.505336 
L 366.224399 260.425898 
L 366.299429 258.526819 
L 366.449489 259.320464 
L 366.524519 259.320464 
L 366.674579 256.826151 
L 366.749609 262.863522 
L 366.899668 254.870383 
L 366.974698 261.758088 
L 367.049728 258.810264 
L 367.274818 261.219543 
L 367.349848 259.518875 
L 367.424878 264.195712 
L 367.574938 249.881757 
L 367.649968 255.607339 
L 367.724998 251.780837 
L 367.800028 261.332921 
L 367.875058 260.05742 
L 367.950088 260.000731 
L 368.025118 258.044963 
L 368.100147 252.546137 
L 368.325237 264.025645 
L 368.625357 258.328408 
L 368.700387 265.726313 
L 368.775417 264.394123 
L 368.850447 262.608422 
L 368.925477 263.770545 
L 369.150567 231.146067 
L 369.225597 255.607339 
L 369.300627 252.744548 
L 369.450686 261.956499 
L 369.600746 259.830664 
L 369.675776 262.948555 
L 369.900866 256.11754 
L 369.975896 261.559677 
L 370.050926 259.887353 
L 370.125956 257.874896 
L 370.276016 263.317033 
L 370.426076 254.842039 
L 370.576135 265.953069 
L 370.651165 266.633336 
L 370.951285 247.3591 
L 371.026315 231.429511 
L 371.101345 248.94639 
L 371.176375 248.776323 
L 371.401465 262.806833 
L 371.551525 247.132344 
L 371.626555 260.510931 
L 371.701585 259.717286 
L 371.776614 254.105083 
L 371.851644 254.643627 
L 371.926674 253.509849 
L 372.001704 262.069877 
L 372.076734 260.369209 
L 372.151764 265.442868 
L 372.226794 263.572134 
L 372.301824 262.410011 
L 372.451884 265.102735 
L 372.526914 264.30909 
L 372.601944 269.949638 
L 372.676974 268.617448 
L 372.752004 268.022214 
L 372.827034 258.866953 
L 372.902064 262.863522 
L 372.977094 268.107248 
L 373.052123 266.434924 
L 373.127153 265.386179 
L 373.202183 267.540359 
L 373.277213 265.612935 
L 373.427273 268.447381 
L 373.502303 266.038102 
L 373.577333 267.143536 
L 373.652363 268.192281 
L 373.727393 270.998383 
L 373.802423 266.094791 
L 373.877453 268.163937 
L 373.952483 271.508583 
L 374.102543 256.37264 
L 374.177573 264.932668 
L 374.327632 251.724148 
L 374.402662 264.762601 
L 374.477692 256.939529 
L 374.552722 261.361265 
L 374.702782 258.441786 
L 375.002902 258.441786 
L 375.077932 254.133427 
L 375.227992 264.337434 
L 375.303022 240.613118 
L 375.378052 248.294467 
L 375.453081 262.891866 
L 375.528111 262.665111 
L 375.753201 254.757005 
L 375.828231 236.446482 
L 375.978291 251.128914 
L 376.053321 250.590369 
L 376.128351 251.469047 
L 376.203381 258.47013 
L 376.503501 232.733357 
L 376.653561 250.108513 
L 376.72859 247.415789 
L 376.87865 253.311438 
L 376.95368 246.905589 
L 377.02871 225.845652 
L 377.10374 228.935199 
L 377.17877 237.608605 
L 377.2538 227.858109 
L 377.32883 230.834278 
L 377.47889 244.751409 
L 377.55392 254.190116 
L 377.62895 242.228752 
L 377.77901 261.446299 
L 377.929069 251.950903 
L 378.004099 257.024562 
L 378.079129 237.693638 
L 378.304219 256.344295 
L 378.379249 265.584591 
L 378.454279 264.422467 
L 378.529309 267.795459 
L 378.604339 267.17188 
L 378.679369 253.793293 
L 378.754399 255.153828 
L 378.904459 263.345378 
L 378.979489 265.981413 
L 379.054519 262.324977 
L 379.129549 263.713856 
L 379.204578 268.929237 
L 379.279608 257.818207 
L 379.354638 265.669624 
L 379.429668 258.129996 
L 379.579728 262.7218 
L 379.654758 262.7218 
L 379.729788 265.357835 
L 379.804818 261.247888 
L 379.954878 246.253666 
L 380.029908 251.695803 
L 380.104938 242.115374 
L 380.254998 254.161772 
L 380.330028 255.465617 
L 380.405057 251.072225 
L 380.480087 254.190116 
L 380.630147 242.427163 
L 380.855237 259.263775 
L 381.005297 251.327325 
L 381.080327 254.842039 
L 381.155357 252.404415 
L 381.230387 262.353322 
L 381.305417 252.772893 
L 381.455477 259.093708 
L 381.755596 259.093708 
L 381.905656 244.326243 
L 381.980686 227.404598 
L 382.130746 240.953251 
L 382.280806 214.876344 
L 382.355836 226.781019 
L 382.505896 211.049842 
L 382.655956 136.192112 
L 382.881045 198.493244 
L 382.956075 147.529898 
L 383.031105 176.299529 
L 383.181165 131.03342 
L 383.256195 132.705743 
L 383.331225 175.704295 
L 383.406255 151.611501 
L 383.631345 199.79709 
L 383.706375 183.754123 
L 383.781405 197.047677 
L 383.856435 194.865153 
L 383.931465 179.077286 
L 384.006495 193.107796 
L 384.081524 188.714404 
L 384.306614 214.848 
L 384.456674 164.394854 
L 384.531704 169.780302 
L 384.606734 174.485483 
L 384.831824 153.51058 
L 384.906854 193.277863 
L 384.981884 188.771093 
L 385.131944 214.366144 
L 385.282003 195.063564 
L 385.357033 195.176942 
L 385.507093 209.859374 
L 385.582123 196.395754 
L 385.732183 218.589469 
L 385.807213 204.133793 
L 385.957273 216.888801 
L 386.257393 216.888801 
L 386.332423 203.822004 
L 386.557512 239.819473 
L 386.632542 216.491979 
L 386.782602 237.466882 
L 387.007692 221.027093 
L 387.082722 237.126749 
L 387.157752 236.588204 
L 387.382842 249.116457 
L 387.532902 233.215213 
L 387.607932 240.102917 
L 387.682962 238.175494 
L 387.757991 241.180007 
L 387.833021 235.312703 
L 387.983081 245.034854 
L 388.208171 249.286524 
L 388.283201 222.671072 
L 388.358231 228.396654 
L 388.658351 254.643627 
L 388.808411 214.026011 
L 388.883441 215.159789 
L 388.95847 236.843304 
L 389.0335 227.432942 
L 389.10853 247.075656 
L 389.18356 241.123318 
L 389.25859 245.091543 
L 389.33362 227.54632 
L 389.63374 253.396471 
L 389.70877 238.345561 
L 389.85883 259.263775 
L 389.93386 256.996218 
L 390.00889 258.611852 
L 390.08392 250.420302 
L 390.15895 260.284176 
L 390.309009 255.29555 
L 390.384039 255.408928 
L 390.459069 246.820555 
L 390.534099 260.964443 
L 390.609129 253.849982 
L 390.684159 256.457673 
L 390.834219 261.304576 
L 390.909249 255.720717 
L 390.984279 257.70483 
L 391.059309 257.364696 
L 391.284399 232.960112 
L 391.434458 255.408928 
L 391.509488 255.749062 
L 391.659548 259.405497 
L 391.809608 253.19806 
L 391.884638 254.388527 
L 391.959668 235.709525 
L 392.034698 242.738953 
L 392.184758 254.21846 
L 392.334818 248.351156 
L 392.409848 237.523571 
L 392.559908 245.885188 
L 392.709967 239.025828 
L 392.784997 242.937364 
L 392.935057 209.944408 
L 393.010087 235.057603 
L 393.085117 227.517975 
L 393.160147 228.481687 
L 393.235177 231.372822 
L 393.385237 240.669807 
L 393.535297 233.215213 
L 393.685357 250.391958 
L 393.760387 244.893132 
L 393.910446 250.051824 
L 393.985476 248.747979 
L 394.060506 242.965708 
L 394.210566 263.458756 
L 394.585716 263.458756 
L 394.885836 250.817125 
L 394.960866 237.381849 
L 395.185955 261.786432 
L 395.260985 253.991705 
L 395.411045 263.203656 
L 395.636135 257.70483 
L 395.711165 247.274067 
L 395.786195 249.428246 
L 395.861225 251.497392 
L 395.936255 250.703747 
L 396.011285 251.185603 
L 396.161345 245.51671 
L 396.311405 257.676485 
L 396.386434 254.076738 
L 396.461464 251.752492 
L 396.536494 259.745631 
L 396.611524 259.717286 
L 396.686554 259.915698 
L 396.761584 258.101652 
L 396.836614 261.247888 
L 396.986674 257.563107 
L 397.061704 261.502988 
L 397.211764 245.885188 
L 397.286794 248.322812 
L 397.436854 262.636766 
L 397.586913 260.000731 
L 397.661943 261.417954 
L 397.736973 260.936098 
L 397.812003 255.919128 
L 397.887033 258.498475 
L 398.037093 248.294467 
L 398.112123 249.598313 
L 398.187153 253.481504 
L 398.412243 213.459121 
L 398.487273 223.047025 
L 398.487273 223.047025 
" style="fill:none;stroke:#1f77b4;stroke-linecap:square;stroke-width:1.5;"/>
   </g>
   <g id="patch_3">
    <path d="M 57.6 307.584 
L 57.6 41.472 
" style="fill:none;stroke:#000000;stroke-linecap:square;stroke-linejoin:miter;stroke-width:0.8;"/>
   </g>
   <g id="patch_4">
    <path d="M 414.72 307.584 
L 414.72 41.472 
" style="fill:none;stroke:#000000;stroke-linecap:square;stroke-linejoin:miter;stroke-width:0.8;"/>
   </g>
   <g id="patch_5">
    <path d="M 57.6 307.584 
L 414.72 307.584 
" style="fill:none;stroke:#000000;stroke-linecap:square;stroke-linejoin:miter;stroke-width:0.8;"/>
   </g>
   <g id="patch_6">
    <path d="M 57.6 41.472 
L 414.72 41.472 
" style="fill:none;stroke:#000000;stroke-linecap:square;stroke-linejoin:miter;stroke-width:0.8;"/>
   </g>
   <g id="text_13">
    <!-- GE stock volume history -->
    <defs>
     <path d="M 59.515625 10.40625 
L 59.515625 29.984375 
L 43.40625 29.984375 
L 43.40625 38.09375 
L 69.28125 38.09375 
L 69.28125 6.78125 
Q 63.578125 2.734375 56.6875 0.65625 
Q 49.8125 -1.421875 42 -1.421875 
Q 24.90625 -1.421875 15.25 8.5625 
Q 5.609375 18.5625 5.609375 36.375 
Q 5.609375 54.25 15.25 64.234375 
Q 24.90625 74.21875 42 74.21875 
Q 49.125 74.21875 55.546875 72.453125 
Q 61.96875 70.703125 67.390625 67.28125 
L 67.390625 56.78125 
Q 61.921875 61.421875 55.765625 63.765625 
Q 49.609375 66.109375 42.828125 66.109375 
Q 29.4375 66.109375 22.71875 58.640625 
Q 16.015625 51.171875 16.015625 36.375 
Q 16.015625 21.625 22.71875 14.15625 
Q 29.4375 6.6875 42.828125 6.6875 
Q 48.046875 6.6875 52.140625 7.59375 
Q 56.25 8.5 59.515625 10.40625 
z
" id="DejaVuSans-71"/>
     <path d="M 9.8125 72.90625 
L 55.90625 72.90625 
L 55.90625 64.59375 
L 19.671875 64.59375 
L 19.671875 43.015625 
L 54.390625 43.015625 
L 54.390625 34.71875 
L 19.671875 34.71875 
L 19.671875 8.296875 
L 56.78125 8.296875 
L 56.78125 0 
L 9.8125 0 
z
" id="DejaVuSans-69"/>
     <path id="DejaVuSans-32"/>
     <path d="M 18.3125 70.21875 
L 18.3125 54.6875 
L 36.8125 54.6875 
L 36.8125 47.703125 
L 18.3125 47.703125 
L 18.3125 18.015625 
Q 18.3125 11.328125 20.140625 9.421875 
Q 21.96875 7.515625 27.59375 7.515625 
L 36.8125 7.515625 
L 36.8125 0 
L 27.59375 0 
Q 17.1875 0 13.234375 3.875 
Q 9.28125 7.765625 9.28125 18.015625 
L 9.28125 47.703125 
L 2.6875 47.703125 
L 2.6875 54.6875 
L 9.28125 54.6875 
L 9.28125 70.21875 
z
" id="DejaVuSans-116"/>
     <path d="M 48.78125 52.59375 
L 48.78125 44.1875 
Q 44.96875 46.296875 41.140625 47.34375 
Q 37.3125 48.390625 33.40625 48.390625 
Q 24.65625 48.390625 19.8125 42.84375 
Q 14.984375 37.3125 14.984375 27.296875 
Q 14.984375 17.28125 19.8125 11.734375 
Q 24.65625 6.203125 33.40625 6.203125 
Q 37.3125 6.203125 41.140625 7.25 
Q 44.96875 8.296875 48.78125 10.40625 
L 48.78125 2.09375 
Q 45.015625 0.34375 40.984375 -0.53125 
Q 36.96875 -1.421875 32.421875 -1.421875 
Q 20.0625 -1.421875 12.78125 6.34375 
Q 5.515625 14.109375 5.515625 27.296875 
Q 5.515625 40.671875 12.859375 48.328125 
Q 20.21875 56 33.015625 56 
Q 37.15625 56 41.109375 55.140625 
Q 45.0625 54.296875 48.78125 52.59375 
z
" id="DejaVuSans-99"/>
     <path d="M 9.078125 75.984375 
L 18.109375 75.984375 
L 18.109375 31.109375 
L 44.921875 54.6875 
L 56.390625 54.6875 
L 27.390625 29.109375 
L 57.625 0 
L 45.90625 0 
L 18.109375 26.703125 
L 18.109375 0 
L 9.078125 0 
z
" id="DejaVuSans-107"/>
     <path d="M 2.984375 54.6875 
L 12.5 54.6875 
L 29.59375 8.796875 
L 46.6875 54.6875 
L 56.203125 54.6875 
L 35.6875 0 
L 23.484375 0 
z
" id="DejaVuSans-118"/>
     <path d="M 54.890625 33.015625 
L 54.890625 0 
L 45.90625 0 
L 45.90625 32.71875 
Q 45.90625 40.484375 42.875 44.328125 
Q 39.84375 48.1875 33.796875 48.1875 
Q 26.515625 48.1875 22.3125 43.546875 
Q 18.109375 38.921875 18.109375 30.90625 
L 18.109375 0 
L 9.078125 0 
L 9.078125 75.984375 
L 18.109375 75.984375 
L 18.109375 46.1875 
Q 21.34375 51.125 25.703125 53.5625 
Q 30.078125 56 35.796875 56 
Q 45.21875 56 50.046875 50.171875 
Q 54.890625 44.34375 54.890625 33.015625 
z
" id="DejaVuSans-104"/>
     <path d="M 9.421875 54.6875 
L 18.40625 54.6875 
L 18.40625 0 
L 9.421875 0 
z
M 9.421875 75.984375 
L 18.40625 75.984375 
L 18.40625 64.59375 
L 9.421875 64.59375 
z
" id="DejaVuSans-105"/>
     <path d="M 41.109375 46.296875 
Q 39.59375 47.171875 37.8125 47.578125 
Q 36.03125 48 33.890625 48 
Q 26.265625 48 22.1875 43.046875 
Q 18.109375 38.09375 18.109375 28.8125 
L 18.109375 0 
L 9.078125 0 
L 9.078125 54.6875 
L 18.109375 54.6875 
L 18.109375 46.1875 
Q 20.953125 51.171875 25.484375 53.578125 
Q 30.03125 56 36.53125 56 
Q 37.453125 56 38.578125 55.875 
Q 39.703125 55.765625 41.0625 55.515625 
z
" id="DejaVuSans-114"/>
    </defs>
    <g transform="translate(163.212187 35.472)scale(0.12 -0.12)">
     <use xlink:href="#DejaVuSans-71"/>
     <use x="77.490234" xlink:href="#DejaVuSans-69"/>
     <use x="140.673828" xlink:href="#DejaVuSans-32"/>
     <use x="172.460938" xlink:href="#DejaVuSans-115"/>
     <use x="224.560547" xlink:href="#DejaVuSans-116"/>
     <use x="263.769531" xlink:href="#DejaVuSans-111"/>
     <use x="324.951172" xlink:href="#DejaVuSans-99"/>
     <use x="379.931641" xlink:href="#DejaVuSans-107"/>
     <use x="437.841797" xlink:href="#DejaVuSans-32"/>
     <use x="469.628906" xlink:href="#DejaVuSans-118"/>
     <use x="528.808594" xlink:href="#DejaVuSans-111"/>
     <use x="589.990234" xlink:href="#DejaVuSans-108"/>
     <use x="617.773438" xlink:href="#DejaVuSans-117"/>
     <use x="681.152344" xlink:href="#DejaVuSans-109"/>
     <use x="778.564453" xlink:href="#DejaVuSans-101"/>
     <use x="840.087891" xlink:href="#DejaVuSans-32"/>
     <use x="871.875" xlink:href="#DejaVuSans-104"/>
     <use x="935.253906" xlink:href="#DejaVuSans-105"/>
     <use x="963.037109" xlink:href="#DejaVuSans-115"/>
     <use x="1015.136719" xlink:href="#DejaVuSans-116"/>
     <use x="1054.345703" xlink:href="#DejaVuSans-111"/>
     <use x="1115.527344" xlink:href="#DejaVuSans-114"/>
     <use x="1156.640625" xlink:href="#DejaVuSans-121"/>
    </g>
   </g>
  </g>
 </g>
 <defs>
  <clipPath id="pf15a0bf689">
   <rect height="266.112" width="357.12" x="57.6" y="41.472"/>
  </clipPath>
 </defs>
</svg>
